%YAML 1.1
%TAG !u! tag:unity3d.com,2011:
--- !u!1 &100000
GameObject:
  m_ObjectHideFlags: 0
  m_PrefabParentObject: {fileID: 0}
  m_PrefabInternal: {fileID: 100100000}
  serializedVersion: 5
  m_Component:
  - component: {fileID: 400000}
  - component: {fileID: 11400000}
  m_Layer: 0
  m_Name: Blue
  m_TagString: Untagged
  m_Icon: {fileID: 0}
  m_NavMeshLayer: 0
  m_StaticEditorFlags: 0
  m_IsActive: 1
--- !u!4 &400000
Transform:
  m_ObjectHideFlags: 1
  m_PrefabParentObject: {fileID: 0}
  m_PrefabInternal: {fileID: 100100000}
  m_GameObject: {fileID: 100000}
  m_LocalRotation: {x: 0, y: 0, z: 0, w: 1}
  m_LocalPosition: {x: 0, y: 0, z: 0}
  m_LocalScale: {x: 1, y: 1, z: 1}
  m_Children: []
  m_Father: {fileID: 0}
  m_RootOrder: 0
  m_LocalEulerAnglesHint: {x: 0, y: 0, z: 0}
--- !u!114 &11400000
MonoBehaviour:
  m_ObjectHideFlags: 1
  m_PrefabParentObject: {fileID: 0}
  m_PrefabInternal: {fileID: 100100000}
  m_GameObject: {fileID: 100000}
  m_Enabled: 1
  m_EditorHideFlags: 0
  m_Script: {fileID: 11500000, guid: d546f34a90531a14eaba82a43b05b86b, type: 3}
  m_Name: 
  m_EditorClassIdentifier: 
  version: 3
  materialIdsValid: 1
  needMaterialInstance: 0
  spriteDefinitions:
  - name: Back
    boundsData:
    - {x: 0.48, y: 0, z: 0}
    - {x: 0.96, y: 7.68, z: 0}
    untrimmedBoundsData:
    - {x: 0.48, y: 0, z: 0}
    - {x: 0.96, y: 7.68, z: 0}
    texelSize: {x: 0.01, y: 0.01}
    positions:
    - {x: 0, y: -3.84, z: 0}
    - {x: 0.30999997, y: -3.84, z: 0}
    - {x: 0, y: -3.1999998, z: 0}
    - {x: 0.30999997, y: -3.1999998, z: 0}
    - {x: 0, y: -3.1999998, z: 0}
    - {x: 0.55, y: -3.1999998, z: 0}
    - {x: 0, y: -2.56, z: 0}
    - {x: 0.55, y: -2.56, z: 0}
    - {x: 0, y: -2.56, z: 0}
    - {x: 0.64, y: -2.56, z: 0}
    - {x: 0, y: -1.92, z: 0}
    - {x: 0.64, y: -1.92, z: 0}
    - {x: 0, y: -1.92, z: 0}
    - {x: 0.64, y: -1.92, z: 0}
    - {x: 0, y: -1.2799999, z: 0}
    - {x: 0.64, y: -1.2799999, z: 0}
    - {x: 0, y: -1.2799999, z: 0}
    - {x: 0.64, y: -1.2799999, z: 0}
    - {x: 0, y: -0.64000005, z: 0}
    - {x: 0.64, y: -0.64000005, z: 0}
    - {x: 0, y: -0.64000005, z: 0}
    - {x: 0.64, y: -0.64000005, z: 0}
    - {x: 0, y: 0, z: 0}
    - {x: 0.64, y: 0, z: 0}
    - {x: 0, y: 0, z: 0}
    - {x: 0.64, y: 0, z: 0}
    - {x: 0, y: 0.6399998, z: 0}
    - {x: 0.64, y: 0.6399998, z: 0}
    - {x: 0, y: 0.6399998, z: 0}
    - {x: 0.64, y: 0.6399998, z: 0}
    - {x: 0, y: 1.2800001, z: 0}
    - {x: 0.64, y: 1.2800001, z: 0}
    - {x: 0, y: 1.2800001, z: 0}
    - {x: 0.64, y: 1.2800001, z: 0}
    - {x: 0, y: 1.92, z: 0}
    - {x: 0.64, y: 1.92, z: 0}
    - {x: 0, y: 1.92, z: 0}
    - {x: 0.64, y: 1.92, z: 0}
    - {x: 0, y: 2.5599997, z: 0}
    - {x: 0.64, y: 2.5599997, z: 0}
    - {x: 0, y: 2.5599997, z: 0}
    - {x: 0.55, y: 2.5599997, z: 0}
    - {x: 0, y: 3.2, z: 0}
    - {x: 0.55, y: 3.2, z: 0}
    - {x: 0, y: 3.2, z: 0}
    - {x: 0.30999997, y: 3.2, z: 0}
    - {x: 0, y: 3.84, z: 0}
    - {x: 0.30999997, y: 3.84, z: 0}
    - {x: 0.64, y: -2.27, z: 0}
    - {x: 0.73999995, y: -2.27, z: 0}
    - {x: 0.64, y: -1.92, z: 0}
    - {x: 0.73999995, y: -1.92, z: 0}
    - {x: 0.64, y: -1.92, z: 0}
    - {x: 0.85999995, y: -1.92, z: 0}
    - {x: 0.64, y: -1.2799999, z: 0}
    - {x: 0.85999995, y: -1.2799999, z: 0}
    - {x: 0.64, y: -1.2799999, z: 0}
    - {x: 0.94, y: -1.2799999, z: 0}
    - {x: 0.64, y: -0.64000005, z: 0}
    - {x: 0.94, y: -0.64000005, z: 0}
    - {x: 0.64, y: -0.64000005, z: 0}
    - {x: 0.96, y: -0.64000005, z: 0}
    - {x: 0.64, y: 0, z: 0}
    - {x: 0.96, y: 0, z: 0}
    - {x: 0.64, y: 0, z: 0}
    - {x: 0.96, y: 0, z: 0}
    - {x: 0.64, y: 0.6399998, z: 0}
    - {x: 0.96, y: 0.6399998, z: 0}
    - {x: 0.64, y: 0.6399998, z: 0}
    - {x: 0.94, y: 0.6399998, z: 0}
    - {x: 0.64, y: 1.2800001, z: 0}
    - {x: 0.94, y: 1.2800001, z: 0}
    - {x: 0.64, y: 1.2800001, z: 0}
    - {x: 0.85999995, y: 1.2800001, z: 0}
    - {x: 0.64, y: 1.92, z: 0}
    - {x: 0.85999995, y: 1.92, z: 0}
    - {x: 0.64, y: 1.92, z: 0}
    - {x: 0.73999995, y: 1.92, z: 0}
    - {x: 0.64, y: 2.2700002, z: 0}
    - {x: 0.73999995, y: 2.2700002, z: 0}
    normals: []
    tangents: []
    uvs:
    - {x: 0.1367207, y: 0.9335957}
    - {x: 0.1367207, y: 0.99413866}
    - {x: 0.26171678, y: 0.9335957}
    - {x: 0.26171678, y: 0.99413866}
    - {x: 0.3925801, y: 0.6582051}
    - {x: 0.49999803, y: 0.6582051}
    - {x: 0.3925801, y: 0.78320116}
    - {x: 0.49999803, y: 0.78320116}
    - {x: 0.003908203, y: 0.003908203}
    - {x: 0.1289043, y: 0.003908203}
    - {x: 0.003908203, y: 0.1289043}
    - {x: 0.1289043, y: 0.1289043}
    - {x: 0.003908203, y: 0.1367207}
    - {x: 0.1289043, y: 0.1367207}
    - {x: 0.003908203, y: 0.26171678}
    - {x: 0.1289043, y: 0.26171678}
    - {x: 0.003908203, y: 0.26953322}
    - {x: 0.1289043, y: 0.26953322}
    - {x: 0.003908203, y: 0.39452928}
    - {x: 0.1289043, y: 0.39452928}
    - {x: 0.003908203, y: 0.40234572}
    - {x: 0.1289043, y: 0.40234572}
    - {x: 0.003908203, y: 0.5273418}
    - {x: 0.1289043, y: 0.5273418}
    - {x: 0.003908203, y: 0.5351582}
    - {x: 0.1289043, y: 0.5351582}
    - {x: 0.003908203, y: 0.6601543}
    - {x: 0.1289043, y: 0.6601543}
    - {x: 0.003908203, y: 0.6679707}
    - {x: 0.1289043, y: 0.6679707}
    - {x: 0.003908203, y: 0.7929668}
    - {x: 0.1289043, y: 0.7929668}
    - {x: 0.003908203, y: 0.8007832}
    - {x: 0.1289043, y: 0.8007832}
    - {x: 0.003908203, y: 0.9257793}
    - {x: 0.1289043, y: 0.9257793}
    - {x: 0.1367207, y: 0.003908203}
    - {x: 0.26171678, y: 0.003908203}
    - {x: 0.1367207, y: 0.1289043}
    - {x: 0.26171678, y: 0.1289043}
    - {x: 0.26953322, y: 0.6660176}
    - {x: 0.37695116, y: 0.6660176}
    - {x: 0.26953322, y: 0.79101366}
    - {x: 0.37695116, y: 0.79101366}
    - {x: 0.26953322, y: 0.9335957}
    - {x: 0.26953322, y: 0.99413866}
    - {x: 0.39452928, y: 0.9335957}
    - {x: 0.39452928, y: 0.99413866}
    - {x: 0.6601582, y: 0.96875197}
    - {x: 0.6601582, y: 0.9882793}
    - {x: 0.72851366, y: 0.96875197}
    - {x: 0.72851366, y: 0.9882793}
    - {x: 0.5195332, y: 0.26172072}
    - {x: 0.5195332, y: 0.30468553}
    - {x: 0.6445293, y: 0.26172072}
    - {x: 0.6445293, y: 0.30468553}
    - {x: 0.40234572, y: 0.9335957}
    - {x: 0.40234572, y: 0.99218553}
    - {x: 0.5273418, y: 0.9335957}
    - {x: 0.5273418, y: 0.99218553}
    - {x: 0.003908203, y: 0.9335957}
    - {x: 0.003908203, y: 0.9960918}
    - {x: 0.1289043, y: 0.9335957}
    - {x: 0.1289043, y: 0.9960918}
    - {x: 0.9335957, y: 0.003908203}
    - {x: 0.9960918, y: 0.003908203}
    - {x: 0.9335957, y: 0.1289043}
    - {x: 0.9960918, y: 0.1289043}
    - {x: 0.5585957, y: 0.7832051}
    - {x: 0.61718553, y: 0.7832051}
    - {x: 0.5585957, y: 0.90820116}
    - {x: 0.61718553, y: 0.90820116}
    - {x: 0.5195332, y: 0.31250197}
    - {x: 0.5195332, y: 0.35546678}
    - {x: 0.6445293, y: 0.31250197}
    - {x: 0.6445293, y: 0.35546678}
    - {x: 0.7363301, y: 0.96875197}
    - {x: 0.7363301, y: 0.9882793}
    - {x: 0.80468553, y: 0.96875197}
    - {x: 0.80468553, y: 0.9882793}
    normalizedUvs:
    - {x: 0.1338588, y: 0.9370116}
    - {x: 0.1338588, y: 0.9980315}
    - {x: 0.2598396, y: 0.9370116}
    - {x: 0.2598396, y: 0.9980315}
    - {x: 0.39173386, y: 0.6594514}
    - {x: 0.49999803, y: 0.6594514}
    - {x: 0.39173386, y: 0.7854322}
    - {x: 0.49999803, y: 0.7854322}
    - {x: 0, y: 0}
    - {x: 0.12598081, y: 0}
    - {x: 0, y: 0.12598081}
    - {x: 0.12598081, y: 0.12598081}
    - {x: 0, y: 0.1338588}
    - {x: 0.12598081, y: 0.1338588}
    - {x: 0, y: 0.2598396}
    - {x: 0.12598081, y: 0.2598396}
    - {x: 0, y: 0.2677176}
    - {x: 0.12598081, y: 0.2677176}
    - {x: 0, y: 0.3936984}
    - {x: 0.12598081, y: 0.3936984}
    - {x: 0, y: 0.4015764}
    - {x: 0.12598081, y: 0.4015764}
    - {x: 0, y: 0.5275572}
    - {x: 0.12598081, y: 0.5275572}
    - {x: 0, y: 0.5354352}
    - {x: 0.12598081, y: 0.5354352}
    - {x: 0, y: 0.661416}
    - {x: 0.12598081, y: 0.661416}
    - {x: 0, y: 0.669294}
    - {x: 0.12598081, y: 0.669294}
    - {x: 0, y: 0.7952748}
    - {x: 0.12598081, y: 0.7952748}
    - {x: 0, y: 0.8031528}
    - {x: 0.12598081, y: 0.8031528}
    - {x: 0, y: 0.9291336}
    - {x: 0.12598081, y: 0.9291336}
    - {x: 0.1338588, y: 0}
    - {x: 0.2598396, y: 0}
    - {x: 0.1338588, y: 0.12598081}
    - {x: 0.2598396, y: 0.12598081}
    - {x: 0.2677176, y: 0.6673255}
    - {x: 0.37598178, y: 0.6673255}
    - {x: 0.2677176, y: 0.7933063}
    - {x: 0.37598178, y: 0.7933063}
    - {x: 0.2677176, y: 0.9370116}
    - {x: 0.2677176, y: 0.9980315}
    - {x: 0.3936984, y: 0.9370116}
    - {x: 0.3936984, y: 0.9980315}
    - {x: 0.66142, y: 0.97244483}
    - {x: 0.66142, y: 0.992126}
    - {x: 0.7303139, y: 0.97244483}
    - {x: 0.7303139, y: 0.992126}
    - {x: 0.5196871, y: 0.25984356}
    - {x: 0.5196871, y: 0.30314687}
    - {x: 0.6456679, y: 0.25984356}
    - {x: 0.6456679, y: 0.30314687}
    - {x: 0.4015764, y: 0.9370116}
    - {x: 0.4015764, y: 0.996063}
    - {x: 0.5275572, y: 0.9370116}
    - {x: 0.5275572, y: 0.996063}
    - {x: 0, y: 0.9370116}
    - {x: 0, y: 1}
    - {x: 0.12598081, y: 0.9370116}
    - {x: 0.12598081, y: 1}
    - {x: 0.9370116, y: 0}
    - {x: 1, y: 0}
    - {x: 0.9370116, y: 0.12598081}
    - {x: 1, y: 0.12598081}
    - {x: 0.55905735, y: 0.7854362}
    - {x: 0.61810875, y: 0.7854362}
    - {x: 0.55905735, y: 0.911417}
    - {x: 0.61810875, y: 0.911417}
    - {x: 0.5196871, y: 0.31102487}
    - {x: 0.5196871, y: 0.35432816}
    - {x: 0.6456679, y: 0.31102487}
    - {x: 0.6456679, y: 0.35432816}
    - {x: 0.7381919, y: 0.97244483}
    - {x: 0.7381919, y: 0.992126}
    - {x: 0.8070859, y: 0.97244483}
    - {x: 0.8070859, y: 0.992126}
    indices: 000000000300000001000000020000000300000000000000040000000700000005000000060000000700000004000000080000000b000000090000000a0000000b000000080000000c0000000f0000000d0000000e0000000f0000000c000000100000001300000011000000120000001300000010000000140000001700000015000000160000001700000014000000180000001b000000190000001a0000001b000000180000001c0000001f0000001d0000001e0000001f0000001c000000200000002300000021000000220000002300000020000000240000002700000025000000260000002700000024000000280000002b000000290000002a0000002b000000280000002c0000002f0000002d0000002e0000002f0000002c000000300000003300000031000000320000003300000030000000340000003700000035000000360000003700000034000000380000003b000000390000003a0000003b000000380000003c0000003f0000003d0000003e0000003f0000003c000000400000004300000041000000420000004300000040000000440000004700000045000000460000004700000044000000480000004b000000490000004a0000004b000000480000004c0000004f0000004d0000004e0000004f0000004c000000
    material: {fileID: 2100000, guid: cd02316cffe0d49d6b2046ec07bb35ea, type: 2}
    materialId: 0
    sourceTextureGUID: d19077900d2de4131973a0921b30cc87
    extractRegion: 0
    regionX: 0
    regionY: 0
    regionW: 0
    regionH: 0
    flipped: 0
    complexGeometry: 0
    physicsEngine: 0
    colliderType: 1
    customColliders: []
    colliderVertices: []
    colliderIndicesFwd: 
    colliderIndicesBack: 
    colliderConvex: 0
    colliderSmoothSphereCollisions: 0
    polygonCollider2D: []
    edgeCollider2D: []
    attachPoints: []
  - name: Blue Pearl
    boundsData:
    - {x: -0.004999995, y: -0.004999995, z: 0}
    - {x: 2.0900002, y: 1.5099999, z: 0}
    untrimmedBoundsData:
    - {x: 0, y: 0, z: 0}
    - {x: 2.2, y: 1.5999999, z: 0}
    texelSize: {x: 0.01, y: 0.01}
    positions:
    - {x: -0.83000004, y: -0.75999993, z: 0}
    - {x: -0.46000004, y: -0.75999993, z: 0}
    - {x: -0.83000004, y: -0.15999998, z: 0}
    - {x: -0.46000004, y: -0.15999998, z: 0}
    - {x: -1.0500001, y: -0.15999998, z: 0}
    - {x: -0.46000004, y: -0.15999998, z: 0}
    - {x: -1.0500001, y: 0.48, z: 0}
    - {x: -0.46000004, y: 0.48, z: 0}
    - {x: -0.90000004, y: 0.48, z: 0}
    - {x: -0.46000004, y: 0.48, z: 0}
    - {x: -0.90000004, y: 0.68999994, z: 0}
    - {x: -0.46000004, y: 0.68999994, z: 0}
    - {x: -0.46000004, y: -0.75999993, z: 0}
    - {x: 0.17999996, y: -0.75999993, z: 0}
    - {x: -0.46000004, y: -0.15999998, z: 0}
    - {x: 0.17999996, y: -0.15999998, z: 0}
    - {x: -0.46000004, y: -0.15999998, z: 0}
    - {x: 0.17999996, y: -0.15999998, z: 0}
    - {x: -0.46000004, y: 0.48, z: 0}
    - {x: 0.17999996, y: 0.48, z: 0}
    - {x: -0.46000004, y: 0.48, z: 0}
    - {x: 0.17999996, y: 0.48, z: 0}
    - {x: -0.46000004, y: 0.74999994, z: 0}
    - {x: 0.17999996, y: 0.74999994, z: 0}
    - {x: 0.17999996, y: -0.75999993, z: 0}
    - {x: 0.81, y: -0.75999993, z: 0}
    - {x: 0.17999996, y: -0.15999998, z: 0}
    - {x: 0.81, y: -0.15999998, z: 0}
    - {x: 0.17999996, y: -0.15999998, z: 0}
    - {x: 0.82, y: -0.15999998, z: 0}
    - {x: 0.17999996, y: 0.48, z: 0}
    - {x: 0.82, y: 0.48, z: 0}
    - {x: 0.17999996, y: 0.48, z: 0}
    - {x: 0.82, y: 0.48, z: 0}
    - {x: 0.17999996, y: 0.7399999, z: 0}
    - {x: 0.82, y: 0.7399999, z: 0}
    - {x: 0.82, y: -0.15999998, z: 0}
    - {x: 1.0400001, y: -0.15999998, z: 0}
    - {x: 0.82, y: 0.48, z: 0}
    - {x: 1.0400001, y: 0.48, z: 0}
    - {x: 0.82, y: 0.48, z: 0}
    - {x: 0.89, y: 0.48, z: 0}
    - {x: 0.82, y: 0.53, z: 0}
    - {x: 0.89, y: 0.53, z: 0}
    normals: []
    tangents: []
    uvs:
    - {x: 0.39843947, y: 0.7910176}
    - {x: 0.47070116, y: 0.7910176}
    - {x: 0.39843947, y: 0.90820116}
    - {x: 0.47070116, y: 0.90820116}
    - {x: 0.39453322, y: 0.3925801}
    - {x: 0.50976366, y: 0.3925801}
    - {x: 0.39453322, y: 0.51757616}
    - {x: 0.50976366, y: 0.51757616}
    - {x: 0.6523457, y: 0.2382832}
    - {x: 0.6523457, y: 0.32421678}
    - {x: 0.6933574, y: 0.2382832}
    - {x: 0.6933574, y: 0.32421678}
    - {x: 0.39843947, y: 0.1367207}
    - {x: 0.52343553, y: 0.1367207}
    - {x: 0.39843947, y: 0.25390428}
    - {x: 0.52343553, y: 0.25390428}
    - {x: 0.26953322, y: 0.003908203}
    - {x: 0.39452928, y: 0.003908203}
    - {x: 0.26953322, y: 0.1289043}
    - {x: 0.39452928, y: 0.1289043}
    - {x: 0.51562697, y: 0.5253926}
    - {x: 0.51562697, y: 0.65038866}
    - {x: 0.5683574, y: 0.5253926}
    - {x: 0.5683574, y: 0.65038866}
    - {x: 0.39453322, y: 0.26172072}
    - {x: 0.39453322, y: 0.38476366}
    - {x: 0.5117168, y: 0.26172072}
    - {x: 0.5117168, y: 0.38476366}
    - {x: 0.40234572, y: 0.003908203}
    - {x: 0.5273418, y: 0.003908203}
    - {x: 0.40234572, y: 0.1289043}
    - {x: 0.5273418, y: 0.1289043}
    - {x: 0.5878926, y: 0.71875197}
    - {x: 0.71288866, y: 0.71875197}
    - {x: 0.5878926, y: 0.7695293}
    - {x: 0.71288866, y: 0.7695293}
    - {x: 0.53125197, y: 0.1367207}
    - {x: 0.53125197, y: 0.17968555}
    - {x: 0.65624803, y: 0.1367207}
    - {x: 0.65624803, y: 0.17968555}
    - {x: 0.39843947, y: 0.9160176}
    - {x: 0.4121074, y: 0.9160176}
    - {x: 0.39843947, y: 0.9257793}
    - {x: 0.4121074, y: 0.9257793}
    normalizedUvs:
    - {x: 0.2907515, y: 0.8538172}
    - {x: 0.45373964, y: 0.8538172}
    - {x: 0.2907515, y: 0.9809321}
    - {x: 0.45373964, y: 0.9809321}
    - {x: 0.28194082, y: 0.421612}
    - {x: 0.54184616, y: 0.421612}
    - {x: 0.28194082, y: 0.5572015}
    - {x: 0.54184616, y: 0.5572015}
    - {x: 0.8634438, y: 0.25423837}
    - {x: 0.8634438, y: 0.34745485}
    - {x: 0.95594674, y: 0.25423837}
    - {x: 0.95594674, y: 0.34745485}
    - {x: 0.2907515, y: 0.1440684}
    - {x: 0.57268345, y: 0.1440684}
    - {x: 0.2907515, y: 0.27118334}
    - {x: 0.57268345, y: 0.27118334}
    - {x: 0, y: 0}
    - {x: 0.28193197, y: 0}
    - {x: 0, y: 0.13558957}
    - {x: 0.28193197, y: 0.13558957}
    - {x: 0.555071, y: 0.5656804}
    - {x: 0.555071, y: 0.7012699}
    - {x: 0.6740059, y: 0.5656804}
    - {x: 0.6740059, y: 0.7012699}
    - {x: 0.28194082, y: 0.27966222}
    - {x: 0.28194082, y: 0.4131331}
    - {x: 0.5462515, y: 0.27966222}
    - {x: 0.5462515, y: 0.4131331}
    - {x: 0.29956213, y: 0}
    - {x: 0.5814941, y: 0}
    - {x: 0.29956213, y: 0.13558957}
    - {x: 0.5814941, y: 0.13558957}
    - {x: 0.71806806, y: 0.77542704}
    - {x: 1, y: 0.77542704}
    - {x: 0.71806806, y: 0.83050776}
    - {x: 1, y: 0.83050776}
    - {x: 0.5903136, y: 0.1440684}
    - {x: 0.5903136, y: 0.19067454}
    - {x: 0.87224555, y: 0.1440684}
    - {x: 0.87224555, y: 0.19067454}
    - {x: 0.2907515, y: 0.989411}
    - {x: 0.32157987, y: 0.989411}
    - {x: 0.2907515, y: 1}
    - {x: 0.32157987, y: 1}
    indices: 000000000300000001000000020000000300000000000000040000000700000005000000060000000700000004000000080000000b000000090000000a0000000b000000080000000c0000000f0000000d0000000e0000000f0000000c000000100000001300000011000000120000001300000010000000140000001700000015000000160000001700000014000000180000001b000000190000001a0000001b000000180000001c0000001f0000001d0000001e0000001f0000001c000000200000002300000021000000220000002300000020000000240000002700000025000000260000002700000024000000280000002b000000290000002a0000002b00000028000000
    material: {fileID: 2100000, guid: cd02316cffe0d49d6b2046ec07bb35ea, type: 2}
    materialId: 0
    sourceTextureGUID: 82efa5a175a6444bba869a0cf520195d
    extractRegion: 0
    regionX: 0
    regionY: 0
    regionW: 0
    regionH: 0
    flipped: 0
    complexGeometry: 0
    physicsEngine: 0
    colliderType: 1
    customColliders: []
    colliderVertices: []
    colliderIndicesFwd: 
    colliderIndicesBack: 
    colliderConvex: 0
    colliderSmoothSphereCollisions: 0
    polygonCollider2D: []
    edgeCollider2D: []
    attachPoints: []
  - name: Volga Blue
    boundsData:
    - {x: -0.004999995, y: -0.02000001, z: 0}
    - {x: 2.0900002, y: 1.54, z: 0}
    untrimmedBoundsData:
    - {x: 0, y: 0, z: 0}
    - {x: 2.2, y: 1.5999999, z: 0}
    texelSize: {x: 0.01, y: 0.01}
    positions:
    - {x: -0.83000004, y: -0.75999993, z: 0}
    - {x: -0.46000004, y: -0.75999993, z: 0}
    - {x: -0.83000004, y: -0.15999998, z: 0}
    - {x: -0.46000004, y: -0.15999998, z: 0}
    - {x: -1.0500001, y: -0.15999998, z: 0}
    - {x: -0.46000004, y: -0.15999998, z: 0}
    - {x: -1.0500001, y: 0.48, z: 0}
    - {x: -0.46000004, y: 0.48, z: 0}
    - {x: -0.90000004, y: 0.48, z: 0}
    - {x: -0.46000004, y: 0.48, z: 0}
    - {x: -0.90000004, y: 0.68999994, z: 0}
    - {x: -0.46000004, y: 0.68999994, z: 0}
    - {x: -0.46000004, y: -0.78999996, z: 0}
    - {x: 0.17999996, y: -0.78999996, z: 0}
    - {x: -0.46000004, y: -0.15999998, z: 0}
    - {x: 0.17999996, y: -0.15999998, z: 0}
    - {x: -0.46000004, y: -0.15999998, z: 0}
    - {x: 0.17999996, y: -0.15999998, z: 0}
    - {x: -0.46000004, y: 0.48, z: 0}
    - {x: 0.17999996, y: 0.48, z: 0}
    - {x: -0.46000004, y: 0.48, z: 0}
    - {x: 0.17999996, y: 0.48, z: 0}
    - {x: -0.46000004, y: 0.74999994, z: 0}
    - {x: 0.17999996, y: 0.74999994, z: 0}
    - {x: 0.17999996, y: -0.75999993, z: 0}
    - {x: 0.81, y: -0.75999993, z: 0}
    - {x: 0.17999996, y: -0.15999998, z: 0}
    - {x: 0.81, y: -0.15999998, z: 0}
    - {x: 0.17999996, y: -0.15999998, z: 0}
    - {x: 0.82, y: -0.15999998, z: 0}
    - {x: 0.17999996, y: 0.48, z: 0}
    - {x: 0.82, y: 0.48, z: 0}
    - {x: 0.17999996, y: 0.48, z: 0}
    - {x: 0.82, y: 0.48, z: 0}
    - {x: 0.17999996, y: 0.7399999, z: 0}
    - {x: 0.82, y: 0.7399999, z: 0}
    - {x: 0.82, y: -0.15999998, z: 0}
    - {x: 1.0400001, y: -0.15999998, z: 0}
    - {x: 0.82, y: 0.48, z: 0}
    - {x: 1.0400001, y: 0.48, z: 0}
    - {x: 0.82, y: 0.48, z: 0}
    - {x: 0.89, y: 0.48, z: 0}
    - {x: 0.82, y: 0.53, z: 0}
    - {x: 0.89, y: 0.53, z: 0}
    normals: []
    tangents: []
    uvs:
    - {x: 0.4785176, y: 0.7910176}
    - {x: 0.5507793, y: 0.7910176}
    - {x: 0.4785176, y: 0.90820116}
    - {x: 0.5507793, y: 0.90820116}
    - {x: 0.26953322, y: 0.4003926}
    - {x: 0.38476366, y: 0.4003926}
    - {x: 0.26953322, y: 0.52538866}
    - {x: 0.38476366, y: 0.52538866}
    - {x: 0.66406447, y: 0.1367207}
    - {x: 0.66406447, y: 0.2226543}
    - {x: 0.70507616, y: 0.1367207}
    - {x: 0.70507616, y: 0.2226543}
    - {x: 0.2675801, y: 0.8007832}
    - {x: 0.2675801, y: 0.9257793}
    - {x: 0.39062303, y: 0.8007832}
    - {x: 0.39062303, y: 0.9257793}
    - {x: 0.5351582, y: 0.003908203}
    - {x: 0.6601543, y: 0.003908203}
    - {x: 0.5351582, y: 0.1289043}
    - {x: 0.6601543, y: 0.1289043}
    - {x: 0.5175801, y: 0.3925801}
    - {x: 0.5175801, y: 0.51757616}
    - {x: 0.57031053, y: 0.3925801}
    - {x: 0.57031053, y: 0.51757616}
    - {x: 0.26953322, y: 0.26953322}
    - {x: 0.26953322, y: 0.39257616}
    - {x: 0.38671678, y: 0.26953322}
    - {x: 0.38671678, y: 0.39257616}
    - {x: 0.6679707, y: 0.003908203}
    - {x: 0.7929668, y: 0.003908203}
    - {x: 0.6679707, y: 0.1289043}
    - {x: 0.7929668, y: 0.1289043}
    - {x: 0.62500197, y: 0.7773457}
    - {x: 0.62500197, y: 0.9023418}
    - {x: 0.6757793, y: 0.7773457}
    - {x: 0.6757793, y: 0.9023418}
    - {x: 0.53125197, y: 0.18750195}
    - {x: 0.53125197, y: 0.2304668}
    - {x: 0.65624803, y: 0.18750195}
    - {x: 0.65624803, y: 0.2304668}
    - {x: 0.41992384, y: 0.9160176}
    - {x: 0.43359178, y: 0.9160176}
    - {x: 0.41992384, y: 0.9257793}
    - {x: 0.43359178, y: 0.9257793}
    normalizedUvs:
    - {x: 0.40149, y: 0.8538172}
    - {x: 0.53903, y: 0.8538172}
    - {x: 0.40149, y: 0.9809321}
    - {x: 0.53903, y: 0.9809321}
    - {x: 0.0037175, y: 0.43008658}
    - {x: 0.2230425, y: 0.43008658}
    - {x: 0.0037175, y: 0.56567615}
    - {x: 0.2230425, y: 0.56567615}
    - {x: 0.7546525, y: 0.1440684}
    - {x: 0.7546525, y: 0.23728491}
    - {x: 0.83271253, y: 0.1440684}
    - {x: 0.83271253, y: 0.23728491}
    - {x: 0, y: 0.86441046}
    - {x: 0, y: 1}
    - {x: 0.23419501, y: 0.86441046}
    - {x: 0.23419501, y: 1}
    - {x: 0.5092975, y: 0}
    - {x: 0.74721, y: 0}
    - {x: 0.5092975, y: 0.13558957}
    - {x: 0.74721, y: 0.13558957}
    - {x: 0.47584, y: 0.421612}
    - {x: 0.47584, y: 0.5572015}
    - {x: 0.576205, y: 0.421612}
    - {x: 0.576205, y: 0.5572015}
    - {x: 0.0037175, y: 0.28813684}
    - {x: 0.0037175, y: 0.4216077}
    - {x: 0.22676001, y: 0.28813684}
    - {x: 0.22676001, y: 0.4216077}
    - {x: 0.76208746, y: 0}
    - {x: 1, y: 0}
    - {x: 0.76208746, y: 0.13558957}
    - {x: 1, y: 0.13558957}
    - {x: 0.6803025, y: 0.83898664}
    - {x: 0.6803025, y: 0.9745762}
    - {x: 0.77695, y: 0.83898664}
    - {x: 0.77695, y: 0.9745762}
    - {x: 0.50186247, y: 0.1991534}
    - {x: 0.50186247, y: 0.24575953}
    - {x: 0.739775, y: 0.1991534}
    - {x: 0.739775, y: 0.24575953}
    - {x: 0.289965, y: 0.989411}
    - {x: 0.31598002, y: 0.989411}
    - {x: 0.289965, y: 1}
    - {x: 0.31598002, y: 1}
    indices: 000000000300000001000000020000000300000000000000040000000700000005000000060000000700000004000000080000000b000000090000000a0000000b000000080000000c0000000f0000000d0000000e0000000f0000000c000000100000001300000011000000120000001300000010000000140000001700000015000000160000001700000014000000180000001b000000190000001a0000001b000000180000001c0000001f0000001d0000001e0000001f0000001c000000200000002300000021000000220000002300000020000000240000002700000025000000260000002700000024000000280000002b000000290000002a0000002b00000028000000
    material: {fileID: 2100000, guid: cd02316cffe0d49d6b2046ec07bb35ea, type: 2}
    materialId: 0
    sourceTextureGUID: faf6bb024082946ffb42338244858076
    extractRegion: 0
    regionX: 0
    regionY: 0
    regionW: 0
    regionH: 0
    flipped: 0
    complexGeometry: 0
    physicsEngine: 0
    colliderType: 1
    customColliders: []
    colliderVertices: []
    colliderIndicesFwd: 
    colliderIndicesBack: 
    colliderConvex: 0
    colliderSmoothSphereCollisions: 0
    polygonCollider2D: []
    edgeCollider2D: []
    attachPoints: []
  - name: Blue Eyes
    boundsData:
    - {x: -0.004999995, y: -0.025000006, z: 0}
    - {x: 2.0900002, y: 1.55, z: 0}
    untrimmedBoundsData:
    - {x: 0, y: 0, z: 0}
    - {x: 2.2, y: 1.5999999, z: 0}
    texelSize: {x: 0.01, y: 0.01}
    positions:
    - {x: -0.83000004, y: -0.75999993, z: 0}
    - {x: -0.46000004, y: -0.75999993, z: 0}
    - {x: -0.83000004, y: -0.15999998, z: 0}
    - {x: -0.46000004, y: -0.15999998, z: 0}
    - {x: -1.0500001, y: -0.15999998, z: 0}
    - {x: -0.46000004, y: -0.15999998, z: 0}
    - {x: -1.0500001, y: 0.48, z: 0}
    - {x: -0.46000004, y: 0.48, z: 0}
    - {x: -0.90000004, y: 0.48, z: 0}
    - {x: -0.46000004, y: 0.48, z: 0}
    - {x: -0.90000004, y: 0.68999994, z: 0}
    - {x: -0.46000004, y: 0.68999994, z: 0}
    - {x: -0.46000004, y: -0.75999993, z: 0}
    - {x: 0.17999996, y: -0.75999993, z: 0}
    - {x: -0.46000004, y: -0.15999998, z: 0}
    - {x: 0.17999996, y: -0.15999998, z: 0}
    - {x: -0.46000004, y: -0.15999998, z: 0}
    - {x: 0.17999996, y: -0.15999998, z: 0}
    - {x: -0.46000004, y: 0.48, z: 0}
    - {x: 0.17999996, y: 0.48, z: 0}
    - {x: -0.46000004, y: 0.48, z: 0}
    - {x: 0.17999996, y: 0.48, z: 0}
    - {x: -0.46000004, y: 0.74999994, z: 0}
    - {x: 0.17999996, y: 0.74999994, z: 0}
    - {x: 0.17999996, y: -0.79999995, z: 0}
    - {x: 0.81, y: -0.79999995, z: 0}
    - {x: 0.17999996, y: -0.15999998, z: 0}
    - {x: 0.81, y: -0.15999998, z: 0}
    - {x: 0.17999996, y: -0.15999998, z: 0}
    - {x: 0.82, y: -0.15999998, z: 0}
    - {x: 0.17999996, y: 0.48, z: 0}
    - {x: 0.82, y: 0.48, z: 0}
    - {x: 0.17999996, y: 0.48, z: 0}
    - {x: 0.82, y: 0.48, z: 0}
    - {x: 0.17999996, y: 0.7399999, z: 0}
    - {x: 0.82, y: 0.7399999, z: 0}
    - {x: 0.82, y: -0.15999998, z: 0}
    - {x: 1.0400001, y: -0.15999998, z: 0}
    - {x: 0.82, y: 0.48, z: 0}
    - {x: 1.0400001, y: 0.48, z: 0}
    - {x: 0.82, y: 0.48, z: 0}
    - {x: 0.89, y: 0.48, z: 0}
    - {x: 0.82, y: 0.53, z: 0}
    - {x: 0.89, y: 0.53, z: 0}
    normals: []
    tangents: []
    uvs:
    - {x: 0.5351582, y: 0.9160176}
    - {x: 0.5351582, y: 0.9882793}
    - {x: 0.6523418, y: 0.9160176}
    - {x: 0.6523418, y: 0.9882793}
    - {x: 0.3925801, y: 0.5253926}
    - {x: 0.50781053, y: 0.5253926}
    - {x: 0.3925801, y: 0.65038866}
    - {x: 0.50781053, y: 0.65038866}
    - {x: 0.6367207, y: 0.49609572}
    - {x: 0.6367207, y: 0.5820293}
    - {x: 0.6777324, y: 0.49609572}
    - {x: 0.6777324, y: 0.5820293}
    - {x: 0.26953322, y: 0.1367207}
    - {x: 0.26953322, y: 0.26171678}
    - {x: 0.38671678, y: 0.1367207}
    - {x: 0.38671678, y: 0.26171678}
    - {x: 0.8007832, y: 0.003908203}
    - {x: 0.9257793, y: 0.003908203}
    - {x: 0.8007832, y: 0.1289043}
    - {x: 0.9257793, y: 0.1289043}
    - {x: 0.57617384, y: 0.5253926}
    - {x: 0.57617384, y: 0.65038866}
    - {x: 0.6289043, y: 0.5253926}
    - {x: 0.6289043, y: 0.65038866}
    - {x: 0.1367207, y: 0.8007832}
    - {x: 0.25976366, y: 0.8007832}
    - {x: 0.1367207, y: 0.9257793}
    - {x: 0.25976366, y: 0.9257793}
    - {x: 0.1367207, y: 0.1367207}
    - {x: 0.26171678, y: 0.1367207}
    - {x: 0.1367207, y: 0.26171678}
    - {x: 0.26171678, y: 0.26171678}
    - {x: 0.6601582, y: 0.9101582}
    - {x: 0.7851543, y: 0.9101582}
    - {x: 0.6601582, y: 0.96093553}
    - {x: 0.7851543, y: 0.96093553}
    - {x: 0.57812697, y: 0.36328322}
    - {x: 0.6210918, y: 0.36328322}
    - {x: 0.57812697, y: 0.48827928}
    - {x: 0.6210918, y: 0.48827928}
    - {x: 0.44140822, y: 0.9160176}
    - {x: 0.45507616, y: 0.9160176}
    - {x: 0.44140822, y: 0.9257793}
    - {x: 0.45507616, y: 0.9257793}
    normalizedUvs:
    - {x: 0.504953, y: 0.92659104}
    - {x: 0.504953, y: 1}
    - {x: 0.65346366, y: 0.92659104}
    - {x: 0.65346366, y: 1}
    - {x: 0.32425907, y: 0.52976406}
    - {x: 0.47029442, y: 0.52976406}
    - {x: 0.32425907, y: 0.65674466}
    - {x: 0.47029442, y: 0.65674466}
    - {x: 0.6336665, y: 0.500002}
    - {x: 0.6336665, y: 0.58729994}
    - {x: 0.685642, y: 0.500002}
    - {x: 0.685642, y: 0.58729994}
    - {x: 0.16831769, y: 0.13492118}
    - {x: 0.16831769, y: 0.26190183}
    - {x: 0.3168283, y: 0.13492118}
    - {x: 0.3168283, y: 0.26190183}
    - {x: 0.8415884, y: 0}
    - {x: 1, y: 0}
    - {x: 0.8415884, y: 0.12698066}
    - {x: 1, y: 0.12698066}
    - {x: 0.55693346, y: 0.52976406}
    - {x: 0.55693346, y: 0.65674466}
    - {x: 0.6237605, y: 0.52976406}
    - {x: 0.6237605, y: 0.65674466}
    - {x: 0, y: 0.80952704}
    - {x: 0.1559364, y: 0.80952704}
    - {x: 0, y: 0.9365077}
    - {x: 0.1559364, y: 0.9365077}
    - {x: 0, y: 0.13492118}
    - {x: 0.15841167, y: 0.13492118}
    - {x: 0, y: 0.26190183}
    - {x: 0.15841167, y: 0.26190183}
    - {x: 0.66336966, y: 0.9206386}
    - {x: 0.82178134, y: 0.9206386}
    - {x: 0.66336966, y: 0.97222215}
    - {x: 0.82178134, y: 0.97222215}
    - {x: 0.5594087, y: 0.36508083}
    - {x: 0.6138595, y: 0.36508083}
    - {x: 0.5594087, y: 0.49206147}
    - {x: 0.6138595, y: 0.49206147}
    - {x: 0.38614056, y: 0.92659104}
    - {x: 0.40346238, y: 0.92659104}
    - {x: 0.38614056, y: 0.9365077}
    - {x: 0.40346238, y: 0.9365077}
    indices: 000000000300000001000000020000000300000000000000040000000700000005000000060000000700000004000000080000000b000000090000000a0000000b000000080000000c0000000f0000000d0000000e0000000f0000000c000000100000001300000011000000120000001300000010000000140000001700000015000000160000001700000014000000180000001b000000190000001a0000001b000000180000001c0000001f0000001d0000001e0000001f0000001c000000200000002300000021000000220000002300000020000000240000002700000025000000260000002700000024000000280000002b000000290000002a0000002b00000028000000
    material: {fileID: 2100000, guid: cd02316cffe0d49d6b2046ec07bb35ea, type: 2}
    materialId: 0
    sourceTextureGUID: 5a958f6c9b6bf4283b6e860d52599551
    extractRegion: 0
    regionX: 0
    regionY: 0
    regionW: 0
    regionH: 0
    flipped: 0
    complexGeometry: 0
    physicsEngine: 0
    colliderType: 1
    customColliders: []
    colliderVertices: []
    colliderIndicesFwd: 
    colliderIndicesBack: 
    colliderConvex: 0
    colliderSmoothSphereCollisions: 0
    polygonCollider2D: []
    edgeCollider2D: []
    attachPoints: []
  - name: Starry Night
    boundsData:
    - {x: -0.004999995, y: -0.025000006, z: 0}
    - {x: 2.0900002, y: 1.55, z: 0}
    untrimmedBoundsData:
    - {x: 0, y: 0, z: 0}
    - {x: 2.2, y: 1.5999999, z: 0}
    texelSize: {x: 0.01, y: 0.01}
    positions:
    - {x: -0.83000004, y: -0.75999993, z: 0}
    - {x: -0.46000004, y: -0.75999993, z: 0}
    - {x: -0.83000004, y: -0.15999998, z: 0}
    - {x: -0.46000004, y: -0.15999998, z: 0}
    - {x: -1.0500001, y: -0.15999998, z: 0}
    - {x: -0.46000004, y: -0.15999998, z: 0}
    - {x: -1.0500001, y: 0.48, z: 0}
    - {x: -0.46000004, y: 0.48, z: 0}
    - {x: -0.90000004, y: 0.48, z: 0}
    - {x: -0.46000004, y: 0.48, z: 0}
    - {x: -0.90000004, y: 0.68999994, z: 0}
    - {x: -0.46000004, y: 0.68999994, z: 0}
    - {x: -0.46000004, y: -0.79999995, z: 0}
    - {x: 0.17999996, y: -0.79999995, z: 0}
    - {x: -0.46000004, y: -0.15999998, z: 0}
    - {x: 0.17999996, y: -0.15999998, z: 0}
    - {x: -0.46000004, y: -0.15999998, z: 0}
    - {x: 0.17999996, y: -0.15999998, z: 0}
    - {x: -0.46000004, y: 0.48, z: 0}
    - {x: 0.17999996, y: 0.48, z: 0}
    - {x: -0.46000004, y: 0.48, z: 0}
    - {x: 0.17999996, y: 0.48, z: 0}
    - {x: -0.46000004, y: 0.74999994, z: 0}
    - {x: 0.17999996, y: 0.74999994, z: 0}
    - {x: 0.17999996, y: -0.79999995, z: 0}
    - {x: 0.82, y: -0.79999995, z: 0}
    - {x: 0.17999996, y: -0.15999998, z: 0}
    - {x: 0.82, y: -0.15999998, z: 0}
    - {x: 0.17999996, y: -0.15999998, z: 0}
    - {x: 0.82, y: -0.15999998, z: 0}
    - {x: 0.17999996, y: 0.48, z: 0}
    - {x: 0.82, y: 0.48, z: 0}
    - {x: 0.17999996, y: 0.48, z: 0}
    - {x: 0.82, y: 0.48, z: 0}
    - {x: 0.17999996, y: 0.7399999, z: 0}
    - {x: 0.82, y: 0.7399999, z: 0}
    - {x: 0.82, y: -0.15999998, z: 0}
    - {x: 1.0400001, y: -0.15999998, z: 0}
    - {x: 0.82, y: 0.48, z: 0}
    - {x: 1.0400001, y: 0.48, z: 0}
    - {x: 0.82, y: 0.48, z: 0}
    - {x: 0.89, y: 0.48, z: 0}
    - {x: 0.82, y: 0.53, z: 0}
    - {x: 0.89, y: 0.53, z: 0}
    normals: []
    tangents: []
    uvs:
    - {x: 0.50781447, y: 0.6582051}
    - {x: 0.58007616, y: 0.6582051}
    - {x: 0.50781447, y: 0.77538866}
    - {x: 0.58007616, y: 0.77538866}
    - {x: 0.26953322, y: 0.5332051}
    - {x: 0.38476366, y: 0.5332051}
    - {x: 0.26953322, y: 0.65820116}
    - {x: 0.38476366, y: 0.65820116}
    - {x: 0.6367207, y: 0.5898457}
    - {x: 0.7226543, y: 0.5898457}
    - {x: 0.6367207, y: 0.6308574}
    - {x: 0.7226543, y: 0.6308574}
    - {x: 0.1367207, y: 0.26953322}
    - {x: 0.26171678, y: 0.26953322}
    - {x: 0.1367207, y: 0.39452928}
    - {x: 0.26171678, y: 0.39452928}
    - {x: 0.1367207, y: 0.40234572}
    - {x: 0.26171678, y: 0.40234572}
    - {x: 0.1367207, y: 0.5273418}
    - {x: 0.26171678, y: 0.5273418}
    - {x: 0.5878926, y: 0.6582051}
    - {x: 0.71288866, y: 0.6582051}
    - {x: 0.5878926, y: 0.71093553}
    - {x: 0.71288866, y: 0.71093553}
    - {x: 0.1367207, y: 0.5351582}
    - {x: 0.26171678, y: 0.5351582}
    - {x: 0.1367207, y: 0.6601543}
    - {x: 0.26171678, y: 0.6601543}
    - {x: 0.1367207, y: 0.6679707}
    - {x: 0.26171678, y: 0.6679707}
    - {x: 0.1367207, y: 0.7929668}
    - {x: 0.26171678, y: 0.7929668}
    - {x: 0.6835957, y: 0.7773457}
    - {x: 0.6835957, y: 0.9023418}
    - {x: 0.73437303, y: 0.7773457}
    - {x: 0.73437303, y: 0.9023418}
    - {x: 0.6289082, y: 0.36328322}
    - {x: 0.67187303, y: 0.36328322}
    - {x: 0.6289082, y: 0.48827928}
    - {x: 0.67187303, y: 0.48827928}
    - {x: 0.4628926, y: 0.9160176}
    - {x: 0.47656053, y: 0.9160176}
    - {x: 0.4628926, y: 0.9257793}
    - {x: 0.47656053, y: 0.9257793}
    normalizedUvs:
    - {x: 0.62091917, y: 0.5922654}
    - {x: 0.7418284, y: 0.5922654}
    - {x: 0.62091917, y: 0.77083194}
    - {x: 0.7418284, y: 0.77083194}
    - {x: 0.22222371, y: 0.40178812}
    - {x: 0.41502884, y: 0.40178812}
    - {x: 0.22222371, y: 0.59225947}
    - {x: 0.41502884, y: 0.59225947}
    - {x: 0.83660686, y: 0.48809817}
    - {x: 0.98039204, y: 0.48809817}
    - {x: 0.83660686, y: 0.55059254}
    - {x: 0.98039204, y: 0.55059254}
    - {x: 0, y: 0}
    - {x: 0.20914514, y: 0}
    - {x: 0, y: 0.19047134}
    - {x: 0.20914514, y: 0.19047134}
    - {x: 0, y: 0.20238216}
    - {x: 0.20914514, y: 0.20238216}
    - {x: 0, y: 0.3928535}
    - {x: 0.20914514, y: 0.3928535}
    - {x: 0.75490695, y: 0.5922654}
    - {x: 0.9640521, y: 0.5922654}
    - {x: 0.75490695, y: 0.6726171}
    - {x: 0.9640521, y: 0.6726171}
    - {x: 0, y: 0.40476432}
    - {x: 0.20914514, y: 0.40476432}
    - {x: 0, y: 0.59523565}
    - {x: 0.20914514, y: 0.59523565}
    - {x: 0, y: 0.6071465}
    - {x: 0.20914514, y: 0.6071465}
    - {x: 0, y: 0.79761785}
    - {x: 0.20914514, y: 0.79761785}
    - {x: 0.9150387, y: 0.77381414}
    - {x: 0.9150387, y: 0.9642855}
    - {x: 1, y: 0.77381414}
    - {x: 1, y: 0.9642855}
    - {x: 0.82353485, y: 0.142858}
    - {x: 0.8954242, y: 0.142858}
    - {x: 0.82353485, y: 0.33332935}
    - {x: 0.8954242, y: 0.33332935}
    - {x: 0.54575527, y: 0.98512495}
    - {x: 0.5686246, y: 0.98512495}
    - {x: 0.54575527, y: 1}
    - {x: 0.5686246, y: 1}
    indices: 000000000300000001000000020000000300000000000000040000000700000005000000060000000700000004000000080000000b000000090000000a0000000b000000080000000c0000000f0000000d0000000e0000000f0000000c000000100000001300000011000000120000001300000010000000140000001700000015000000160000001700000014000000180000001b000000190000001a0000001b000000180000001c0000001f0000001d0000001e0000001f0000001c000000200000002300000021000000220000002300000020000000240000002700000025000000260000002700000024000000280000002b000000290000002a0000002b00000028000000
    material: {fileID: 2100000, guid: cd02316cffe0d49d6b2046ec07bb35ea, type: 2}
    materialId: 0
    sourceTextureGUID: 3392b25ff455d40e3b9efe45fd6e0eb3
    extractRegion: 0
    regionX: 0
    regionY: 0
    regionW: 0
    regionH: 0
    flipped: 0
    complexGeometry: 0
    physicsEngine: 0
    colliderType: 1
    customColliders: []
    colliderVertices: []
    colliderIndicesFwd: 
    colliderIndicesBack: 
    colliderConvex: 0
    colliderSmoothSphereCollisions: 0
    polygonCollider2D: []
    edgeCollider2D: []
    attachPoints: []
  premultipliedAlpha: 0
  material: {fileID: 0}
  materials:
  - {fileID: 2100000, guid: cd02316cffe0d49d6b2046ec07bb35ea, type: 2}
  textures:
  - {fileID: 2800000, guid: 7f147028bde3248b49492c454bf613fd, type: 3}
  pngTextures: []
  materialPngTextureId: 00000000
  textureFilterMode: 1
  textureMipMaps: 0
  allowMultipleAtlases: 0
  spriteCollectionGUID: 4dab72c511fea41c59e036d5e9460986
  spriteCollectionName: Blue
  assetName: 
  loadable: 0
  invOrthoSize: 0.13020834
  halfTargetHeight: 768
  buildKey: 564419452
  dataGuid: 884c69c2649db43a8b717dd25dafb6c7
  managedSpriteCollection: 0
  hasPlatformData: 0
  spriteCollectionPlatforms: []
  spriteCollectionPlatformGUIDs: []
--- !u!1001 &100100000
Prefab:
  m_ObjectHideFlags: 1
  serializedVersion: 2
  m_Modification:
    m_TransformParent: {fileID: 0}
    m_Modifications: []
    m_RemovedComponents: []
  m_ParentPrefab: {fileID: 0}
  m_RootGameObject: {fileID: 100000}
  m_IsPrefabParent: 1
