%YAML 1.1
%TAG !u! tag:unity3d.com,2011:
--- !u!1 &100000
GameObject:
  m_ObjectHideFlags: 0
  m_PrefabParentObject: {fileID: 0}
  m_PrefabInternal: {fileID: 100100000}
  serializedVersion: 5
  m_Component:
  - component: {fileID: 400000}
  - component: {fileID: 11400000}
  m_Layer: 0
  m_Name: Countertops
  m_TagString: Untagged
  m_Icon: {fileID: 0}
  m_NavMeshLayer: 0
  m_StaticEditorFlags: 0
  m_IsActive: 1
--- !u!4 &400000
Transform:
  m_ObjectHideFlags: 1
  m_PrefabParentObject: {fileID: 0}
  m_PrefabInternal: {fileID: 100100000}
  m_GameObject: {fileID: 100000}
  m_LocalRotation: {x: 0, y: 0, z: 0, w: 1}
  m_LocalPosition: {x: 0, y: 0, z: 0}
  m_LocalScale: {x: 1, y: 1, z: 1}
  m_Children: []
  m_Father: {fileID: 0}
  m_RootOrder: 0
  m_LocalEulerAnglesHint: {x: 0, y: 0, z: 0}
--- !u!114 &11400000
MonoBehaviour:
  m_ObjectHideFlags: 1
  m_PrefabParentObject: {fileID: 0}
  m_PrefabInternal: {fileID: 100100000}
  m_GameObject: {fileID: 100000}
  m_Enabled: 1
  m_EditorHideFlags: 0
  m_Script: {fileID: 11500000, guid: d546f34a90531a14eaba82a43b05b86b, type: 3}
  m_Name: 
  m_EditorClassIdentifier: 
  version: 3
  materialIdsValid: 1
  needMaterialInstance: 0
  spriteDefinitions:
  - name: Blue
    boundsData:
    - {x: -0.004999995, y: -0.004999995, z: 0}
    - {x: 2.0900002, y: 1.5099999, z: 0}
    untrimmedBoundsData:
    - {x: 0, y: 0, z: 0}
    - {x: 2.2, y: 1.5999999, z: 0}
    texelSize: {x: 0.01, y: 0.01}
    positions:
    - {x: -0.83000004, y: -0.31999996, z: 0}
    - {x: -0.46000004, y: -0.31999996, z: 0}
    - {x: -0.83000004, y: -0.15999998, z: 0}
    - {x: -0.46000004, y: -0.15999998, z: 0}
    - {x: -1.0500001, y: -0.15999998, z: 0}
    - {x: -0.46000004, y: -0.15999998, z: 0}
    - {x: -1.0500001, y: 0.48, z: 0}
    - {x: -0.46000004, y: 0.48, z: 0}
    - {x: -0.90000004, y: 0.48, z: 0}
    - {x: -0.46000004, y: 0.48, z: 0}
    - {x: -0.90000004, y: 0.68999994, z: 0}
    - {x: -0.46000004, y: 0.68999994, z: 0}
    - {x: -0.46000004, y: -0.75999993, z: 0}
    - {x: 0.17999996, y: -0.75999993, z: 0}
    - {x: -0.46000004, y: -0.15999998, z: 0}
    - {x: 0.17999996, y: -0.15999998, z: 0}
    - {x: -0.46000004, y: -0.15999998, z: 0}
    - {x: 0.17999996, y: -0.15999998, z: 0}
    - {x: -0.46000004, y: 0.48, z: 0}
    - {x: 0.17999996, y: 0.48, z: 0}
    - {x: -0.46000004, y: 0.48, z: 0}
    - {x: 0.17999996, y: 0.48, z: 0}
    - {x: -0.46000004, y: 0.74999994, z: 0}
    - {x: 0.17999996, y: 0.74999994, z: 0}
    - {x: 0.17999996, y: -0.75999993, z: 0}
    - {x: 0.81, y: -0.75999993, z: 0}
    - {x: 0.17999996, y: -0.15999998, z: 0}
    - {x: 0.81, y: -0.15999998, z: 0}
    - {x: 0.17999996, y: -0.15999998, z: 0}
    - {x: 0.82, y: -0.15999998, z: 0}
    - {x: 0.17999996, y: 0.48, z: 0}
    - {x: 0.82, y: 0.48, z: 0}
    - {x: 0.17999996, y: 0.48, z: 0}
    - {x: 0.82, y: 0.48, z: 0}
    - {x: 0.17999996, y: 0.7399999, z: 0}
    - {x: 0.82, y: 0.7399999, z: 0}
    - {x: 0.82, y: -0.15999998, z: 0}
    - {x: 1.0400001, y: -0.15999998, z: 0}
    - {x: 0.82, y: 0.48, z: 0}
    - {x: 1.0400001, y: 0.48, z: 0}
    - {x: 0.82, y: 0.48, z: 0}
    - {x: 0.89, y: 0.48, z: 0}
    - {x: 0.82, y: 0.53, z: 0}
    - {x: 0.89, y: 0.53, z: 0}
    normals: []
    tangents: []
    uvs:
    - {x: 0.96093947, y: 0.7871103}
    - {x: 0.96093947, y: 0.82324123}
    - {x: 0.99218553, y: 0.7871103}
    - {x: 0.99218553, y: 0.82324123}
    - {x: 0.78906447, y: 0.59668064}
    - {x: 0.78906447, y: 0.6542959}
    - {x: 0.91406053, y: 0.59668064}
    - {x: 0.91406053, y: 0.6542959}
    - {x: 0.45312697, y: 0.7871103}
    - {x: 0.45312697, y: 0.8300772}
    - {x: 0.49413866, y: 0.7871103}
    - {x: 0.49413866, y: 0.8300772}
    - {x: 0.6679707, y: 0.33203223}
    - {x: 0.7929668, y: 0.33203223}
    - {x: 0.6679707, y: 0.39062402}
    - {x: 0.7929668, y: 0.39062402}
    - {x: 0.003908203, y: 0.0019541015}
    - {x: 0.1289043, y: 0.0019541015}
    - {x: 0.003908203, y: 0.06445215}
    - {x: 0.1289043, y: 0.06445215}
    - {x: 0.9335957, y: 0.0019541015}
    - {x: 0.9335957, y: 0.06445215}
    - {x: 0.98632616, y: 0.0019541015}
    - {x: 0.98632616, y: 0.06445215}
    - {x: 0.5351582, y: 0.4580088}
    - {x: 0.65820116, y: 0.4580088}
    - {x: 0.5351582, y: 0.5166006}
    - {x: 0.65820116, y: 0.5166006}
    - {x: 0.1367207, y: 0.0019541015}
    - {x: 0.26171678, y: 0.0019541015}
    - {x: 0.1367207, y: 0.06445215}
    - {x: 0.26171678, y: 0.06445215}
    - {x: 0.9101582, y: 0.7207041}
    - {x: 0.9101582, y: 0.7832022}
    - {x: 0.96093553, y: 0.7207041}
    - {x: 0.96093553, y: 0.7832022}
    - {x: 0.1367207, y: 0.70605564}
    - {x: 0.1367207, y: 0.7275381}
    - {x: 0.26171678, y: 0.70605564}
    - {x: 0.26171678, y: 0.7275381}
    - {x: 0.9863301, y: 0.35546973}
    - {x: 0.9863301, y: 0.3623037}
    - {x: 0.9960918, y: 0.35546973}
    - {x: 0.9960918, y: 0.3623037}
    normalizedUvs:
    - {x: 0.96457076, y: 0.94811535}
    - {x: 0.96457076, y: 0.99174523}
    - {x: 0.996063, y: 0.94811535}
    - {x: 0.996063, y: 0.99174523}
    - {x: 0.7913417, y: 0.718162}
    - {x: 0.7913417, y: 0.78773534}
    - {x: 0.9173225, y: 0.718162}
    - {x: 0.9173225, y: 0.78773534}
    - {x: 0.45275772, y: 0.94811535}
    - {x: 0.45275772, y: 1}
    - {x: 0.4940925, y: 0.94811535}
    - {x: 0.4940925, y: 1}
    - {x: 0.669294, y: 0.39858583}
    - {x: 0.7952748, y: 0.39858583}
    - {x: 0.669294, y: 0.46933833}
    - {x: 0.7952748, y: 0.46933833}
    - {x: 0, y: 0}
    - {x: 0.12598081, y: 0}
    - {x: 0, y: 0.075469516}
    - {x: 0.12598081, y: 0.075469516}
    - {x: 0.9370116, y: 0}
    - {x: 0.9370116, y: 0.075469516}
    - {x: 0.9901575, y: 0}
    - {x: 0.9901575, y: 0.075469516}
    - {x: 0.5354352, y: 0.55070883}
    - {x: 0.6594475, y: 0.55070883}
    - {x: 0.5354352, y: 0.6214614}
    - {x: 0.6594475, y: 0.6214614}
    - {x: 0.1338588, y: 0}
    - {x: 0.2598396, y: 0}
    - {x: 0.1338588, y: 0.075469516}
    - {x: 0.2598396, y: 0.075469516}
    - {x: 0.91338944, y: 0.8679265}
    - {x: 0.91338944, y: 0.9433961}
    - {x: 0.9645668, y: 0.8679265}
    - {x: 0.9645668, y: 0.9433961}
    - {x: 0.1338588, y: 0.8502378}
    - {x: 0.1338588, y: 0.8761789}
    - {x: 0.2598396, y: 0.8502378}
    - {x: 0.2598396, y: 0.8761789}
    - {x: 0.9901614, y: 0.42688778}
    - {x: 0.9901614, y: 0.43514013}
    - {x: 1, y: 0.42688778}
    - {x: 1, y: 0.43514013}
    indices: 000000000300000001000000020000000300000000000000040000000700000005000000060000000700000004000000080000000b000000090000000a0000000b000000080000000c0000000f0000000d0000000e0000000f0000000c000000100000001300000011000000120000001300000010000000140000001700000015000000160000001700000014000000180000001b000000190000001a0000001b000000180000001c0000001f0000001d0000001e0000001f0000001c000000200000002300000021000000220000002300000020000000240000002700000025000000260000002700000024000000280000002b000000290000002a0000002b00000028000000
    material: {fileID: 2100000, guid: 02d4957e3b17b48bb8f88c35b36547bf, type: 2}
    materialId: 0
    sourceTextureGUID: 598a6191ee86d430ea9f2625dfa024a2
    extractRegion: 0
    regionX: 0
    regionY: 0
    regionW: 0
    regionH: 0
    flipped: 0
    complexGeometry: 0
    physicsEngine: 0
    colliderType: 1
    customColliders: []
    colliderVertices: []
    colliderIndicesFwd: 
    colliderIndicesBack: 
    colliderConvex: 0
    colliderSmoothSphereCollisions: 0
    polygonCollider2D: []
    edgeCollider2D: []
    attachPoints: []
  - name: Green
    boundsData:
    - {x: -0.004999995, y: -0.004999995, z: 0}
    - {x: 2.0900002, y: 1.5099999, z: 0}
    untrimmedBoundsData:
    - {x: 0, y: 0, z: 0}
    - {x: 2.2, y: 1.5999999, z: 0}
    texelSize: {x: 0.01, y: 0.01}
    positions:
    - {x: -0.83000004, y: -0.31999996, z: 0}
    - {x: -0.46000004, y: -0.31999996, z: 0}
    - {x: -0.83000004, y: -0.15999998, z: 0}
    - {x: -0.46000004, y: -0.15999998, z: 0}
    - {x: -1.0500001, y: -0.15999998, z: 0}
    - {x: -0.46000004, y: -0.15999998, z: 0}
    - {x: -1.0500001, y: 0.48, z: 0}
    - {x: -0.46000004, y: 0.48, z: 0}
    - {x: -0.90000004, y: 0.48, z: 0}
    - {x: -0.46000004, y: 0.48, z: 0}
    - {x: -0.90000004, y: 0.68999994, z: 0}
    - {x: -0.46000004, y: 0.68999994, z: 0}
    - {x: -0.46000004, y: -0.75999993, z: 0}
    - {x: 0.17999996, y: -0.75999993, z: 0}
    - {x: -0.46000004, y: -0.15999998, z: 0}
    - {x: 0.17999996, y: -0.15999998, z: 0}
    - {x: -0.46000004, y: -0.15999998, z: 0}
    - {x: 0.17999996, y: -0.15999998, z: 0}
    - {x: -0.46000004, y: 0.48, z: 0}
    - {x: 0.17999996, y: 0.48, z: 0}
    - {x: -0.46000004, y: 0.48, z: 0}
    - {x: 0.17999996, y: 0.48, z: 0}
    - {x: -0.46000004, y: 0.74999994, z: 0}
    - {x: 0.17999996, y: 0.74999994, z: 0}
    - {x: 0.17999996, y: -0.75999993, z: 0}
    - {x: 0.81, y: -0.75999993, z: 0}
    - {x: 0.17999996, y: -0.15999998, z: 0}
    - {x: 0.81, y: -0.15999998, z: 0}
    - {x: 0.17999996, y: -0.15999998, z: 0}
    - {x: 0.82, y: -0.15999998, z: 0}
    - {x: 0.17999996, y: 0.48, z: 0}
    - {x: 0.82, y: 0.48, z: 0}
    - {x: 0.17999996, y: 0.48, z: 0}
    - {x: 0.82, y: 0.48, z: 0}
    - {x: 0.17999996, y: 0.7399999, z: 0}
    - {x: 0.82, y: 0.7399999, z: 0}
    - {x: 0.82, y: -0.15999998, z: 0}
    - {x: 1.0400001, y: -0.15999998, z: 0}
    - {x: 0.82, y: 0.48, z: 0}
    - {x: 1.0400001, y: 0.48, z: 0}
    - {x: 0.82, y: 0.48, z: 0}
    - {x: 0.89, y: 0.48, z: 0}
    - {x: 0.82, y: 0.53, z: 0}
    - {x: 0.89, y: 0.53, z: 0}
    normals: []
    tangents: []
    uvs:
    - {x: 0.96093947, y: 0.8271494}
    - {x: 0.96093947, y: 0.8632803}
    - {x: 0.99218553, y: 0.8271494}
    - {x: 0.99218553, y: 0.8632803}
    - {x: 0.003908203, y: 0.5214853}
    - {x: 0.003908203, y: 0.5791006}
    - {x: 0.1289043, y: 0.5214853}
    - {x: 0.1289043, y: 0.5791006}
    - {x: 0.1367207, y: 0.80761814}
    - {x: 0.2226543, y: 0.80761814}
    - {x: 0.1367207, y: 0.82812405}
    - {x: 0.2226543, y: 0.82812405}
    - {x: 0.8007832, y: 0.33203223}
    - {x: 0.8007832, y: 0.39453027}
    - {x: 0.9179668, y: 0.33203223}
    - {x: 0.9179668, y: 0.39453027}
    - {x: 0.26953322, y: 0.0019541015}
    - {x: 0.39452928, y: 0.0019541015}
    - {x: 0.26953322, y: 0.06445215}
    - {x: 0.39452928, y: 0.06445215}
    - {x: 0.9335957, y: 0.06836035}
    - {x: 0.9335957, y: 0.13085839}
    - {x: 0.98632616, y: 0.06836035}
    - {x: 0.98632616, y: 0.13085839}
    - {x: 0.6660176, y: 0.5195322}
    - {x: 0.78906053, y: 0.5195322}
    - {x: 0.6660176, y: 0.57812405}
    - {x: 0.78906053, y: 0.57812405}
    - {x: 0.40234572, y: 0.0019541015}
    - {x: 0.5273418, y: 0.0019541015}
    - {x: 0.40234572, y: 0.06445215}
    - {x: 0.5273418, y: 0.06445215}
    - {x: 0.7773457, y: 0.75000095}
    - {x: 0.9023418, y: 0.75000095}
    - {x: 0.7773457, y: 0.7753897}
    - {x: 0.9023418, y: 0.7753897}
    - {x: 0.003908203, y: 0.70605564}
    - {x: 0.003908203, y: 0.7275381}
    - {x: 0.1289043, y: 0.70605564}
    - {x: 0.1289043, y: 0.7275381}
    - {x: 0.9863301, y: 0.36621192}
    - {x: 0.9863301, y: 0.3730459}
    - {x: 0.9960918, y: 0.36621192}
    - {x: 0.9960918, y: 0.3730459}
    normalizedUvs:
    - {x: 0.96457076, y: 0.958052}
    - {x: 0.96457076, y: 1}
    - {x: 0.996063, y: 0.958052}
    - {x: 0.996063, y: 1}
    - {x: 0, y: 0.60317594}
    - {x: 0, y: 0.67006725}
    - {x: 0.12598081, y: 0.60317594}
    - {x: 0.12598081, y: 0.67006725}
    - {x: 0.1338588, y: 0.93537617}
    - {x: 0.22046939, y: 0.93537617}
    - {x: 0.1338588, y: 0.9591836}
    - {x: 0.22046939, y: 0.9591836}
    - {x: 0.8031528, y: 0.38322082}
    - {x: 0.8031528, y: 0.45578104}
    - {x: 0.9212595, y: 0.38322082}
    - {x: 0.9212595, y: 0.45578104}
    - {x: 0.2677176, y: 0}
    - {x: 0.3936984, y: 0}
    - {x: 0.2677176, y: 0.07256025}
    - {x: 0.3936984, y: 0.07256025}
    - {x: 0.9370116, y: 0.07709768}
    - {x: 0.9370116, y: 0.14965792}
    - {x: 0.9901575, y: 0.07709768}
    - {x: 0.9901575, y: 0.14965792}
    - {x: 0.6673255, y: 0.60090834}
    - {x: 0.7913378, y: 0.60090834}
    - {x: 0.6673255, y: 0.66893345}
    - {x: 0.7913378, y: 0.66893345}
    - {x: 0.4015764, y: 0}
    - {x: 0.5275572, y: 0}
    - {x: 0.4015764, y: 0.07256025}
    - {x: 0.5275572, y: 0.07256025}
    - {x: 0.77953064, y: 0.86848265}
    - {x: 0.90551144, y: 0.86848265}
    - {x: 0.77953064, y: 0.89795893}
    - {x: 0.90551144, y: 0.89795893}
    - {x: 0, y: 0.8174621}
    - {x: 0, y: 0.84240323}
    - {x: 0.12598081, y: 0.8174621}
    - {x: 0.12598081, y: 0.84240323}
    - {x: 0.9901614, y: 0.42290345}
    - {x: 0.9901614, y: 0.4308377}
    - {x: 1, y: 0.42290345}
    - {x: 1, y: 0.4308377}
    indices: 000000000300000001000000020000000300000000000000040000000700000005000000060000000700000004000000080000000b000000090000000a0000000b000000080000000c0000000f0000000d0000000e0000000f0000000c000000100000001300000011000000120000001300000010000000140000001700000015000000160000001700000014000000180000001b000000190000001a0000001b000000180000001c0000001f0000001d0000001e0000001f0000001c000000200000002300000021000000220000002300000020000000240000002700000025000000260000002700000024000000280000002b000000290000002a0000002b00000028000000
    material: {fileID: 2100000, guid: 02d4957e3b17b48bb8f88c35b36547bf, type: 2}
    materialId: 0
    sourceTextureGUID: 247066721533e4477a00d33298d50394
    extractRegion: 0
    regionX: 0
    regionY: 0
    regionW: 0
    regionH: 0
    flipped: 0
    complexGeometry: 0
    physicsEngine: 0
    colliderType: 1
    customColliders: []
    colliderVertices: []
    colliderIndicesFwd: 
    colliderIndicesBack: 
    colliderConvex: 0
    colliderSmoothSphereCollisions: 0
    polygonCollider2D: []
    edgeCollider2D: []
    attachPoints: []
  - name: Beige
    boundsData:
    - {x: -0.004999995, y: -0.025000006, z: 0}
    - {x: 2.0900002, y: 1.55, z: 0}
    untrimmedBoundsData:
    - {x: 0, y: 0, z: 0}
    - {x: 2.2, y: 1.5999999, z: 0}
    texelSize: {x: 0.01, y: 0.01}
    positions:
    - {x: -0.83000004, y: -0.31999996, z: 0}
    - {x: -0.46000004, y: -0.31999996, z: 0}
    - {x: -0.83000004, y: -0.15999998, z: 0}
    - {x: -0.46000004, y: -0.15999998, z: 0}
    - {x: -1.0500001, y: -0.15999998, z: 0}
    - {x: -0.46000004, y: -0.15999998, z: 0}
    - {x: -1.0500001, y: 0.48, z: 0}
    - {x: -0.46000004, y: 0.48, z: 0}
    - {x: -0.90000004, y: 0.48, z: 0}
    - {x: -0.46000004, y: 0.48, z: 0}
    - {x: -0.90000004, y: 0.68999994, z: 0}
    - {x: -0.46000004, y: 0.68999994, z: 0}
    - {x: -0.46000004, y: -0.79999995, z: 0}
    - {x: 0.17999996, y: -0.79999995, z: 0}
    - {x: -0.46000004, y: -0.15999998, z: 0}
    - {x: 0.17999996, y: -0.15999998, z: 0}
    - {x: -0.46000004, y: -0.15999998, z: 0}
    - {x: 0.17999996, y: -0.15999998, z: 0}
    - {x: -0.46000004, y: 0.48, z: 0}
    - {x: 0.17999996, y: 0.48, z: 0}
    - {x: -0.46000004, y: 0.48, z: 0}
    - {x: 0.17999996, y: 0.48, z: 0}
    - {x: -0.46000004, y: 0.74999994, z: 0}
    - {x: 0.17999996, y: 0.74999994, z: 0}
    - {x: 0.17999996, y: -0.79999995, z: 0}
    - {x: 0.82, y: -0.79999995, z: 0}
    - {x: 0.17999996, y: -0.15999998, z: 0}
    - {x: 0.82, y: -0.15999998, z: 0}
    - {x: 0.17999996, y: -0.15999998, z: 0}
    - {x: 0.82, y: -0.15999998, z: 0}
    - {x: 0.17999996, y: 0.48, z: 0}
    - {x: 0.82, y: 0.48, z: 0}
    - {x: 0.17999996, y: 0.48, z: 0}
    - {x: 0.82, y: 0.48, z: 0}
    - {x: 0.17999996, y: 0.7399999, z: 0}
    - {x: 0.82, y: 0.7399999, z: 0}
    - {x: 0.82, y: -0.15999998, z: 0}
    - {x: 1.0400001, y: -0.15999998, z: 0}
    - {x: 0.82, y: 0.48, z: 0}
    - {x: 1.0400001, y: 0.48, z: 0}
    - {x: 0.82, y: 0.48, z: 0}
    - {x: 0.89, y: 0.48, z: 0}
    - {x: 0.82, y: 0.5399999, z: 0}
    - {x: 0.89, y: 0.5399999, z: 0}
    normals: []
    tangents: []
    uvs:
    - {x: 0.96093947, y: 0.86718845}
    - {x: 0.96093947, y: 0.90331936}
    - {x: 0.99218553, y: 0.86718845}
    - {x: 0.99218553, y: 0.90331936}
    - {x: 0.1367207, y: 0.5214853}
    - {x: 0.1367207, y: 0.5791006}
    - {x: 0.26171678, y: 0.5214853}
    - {x: 0.26171678, y: 0.5791006}
    - {x: 0.003908203, y: 0.80761814}
    - {x: 0.0898418, y: 0.80761814}
    - {x: 0.003908203, y: 0.82812405}
    - {x: 0.0898418, y: 0.82812405}
    - {x: 0.5351582, y: 0.0019541015}
    - {x: 0.6601543, y: 0.0019541015}
    - {x: 0.5351582, y: 0.06445215}
    - {x: 0.6601543, y: 0.06445215}
    - {x: 0.6679707, y: 0.0019541015}
    - {x: 0.7929668, y: 0.0019541015}
    - {x: 0.6679707, y: 0.06445215}
    - {x: 0.7929668, y: 0.06445215}
    - {x: 0.9335957, y: 0.13476661}
    - {x: 0.9335957, y: 0.19726464}
    - {x: 0.98632616, y: 0.13476661}
    - {x: 0.98632616, y: 0.19726464}
    - {x: 0.8007832, y: 0.0019541015}
    - {x: 0.9257793, y: 0.0019541015}
    - {x: 0.8007832, y: 0.06445215}
    - {x: 0.9257793, y: 0.06445215}
    - {x: 0.003908203, y: 0.06836035}
    - {x: 0.1289043, y: 0.06836035}
    - {x: 0.003908203, y: 0.13085839}
    - {x: 0.1289043, y: 0.13085839}
    - {x: 0.26953322, y: 0.67480564}
    - {x: 0.39452928, y: 0.67480564}
    - {x: 0.26953322, y: 0.70019436}
    - {x: 0.39452928, y: 0.70019436}
    - {x: 0.1367207, y: 0.73144627}
    - {x: 0.1367207, y: 0.75292873}
    - {x: 0.26171678, y: 0.73144627}
    - {x: 0.26171678, y: 0.75292873}
    - {x: 0.96875197, y: 0.75000095}
    - {x: 0.9824199, y: 0.75000095}
    - {x: 0.96875197, y: 0.7558584}
    - {x: 0.9824199, y: 0.7558584}
    normalizedUvs:
    - {x: 0.9683833, y: 0.95991534}
    - {x: 0.9683833, y: 1}
    - {x: 1, y: 0.95991534}
    - {x: 1, y: 1}
    - {x: 0.13438788, y: 0.5763826}
    - {x: 0.13438788, y: 0.6403026}
    - {x: 0.26086664, y: 0.5763826}
    - {x: 0.26086664, y: 0.6403026}
    - {x: 0, y: 0.89382637}
    - {x: 0.08695292, y: 0.89382637}
    - {x: 0, y: 0.9165762}
    - {x: 0.08695292, y: 0.9165762}
    - {x: 0.5375516, y: 0}
    - {x: 0.6640303, y: 0}
    - {x: 0.5375516, y: 0.06933709}
    - {x: 0.6640303, y: 0.06933709}
    - {x: 0.67193943, y: 0}
    - {x: 0.79841816, y: 0}
    - {x: 0.67193943, y: 0.06933709}
    - {x: 0.79841816, y: 0.06933709}
    - {x: 0.9407152, y: 0.14734593}
    - {x: 0.9407152, y: 0.21668302}
    - {x: 0.9940711, y: 0.14734593}
    - {x: 0.9940711, y: 0.21668302}
    - {x: 0.80632734, y: 0}
    - {x: 0.9328061, y: 0}
    - {x: 0.80632734, y: 0.06933709}
    - {x: 0.9328061, y: 0.06933709}
    - {x: 0, y: 0.073672965}
    - {x: 0.12647876, y: 0.073672965}
    - {x: 0, y: 0.14301005}
    - {x: 0.12647876, y: 0.14301005}
    - {x: 0.2687758, y: 0.7464804}
    - {x: 0.39525452, y: 0.7464804}
    - {x: 0.2687758, y: 0.7746474}
    - {x: 0.39525452, y: 0.7746474}
    - {x: 0.13438788, y: 0.80931914}
    - {x: 0.13438788, y: 0.8331524}
    - {x: 0.26086664, y: 0.80931914}
    - {x: 0.26086664, y: 0.8331524}
    - {x: 0.9762885, y: 0.8299042}
    - {x: 0.99011856, y: 0.8299042}
    - {x: 0.9762885, y: 0.83640265}
    - {x: 0.99011856, y: 0.83640265}
    indices: 000000000300000001000000020000000300000000000000040000000700000005000000060000000700000004000000080000000b000000090000000a0000000b000000080000000c0000000f0000000d0000000e0000000f0000000c000000100000001300000011000000120000001300000010000000140000001700000015000000160000001700000014000000180000001b000000190000001a0000001b000000180000001c0000001f0000001d0000001e0000001f0000001c000000200000002300000021000000220000002300000020000000240000002700000025000000260000002700000024000000280000002b000000290000002a0000002b00000028000000
    material: {fileID: 2100000, guid: 02d4957e3b17b48bb8f88c35b36547bf, type: 2}
    materialId: 0
    sourceTextureGUID: 0cd6cd72c450d4f9eb7a187fd2f1f8a5
    extractRegion: 0
    regionX: 0
    regionY: 0
    regionW: 0
    regionH: 0
    flipped: 0
    complexGeometry: 0
    physicsEngine: 0
    colliderType: 1
    customColliders: []
    colliderVertices: []
    colliderIndicesFwd: 
    colliderIndicesBack: 
    colliderConvex: 0
    colliderSmoothSphereCollisions: 0
    polygonCollider2D: []
    edgeCollider2D: []
    attachPoints: []
  - name: Cambria
    boundsData:
    - {x: -0.004999995, y: -0.004999995, z: 0}
    - {x: 2.0900002, y: 1.5099999, z: 0}
    untrimmedBoundsData:
    - {x: 0, y: 0, z: 0}
    - {x: 2.2, y: 1.5999999, z: 0}
    texelSize: {x: 0.01, y: 0.01}
    positions:
    - {x: -0.83000004, y: -0.75999993, z: 0}
    - {x: -0.46000004, y: -0.75999993, z: 0}
    - {x: -0.83000004, y: -0.15999998, z: 0}
    - {x: -0.46000004, y: -0.15999998, z: 0}
    - {x: -1.0500001, y: -0.15999998, z: 0}
    - {x: -0.46000004, y: -0.15999998, z: 0}
    - {x: -1.0500001, y: 0.48, z: 0}
    - {x: -0.46000004, y: 0.48, z: 0}
    - {x: -0.90000004, y: 0.48, z: 0}
    - {x: -0.46000004, y: 0.48, z: 0}
    - {x: -0.90000004, y: 0.68999994, z: 0}
    - {x: -0.46000004, y: 0.68999994, z: 0}
    - {x: -0.46000004, y: -0.75999993, z: 0}
    - {x: 0.17999996, y: -0.75999993, z: 0}
    - {x: -0.46000004, y: -0.15999998, z: 0}
    - {x: 0.17999996, y: -0.15999998, z: 0}
    - {x: -0.46000004, y: -0.15999998, z: 0}
    - {x: 0.17999996, y: -0.15999998, z: 0}
    - {x: -0.46000004, y: 0.48, z: 0}
    - {x: 0.17999996, y: 0.48, z: 0}
    - {x: -0.46000004, y: 0.48, z: 0}
    - {x: 0.17999996, y: 0.48, z: 0}
    - {x: -0.46000004, y: 0.74999994, z: 0}
    - {x: 0.17999996, y: 0.74999994, z: 0}
    - {x: 0.17999996, y: -0.75999993, z: 0}
    - {x: 0.81, y: -0.75999993, z: 0}
    - {x: 0.17999996, y: -0.15999998, z: 0}
    - {x: 0.81, y: -0.15999998, z: 0}
    - {x: 0.17999996, y: -0.15999998, z: 0}
    - {x: 0.82, y: -0.15999998, z: 0}
    - {x: 0.17999996, y: 0.48, z: 0}
    - {x: 0.82, y: 0.48, z: 0}
    - {x: 0.17999996, y: 0.48, z: 0}
    - {x: 0.82, y: 0.48, z: 0}
    - {x: 0.17999996, y: 0.7399999, z: 0}
    - {x: 0.82, y: 0.7399999, z: 0}
    - {x: 0.82, y: -0.15999998, z: 0}
    - {x: 1.0400001, y: -0.15999998, z: 0}
    - {x: 0.82, y: 0.48, z: 0}
    - {x: 1.0400001, y: 0.48, z: 0}
    - {x: 0.82, y: 0.48, z: 0}
    - {x: 0.89, y: 0.48, z: 0}
    - {x: 0.82, y: 0.53, z: 0}
    - {x: 0.89, y: 0.53, z: 0}
    normals: []
    tangents: []
    uvs:
    - {x: 0.92187697, y: 0.5332041}
    - {x: 0.99413866, y: 0.5332041}
    - {x: 0.92187697, y: 0.5917959}
    - {x: 0.99413866, y: 0.5917959}
    - {x: 0.26953322, y: 0.5214853}
    - {x: 0.26953322, y: 0.5791006}
    - {x: 0.39452928, y: 0.5214853}
    - {x: 0.39452928, y: 0.5791006}
    - {x: 0.003908203, y: 0.8320322}
    - {x: 0.0898418, y: 0.8320322}
    - {x: 0.003908203, y: 0.8525381}
    - {x: 0.0898418, y: 0.8525381}
    - {x: 0.5351582, y: 0.3330088}
    - {x: 0.6601543, y: 0.3330088}
    - {x: 0.5351582, y: 0.39160058}
    - {x: 0.6601543, y: 0.39160058}
    - {x: 0.1367207, y: 0.06836035}
    - {x: 0.26171678, y: 0.06836035}
    - {x: 0.1367207, y: 0.13085839}
    - {x: 0.26171678, y: 0.13085839}
    - {x: 0.9335957, y: 0.20117286}
    - {x: 0.9335957, y: 0.2636709}
    - {x: 0.98632616, y: 0.20117286}
    - {x: 0.98632616, y: 0.2636709}
    - {x: 0.79687697, y: 0.53125095}
    - {x: 0.79687697, y: 0.5927725}
    - {x: 0.91406053, y: 0.53125095}
    - {x: 0.91406053, y: 0.5927725}
    - {x: 0.26953322, y: 0.06836035}
    - {x: 0.39452928, y: 0.06836035}
    - {x: 0.26953322, y: 0.13085839}
    - {x: 0.39452928, y: 0.13085839}
    - {x: 0.26953322, y: 0.7041025}
    - {x: 0.39452928, y: 0.7041025}
    - {x: 0.26953322, y: 0.72949123}
    - {x: 0.39452928, y: 0.72949123}
    - {x: 0.003908203, y: 0.73144627}
    - {x: 0.003908203, y: 0.75292873}
    - {x: 0.1289043, y: 0.73144627}
    - {x: 0.1289043, y: 0.75292873}
    - {x: 0.9863301, y: 0.3769541}
    - {x: 0.9863301, y: 0.38378808}
    - {x: 0.9960918, y: 0.3769541}
    - {x: 0.9960918, y: 0.38378808}
    normalizedUvs:
    - {x: 0.9252005, y: 0.5927785}
    - {x: 0.9980315, y: 0.5927785}
    - {x: 0.9252005, y: 0.667496}
    - {x: 0.9980315, y: 0.667496}
    - {x: 0.2677176, y: 0.5778345}
    - {x: 0.2677176, y: 0.65130675}
    - {x: 0.3936984, y: 0.5778345}
    - {x: 0.3936984, y: 0.65130675}
    - {x: 0, y: 0.9738504}
    - {x: 0.08661058, y: 0.9738504}
    - {x: 0, y: 1}
    - {x: 0.08661058, y: 1}
    - {x: 0.5354352, y: 0.33748525}
    - {x: 0.661416, y: 0.33748525}
    - {x: 0.5354352, y: 0.41220275}
    - {x: 0.661416, y: 0.41220275}
    - {x: 0.1338588, y: 0}
    - {x: 0.2598396, y: 0}
    - {x: 0.1338588, y: 0.079698816}
    - {x: 0.2598396, y: 0.079698816}
    - {x: 0.9370116, y: 0.1693653}
    - {x: 0.9370116, y: 0.2490641}
    - {x: 0.9901575, y: 0.1693653}
    - {x: 0.9901575, y: 0.2490641}
    - {x: 0.7992158, y: 0.5902878}
    - {x: 0.7992158, y: 0.6687414}
    - {x: 0.9173225, y: 0.5902878}
    - {x: 0.9173225, y: 0.6687414}
    - {x: 0.2677176, y: 0}
    - {x: 0.3936984, y: 0}
    - {x: 0.2677176, y: 0.079698816}
    - {x: 0.3936984, y: 0.079698816}
    - {x: 0.2677176, y: 0.8107118}
    - {x: 0.3936984, y: 0.8107118}
    - {x: 0.2677176, y: 0.84308803}
    - {x: 0.3936984, y: 0.84308803}
    - {x: 0, y: 0.8455811}
    - {x: 0, y: 0.872976}
    - {x: 0.12598081, y: 0.8455811}
    - {x: 0.12598081, y: 0.872976}
    - {x: 0.9901614, y: 0.39352524}
    - {x: 0.9901614, y: 0.40224007}
    - {x: 1, y: 0.39352524}
    - {x: 1, y: 0.40224007}
    indices: 000000000300000001000000020000000300000000000000040000000700000005000000060000000700000004000000080000000b000000090000000a0000000b000000080000000c0000000f0000000d0000000e0000000f0000000c000000100000001300000011000000120000001300000010000000140000001700000015000000160000001700000014000000180000001b000000190000001a0000001b000000180000001c0000001f0000001d0000001e0000001f0000001c000000200000002300000021000000220000002300000020000000240000002700000025000000260000002700000024000000280000002b000000290000002a0000002b00000028000000
    material: {fileID: 2100000, guid: 02d4957e3b17b48bb8f88c35b36547bf, type: 2}
    materialId: 0
    sourceTextureGUID: 918163b3066df470e9aed98ef73d730f
    extractRegion: 0
    regionX: 0
    regionY: 0
    regionW: 0
    regionH: 0
    flipped: 0
    complexGeometry: 0
    physicsEngine: 0
    colliderType: 1
    customColliders: []
    colliderVertices: []
    colliderIndicesFwd: 
    colliderIndicesBack: 
    colliderConvex: 0
    colliderSmoothSphereCollisions: 0
    polygonCollider2D: []
    edgeCollider2D: []
    attachPoints: []
  - name: Eternia
    boundsData:
    - {x: -0.004999995, y: -0.004999995, z: 0}
    - {x: 2.0900002, y: 1.5099999, z: 0}
    untrimmedBoundsData:
    - {x: 0, y: 0, z: 0}
    - {x: 2.2, y: 1.5999999, z: 0}
    texelSize: {x: 0.01, y: 0.01}
    positions:
    - {x: -0.83000004, y: -0.31999996, z: 0}
    - {x: -0.46000004, y: -0.31999996, z: 0}
    - {x: -0.83000004, y: -0.15999998, z: 0}
    - {x: -0.46000004, y: -0.15999998, z: 0}
    - {x: -1.0500001, y: -0.15999998, z: 0}
    - {x: -0.46000004, y: -0.15999998, z: 0}
    - {x: -1.0500001, y: 0.48, z: 0}
    - {x: -0.46000004, y: 0.48, z: 0}
    - {x: -0.90000004, y: 0.48, z: 0}
    - {x: -0.46000004, y: 0.48, z: 0}
    - {x: -0.90000004, y: 0.68999994, z: 0}
    - {x: -0.46000004, y: 0.68999994, z: 0}
    - {x: -0.46000004, y: -0.75999993, z: 0}
    - {x: 0.17999996, y: -0.75999993, z: 0}
    - {x: -0.46000004, y: -0.15999998, z: 0}
    - {x: 0.17999996, y: -0.15999998, z: 0}
    - {x: -0.46000004, y: -0.15999998, z: 0}
    - {x: 0.17999996, y: -0.15999998, z: 0}
    - {x: -0.46000004, y: 0.48, z: 0}
    - {x: 0.17999996, y: 0.48, z: 0}
    - {x: -0.46000004, y: 0.48, z: 0}
    - {x: 0.17999996, y: 0.48, z: 0}
    - {x: -0.46000004, y: 0.74999994, z: 0}
    - {x: 0.17999996, y: 0.74999994, z: 0}
    - {x: 0.17999996, y: -0.75999993, z: 0}
    - {x: 0.81, y: -0.75999993, z: 0}
    - {x: 0.17999996, y: -0.15999998, z: 0}
    - {x: 0.81, y: -0.15999998, z: 0}
    - {x: 0.17999996, y: -0.15999998, z: 0}
    - {x: 0.82, y: -0.15999998, z: 0}
    - {x: 0.17999996, y: 0.48, z: 0}
    - {x: 0.82, y: 0.48, z: 0}
    - {x: 0.17999996, y: 0.48, z: 0}
    - {x: 0.82, y: 0.48, z: 0}
    - {x: 0.17999996, y: 0.7399999, z: 0}
    - {x: 0.82, y: 0.7399999, z: 0}
    - {x: 0.82, y: -0.15999998, z: 0}
    - {x: 1.0400001, y: -0.15999998, z: 0}
    - {x: 0.82, y: 0.48, z: 0}
    - {x: 1.0400001, y: 0.48, z: 0}
    - {x: 0.82, y: 0.48, z: 0}
    - {x: 0.89, y: 0.48, z: 0}
    - {x: 0.82, y: 0.53, z: 0}
    - {x: 0.89, y: 0.53, z: 0}
    normals: []
    tangents: []
    uvs:
    - {x: 0.96093947, y: 0.9072275}
    - {x: 0.96093947, y: 0.9433584}
    - {x: 0.99218553, y: 0.9072275}
    - {x: 0.99218553, y: 0.9433584}
    - {x: 0.40234572, y: 0.5214853}
    - {x: 0.51757616, y: 0.5214853}
    - {x: 0.40234572, y: 0.5839834}
    - {x: 0.51757616, y: 0.5839834}
    - {x: 0.1367207, y: 0.8320322}
    - {x: 0.2226543, y: 0.8320322}
    - {x: 0.1367207, y: 0.8525381}
    - {x: 0.2226543, y: 0.8525381}
    - {x: 0.6679707, y: 0.39453223}
    - {x: 0.7929668, y: 0.39453223}
    - {x: 0.6679707, y: 0.45312402}
    - {x: 0.7929668, y: 0.45312402}
    - {x: 0.40234572, y: 0.06836035}
    - {x: 0.5273418, y: 0.06836035}
    - {x: 0.40234572, y: 0.13085839}
    - {x: 0.5273418, y: 0.13085839}
    - {x: 0.9316426, y: 0.2675791}
    - {x: 0.9316426, y: 0.33007714}
    - {x: 0.98437303, y: 0.2675791}
    - {x: 0.98437303, y: 0.33007714}
    - {x: 0.003908203, y: 0.45898536}
    - {x: 0.12695117, y: 0.45898536}
    - {x: 0.003908203, y: 0.5175772}
    - {x: 0.12695117, y: 0.5175772}
    - {x: 0.5351582, y: 0.06836035}
    - {x: 0.6601543, y: 0.06836035}
    - {x: 0.5351582, y: 0.13085839}
    - {x: 0.6601543, y: 0.13085839}
    - {x: 0.40234572, y: 0.7207041}
    - {x: 0.40234572, y: 0.7832022}
    - {x: 0.45312303, y: 0.7207041}
    - {x: 0.45312303, y: 0.7832022}
    - {x: 0.26953322, y: 0.7333994}
    - {x: 0.26953322, y: 0.75488186}
    - {x: 0.39452928, y: 0.7333994}
    - {x: 0.39452928, y: 0.75488186}
    - {x: 0.9863301, y: 0.3876963}
    - {x: 0.9863301, y: 0.39453027}
    - {x: 0.9960918, y: 0.3876963}
    - {x: 0.9960918, y: 0.39453027}
    normalizedUvs:
    - {x: 0.96457076, y: 0.9587074}
    - {x: 0.96457076, y: 1}
    - {x: 0.996063, y: 0.9587074}
    - {x: 0.996063, y: 1}
    - {x: 0.4015764, y: 0.51785827}
    - {x: 0.5177146, y: 0.51785827}
    - {x: 0.4015764, y: 0.5892848}
    - {x: 0.5177146, y: 0.5892848}
    - {x: 0.1338588, y: 0.8727697}
    - {x: 0.22046939, y: 0.8727697}
    - {x: 0.1338588, y: 0.8962051}
    - {x: 0.22046939, y: 0.8962051}
    - {x: 0.669294, y: 0.37276867}
    - {x: 0.7952748, y: 0.37276867}
    - {x: 0.669294, y: 0.43973085}
    - {x: 0.7952748, y: 0.43973085}
    - {x: 0.4015764, y: 0}
    - {x: 0.5275572, y: 0}
    - {x: 0.4015764, y: 0.07142649}
    - {x: 0.5275572, y: 0.07142649}
    - {x: 0.9350431, y: 0.22767907}
    - {x: 0.9350431, y: 0.29910555}
    - {x: 0.9881889, y: 0.22767907}
    - {x: 0.9881889, y: 0.29910555}
    - {x: 0, y: 0.44642955}
    - {x: 0.12401231, y: 0.44642955}
    - {x: 0, y: 0.5133918}
    - {x: 0.12401231, y: 0.5133918}
    - {x: 0.5354352, y: 0}
    - {x: 0.661416, y: 0}
    - {x: 0.5354352, y: 0.07142649}
    - {x: 0.661416, y: 0.07142649}
    - {x: 0.4015764, y: 0.74553734}
    - {x: 0.4015764, y: 0.81696385}
    - {x: 0.45275375, y: 0.74553734}
    - {x: 0.45275375, y: 0.81696385}
    - {x: 0.2677176, y: 0.7600463}
    - {x: 0.2677176, y: 0.7845977}
    - {x: 0.3936984, y: 0.7600463}
    - {x: 0.3936984, y: 0.7845977}
    - {x: 0.9901614, y: 0.36495617}
    - {x: 0.9901614, y: 0.37276644}
    - {x: 1, y: 0.36495617}
    - {x: 1, y: 0.37276644}
    indices: 000000000300000001000000020000000300000000000000040000000700000005000000060000000700000004000000080000000b000000090000000a0000000b000000080000000c0000000f0000000d0000000e0000000f0000000c000000100000001300000011000000120000001300000010000000140000001700000015000000160000001700000014000000180000001b000000190000001a0000001b000000180000001c0000001f0000001d0000001e0000001f0000001c000000200000002300000021000000220000002300000020000000240000002700000025000000260000002700000024000000280000002b000000290000002a0000002b00000028000000
    material: {fileID: 2100000, guid: 02d4957e3b17b48bb8f88c35b36547bf, type: 2}
    materialId: 0
    sourceTextureGUID: f2c5dcf3e690b4a9a8d7a151028b1573
    extractRegion: 0
    regionX: 0
    regionY: 0
    regionW: 0
    regionH: 0
    flipped: 0
    complexGeometry: 0
    physicsEngine: 0
    colliderType: 1
    customColliders: []
    colliderVertices: []
    colliderIndicesFwd: 
    colliderIndicesBack: 
    colliderConvex: 0
    colliderSmoothSphereCollisions: 0
    polygonCollider2D: []
    edgeCollider2D: []
    attachPoints: []
  - name: Gray
    boundsData:
    - {x: -0.004999995, y: -0.0150000155, z: 0}
    - {x: 2.0900002, y: 1.53, z: 0}
    untrimmedBoundsData:
    - {x: 0, y: 0, z: 0}
    - {x: 2.2, y: 1.5999999, z: 0}
    texelSize: {x: 0.01, y: 0.01}
    positions:
    - {x: -0.83000004, y: -0.31999996, z: 0}
    - {x: -0.46000004, y: -0.31999996, z: 0}
    - {x: -0.83000004, y: -0.15999998, z: 0}
    - {x: -0.46000004, y: -0.15999998, z: 0}
    - {x: -1.0500001, y: -0.15999998, z: 0}
    - {x: -0.46000004, y: -0.15999998, z: 0}
    - {x: -1.0500001, y: 0.48, z: 0}
    - {x: -0.46000004, y: 0.48, z: 0}
    - {x: -0.90000004, y: 0.48, z: 0}
    - {x: -0.46000004, y: 0.48, z: 0}
    - {x: -0.90000004, y: 0.68999994, z: 0}
    - {x: -0.46000004, y: 0.68999994, z: 0}
    - {x: -0.46000004, y: -0.78, z: 0}
    - {x: 0.17999996, y: -0.78, z: 0}
    - {x: -0.46000004, y: -0.15999998, z: 0}
    - {x: 0.17999996, y: -0.15999998, z: 0}
    - {x: -0.46000004, y: -0.15999998, z: 0}
    - {x: 0.17999996, y: -0.15999998, z: 0}
    - {x: -0.46000004, y: 0.48, z: 0}
    - {x: 0.17999996, y: 0.48, z: 0}
    - {x: -0.46000004, y: 0.48, z: 0}
    - {x: 0.17999996, y: 0.48, z: 0}
    - {x: -0.46000004, y: 0.74999994, z: 0}
    - {x: 0.17999996, y: 0.74999994, z: 0}
    - {x: 0.17999996, y: -0.78, z: 0}
    - {x: 0.81, y: -0.78, z: 0}
    - {x: 0.17999996, y: -0.15999998, z: 0}
    - {x: 0.81, y: -0.15999998, z: 0}
    - {x: 0.17999996, y: -0.15999998, z: 0}
    - {x: 0.82, y: -0.15999998, z: 0}
    - {x: 0.17999996, y: 0.48, z: 0}
    - {x: 0.82, y: 0.48, z: 0}
    - {x: 0.17999996, y: 0.48, z: 0}
    - {x: 0.82, y: 0.48, z: 0}
    - {x: 0.17999996, y: 0.7399999, z: 0}
    - {x: 0.82, y: 0.7399999, z: 0}
    - {x: 0.82, y: -0.15999998, z: 0}
    - {x: 1.0400001, y: -0.15999998, z: 0}
    - {x: 0.82, y: 0.48, z: 0}
    - {x: 1.0400001, y: 0.48, z: 0}
    - {x: 0.82, y: 0.48, z: 0}
    - {x: 0.89, y: 0.48, z: 0}
    - {x: 0.82, y: 0.53, z: 0}
    - {x: 0.89, y: 0.53, z: 0}
    normals: []
    tangents: []
    uvs:
    - {x: 0.2304707, y: 0.80761814}
    - {x: 0.2304707, y: 0.84374905}
    - {x: 0.26171678, y: 0.80761814}
    - {x: 0.26171678, y: 0.84374905}
    - {x: 0.5253926, y: 0.58300877}
    - {x: 0.5253926, y: 0.64062405}
    - {x: 0.65038866, y: 0.58300877}
    - {x: 0.65038866, y: 0.64062405}
    - {x: 0.003908203, y: 0.85644627}
    - {x: 0.0898418, y: 0.85644627}
    - {x: 0.003908203, y: 0.8769522}
    - {x: 0.0898418, y: 0.8769522}
    - {x: 0.6679707, y: 0.2675791}
    - {x: 0.7929668, y: 0.2675791}
    - {x: 0.6679707, y: 0.32812402}
    - {x: 0.7929668, y: 0.32812402}
    - {x: 0.6679707, y: 0.06836035}
    - {x: 0.7929668, y: 0.06836035}
    - {x: 0.6679707, y: 0.13085839}
    - {x: 0.7929668, y: 0.13085839}
    - {x: 0.9257832, y: 0.33398536}
    - {x: 0.9257832, y: 0.3964834}
    - {x: 0.97851366, y: 0.33398536}
    - {x: 0.97851366, y: 0.3964834}
    - {x: 0.8007832, y: 0.2675791}
    - {x: 0.92382616, y: 0.2675791}
    - {x: 0.8007832, y: 0.32812402}
    - {x: 0.92382616, y: 0.32812402}
    - {x: 0.8007832, y: 0.06836035}
    - {x: 0.9257793, y: 0.06836035}
    - {x: 0.8007832, y: 0.13085839}
    - {x: 0.9257793, y: 0.13085839}
    - {x: 0.46093947, y: 0.7207041}
    - {x: 0.46093947, y: 0.7832022}
    - {x: 0.5117168, y: 0.7207041}
    - {x: 0.5117168, y: 0.7832022}
    - {x: 0.1367207, y: 0.7568369}
    - {x: 0.1367207, y: 0.77831936}
    - {x: 0.26171678, y: 0.7568369}
    - {x: 0.26171678, y: 0.77831936}
    - {x: 0.9863301, y: 0.39843848}
    - {x: 0.9863301, y: 0.40527245}
    - {x: 0.9960918, y: 0.39843848}
    - {x: 0.9960918, y: 0.40527245}
    normalizedUvs:
    - {x: 0.22834736, y: 0.91425335}
    - {x: 0.22834736, y: 0.95893705}
    - {x: 0.2598396, y: 0.91425335}
    - {x: 0.2598396, y: 0.95893705}
    - {x: 0.5255926, y: 0.6364749}
    - {x: 0.5255926, y: 0.70772874}
    - {x: 0.6515734, y: 0.6364749}
    - {x: 0.6515734, y: 0.70772874}
    - {x: 0, y: 0.97463995}
    - {x: 0.08661058, y: 0.97463995}
    - {x: 0, y: 1}
    - {x: 0.08661058, y: 1}
    - {x: 0.669294, y: 0.24637741}
    - {x: 0.7952748, y: 0.24637741}
    - {x: 0.669294, y: 0.32125437}
    - {x: 0.7952748, y: 0.32125437}
    - {x: 0.669294, y: 0}
    - {x: 0.7952748, y: 0}
    - {x: 0.669294, y: 0.07729244}
    - {x: 0.7952748, y: 0.07729244}
    - {x: 0.9291375, y: 0.3285032}
    - {x: 0.9291375, y: 0.40579563}
    - {x: 0.9822834, y: 0.3285032}
    - {x: 0.9822834, y: 0.40579563}
    - {x: 0.8031528, y: 0.24637741}
    - {x: 0.9271651, y: 0.24637741}
    - {x: 0.8031528, y: 0.32125437}
    - {x: 0.9271651, y: 0.32125437}
    - {x: 0.8031528, y: 0}
    - {x: 0.9291336, y: 0}
    - {x: 0.8031528, y: 0.07729244}
    - {x: 0.9291336, y: 0.07729244}
    - {x: 0.46063176, y: 0.80676514}
    - {x: 0.46063176, y: 0.88405764}
    - {x: 0.5118091, y: 0.80676514}
    - {x: 0.5118091, y: 0.88405764}
    - {x: 0.1338588, y: 0.8514513}
    - {x: 0.1338588, y: 0.87801903}
    - {x: 0.2598396, y: 0.8514513}
    - {x: 0.2598396, y: 0.87801903}
    - {x: 0.9901614, y: 0.40821353}
    - {x: 0.9901614, y: 0.41666523}
    - {x: 1, y: 0.40821353}
    - {x: 1, y: 0.41666523}
    indices: 000000000300000001000000020000000300000000000000040000000700000005000000060000000700000004000000080000000b000000090000000a0000000b000000080000000c0000000f0000000d0000000e0000000f0000000c000000100000001300000011000000120000001300000010000000140000001700000015000000160000001700000014000000180000001b000000190000001a0000001b000000180000001c0000001f0000001d0000001e0000001f0000001c000000200000002300000021000000220000002300000020000000240000002700000025000000260000002700000024000000280000002b000000290000002a0000002b00000028000000
    material: {fileID: 2100000, guid: 02d4957e3b17b48bb8f88c35b36547bf, type: 2}
    materialId: 0
    sourceTextureGUID: 5badfe066d9ff4e008c545296e99abf9
    extractRegion: 0
    regionX: 0
    regionY: 0
    regionW: 0
    regionH: 0
    flipped: 0
    complexGeometry: 0
    physicsEngine: 0
    colliderType: 1
    customColliders: []
    colliderVertices: []
    colliderIndicesFwd: 
    colliderIndicesBack: 
    colliderConvex: 0
    colliderSmoothSphereCollisions: 0
    polygonCollider2D: []
    edgeCollider2D: []
    attachPoints: []
  - name: Black
    boundsData:
    - {x: -0.004999995, y: -0.004999995, z: 0}
    - {x: 2.0900002, y: 1.5099999, z: 0}
    untrimmedBoundsData:
    - {x: 0, y: 0, z: 0}
    - {x: 2.2, y: 1.5999999, z: 0}
    texelSize: {x: 0.01, y: 0.01}
    positions:
    - {x: -0.83000004, y: -0.31999996, z: 0}
    - {x: -0.46000004, y: -0.31999996, z: 0}
    - {x: -0.83000004, y: -0.15999998, z: 0}
    - {x: -0.46000004, y: -0.15999998, z: 0}
    - {x: -1.0500001, y: -0.15999998, z: 0}
    - {x: -0.46000004, y: -0.15999998, z: 0}
    - {x: -1.0500001, y: 0.48, z: 0}
    - {x: -0.46000004, y: 0.48, z: 0}
    - {x: -0.90000004, y: 0.48, z: 0}
    - {x: -0.46000004, y: 0.48, z: 0}
    - {x: -0.90000004, y: 0.68999994, z: 0}
    - {x: -0.46000004, y: 0.68999994, z: 0}
    - {x: -0.46000004, y: -0.75999993, z: 0}
    - {x: 0.17999996, y: -0.75999993, z: 0}
    - {x: -0.46000004, y: -0.15999998, z: 0}
    - {x: 0.17999996, y: -0.15999998, z: 0}
    - {x: -0.46000004, y: -0.15999998, z: 0}
    - {x: 0.17999996, y: -0.15999998, z: 0}
    - {x: -0.46000004, y: 0.48, z: 0}
    - {x: 0.17999996, y: 0.48, z: 0}
    - {x: -0.46000004, y: 0.48, z: 0}
    - {x: 0.17999996, y: 0.48, z: 0}
    - {x: -0.46000004, y: 0.74999994, z: 0}
    - {x: 0.17999996, y: 0.74999994, z: 0}
    - {x: 0.17999996, y: -0.75999993, z: 0}
    - {x: 0.82, y: -0.75999993, z: 0}
    - {x: 0.17999996, y: -0.15999998, z: 0}
    - {x: 0.82, y: -0.15999998, z: 0}
    - {x: 0.17999996, y: -0.15999998, z: 0}
    - {x: 0.82, y: -0.15999998, z: 0}
    - {x: 0.17999996, y: 0.48, z: 0}
    - {x: 0.82, y: 0.48, z: 0}
    - {x: 0.17999996, y: 0.48, z: 0}
    - {x: 0.82, y: 0.48, z: 0}
    - {x: 0.17999996, y: 0.7399999, z: 0}
    - {x: 0.82, y: 0.7399999, z: 0}
    - {x: 0.82, y: -0.15999998, z: 0}
    - {x: 1.0400001, y: -0.15999998, z: 0}
    - {x: 0.82, y: 0.48, z: 0}
    - {x: 1.0400001, y: 0.48, z: 0}
    - {x: 0.82, y: 0.48, z: 0}
    - {x: 0.89, y: 0.48, z: 0}
    - {x: 0.82, y: 0.53, z: 0}
    - {x: 0.89, y: 0.53, z: 0}
    normals: []
    tangents: []
    uvs:
    - {x: 0.0976582, y: 0.80761814}
    - {x: 0.0976582, y: 0.84374905}
    - {x: 0.1289043, y: 0.80761814}
    - {x: 0.1289043, y: 0.84374905}
    - {x: 0.003908203, y: 0.58300877}
    - {x: 0.003908203, y: 0.64062405}
    - {x: 0.1289043, y: 0.58300877}
    - {x: 0.1289043, y: 0.64062405}
    - {x: 0.003908203, y: 0.8808603}
    - {x: 0.0898418, y: 0.8808603}
    - {x: 0.003908203, y: 0.90136623}
    - {x: 0.0898418, y: 0.90136623}
    - {x: 0.8007832, y: 0.39843848}
    - {x: 0.8007832, y: 0.46093652}
    - {x: 0.9179668, y: 0.39843848}
    - {x: 0.9179668, y: 0.46093652}
    - {x: 0.003908203, y: 0.13476661}
    - {x: 0.1289043, y: 0.13476661}
    - {x: 0.003908203, y: 0.19726464}
    - {x: 0.1289043, y: 0.19726464}
    - {x: 0.9257832, y: 0.4003916}
    - {x: 0.9257832, y: 0.46288964}
    - {x: 0.97851366, y: 0.4003916}
    - {x: 0.97851366, y: 0.46288964}
    - {x: 0.003908203, y: 0.33398536}
    - {x: 0.1289043, y: 0.33398536}
    - {x: 0.003908203, y: 0.39257714}
    - {x: 0.1289043, y: 0.39257714}
    - {x: 0.1367207, y: 0.13476661}
    - {x: 0.26171678, y: 0.13476661}
    - {x: 0.1367207, y: 0.19726464}
    - {x: 0.26171678, y: 0.19726464}
    - {x: 0.5195332, y: 0.7363291}
    - {x: 0.6445293, y: 0.7363291}
    - {x: 0.5195332, y: 0.7617178}
    - {x: 0.6445293, y: 0.7617178}
    - {x: 0.003908203, y: 0.7568369}
    - {x: 0.003908203, y: 0.77831936}
    - {x: 0.1289043, y: 0.7568369}
    - {x: 0.1289043, y: 0.77831936}
    - {x: 0.9863301, y: 0.40918067}
    - {x: 0.9863301, y: 0.41601464}
    - {x: 0.9960918, y: 0.40918067}
    - {x: 0.9960918, y: 0.41601464}
    normalizedUvs:
    - {x: 0.09448856, y: 0.87770915}
    - {x: 0.09448856, y: 0.9248405}
    - {x: 0.12598081, y: 0.87770915}
    - {x: 0.12598081, y: 0.9248405}
    - {x: 0, y: 0.5847148}
    - {x: 0, y: 0.6598717}
    - {x: 0.12598081, y: 0.5847148}
    - {x: 0.12598081, y: 0.6598717}
    - {x: 0, y: 0.9732508}
    - {x: 0.08661058, y: 0.9732508}
    - {x: 0, y: 0.99999994}
    - {x: 0.08661058, y: 0.99999994}
    - {x: 0.8031528, y: 0.3439499}
    - {x: 0.8031528, y: 0.4254762}
    - {x: 0.9212595, y: 0.3439499}
    - {x: 0.9212595, y: 0.4254762}
    - {x: 0, y: 0}
    - {x: 0.12598081, y: 0}
    - {x: 0, y: 0.0815263}
    - {x: 0.12598081, y: 0.0815263}
    - {x: 0.9291375, y: 0.34649768}
    - {x: 0.9291375, y: 0.42802396}
    - {x: 0.9822834, y: 0.34649768}
    - {x: 0.9822834, y: 0.42802396}
    - {x: 0, y: 0.25987327}
    - {x: 0.12598081, y: 0.25987327}
    - {x: 0, y: 0.336304}
    - {x: 0.12598081, y: 0.336304}
    - {x: 0.1338588, y: 0}
    - {x: 0.2598396, y: 0}
    - {x: 0.1338588, y: 0.0815263}
    - {x: 0.2598396, y: 0.0815263}
    - {x: 0.5196871, y: 0.7847153}
    - {x: 0.6456679, y: 0.7847153}
    - {x: 0.5196871, y: 0.8178339}
    - {x: 0.6456679, y: 0.8178339}
    - {x: 0, y: 0.81146693}
    - {x: 0, y: 0.83949}
    - {x: 0.12598081, y: 0.81146693}
    - {x: 0.12598081, y: 0.83949}
    - {x: 0.9901614, y: 0.35796267}
    - {x: 0.9901614, y: 0.36687732}
    - {x: 1, y: 0.35796267}
    - {x: 1, y: 0.36687732}
    indices: 000000000300000001000000020000000300000000000000040000000700000005000000060000000700000004000000080000000b000000090000000a0000000b000000080000000c0000000f0000000d0000000e0000000f0000000c000000100000001300000011000000120000001300000010000000140000001700000015000000160000001700000014000000180000001b000000190000001a0000001b000000180000001c0000001f0000001d0000001e0000001f0000001c000000200000002300000021000000220000002300000020000000240000002700000025000000260000002700000024000000280000002b000000290000002a0000002b00000028000000
    material: {fileID: 2100000, guid: 02d4957e3b17b48bb8f88c35b36547bf, type: 2}
    materialId: 0
    sourceTextureGUID: 457b8f47ee7c447ce8e7b04a897ad759
    extractRegion: 0
    regionX: 0
    regionY: 0
    regionW: 0
    regionH: 0
    flipped: 0
    complexGeometry: 0
    physicsEngine: 0
    colliderType: 1
    customColliders: []
    colliderVertices: []
    colliderIndicesFwd: 
    colliderIndicesBack: 
    colliderConvex: 0
    colliderSmoothSphereCollisions: 0
    polygonCollider2D: []
    edgeCollider2D: []
    attachPoints: []
  - name: Caesarstone
    boundsData:
    - {x: 0, y: -0.004999995, z: 0}
    - {x: 2.1000001, y: 1.5099999, z: 0}
    untrimmedBoundsData:
    - {x: 0, y: 0, z: 0}
    - {x: 2.2, y: 1.5999999, z: 0}
    texelSize: {x: 0.01, y: 0.01}
    positions:
    - {x: -0.83000004, y: -0.75999993, z: 0}
    - {x: -0.46000004, y: -0.75999993, z: 0}
    - {x: -0.83000004, y: -0.15999998, z: 0}
    - {x: -0.46000004, y: -0.15999998, z: 0}
    - {x: -1.0500001, y: -0.15999998, z: 0}
    - {x: -0.46000004, y: -0.15999998, z: 0}
    - {x: -1.0500001, y: 0.48, z: 0}
    - {x: -0.46000004, y: 0.48, z: 0}
    - {x: -0.90000004, y: 0.48, z: 0}
    - {x: -0.46000004, y: 0.48, z: 0}
    - {x: -0.90000004, y: 0.68999994, z: 0}
    - {x: -0.46000004, y: 0.68999994, z: 0}
    - {x: -0.46000004, y: -0.75999993, z: 0}
    - {x: 0.17999996, y: -0.75999993, z: 0}
    - {x: -0.46000004, y: -0.15999998, z: 0}
    - {x: 0.17999996, y: -0.15999998, z: 0}
    - {x: -0.46000004, y: -0.15999998, z: 0}
    - {x: 0.17999996, y: -0.15999998, z: 0}
    - {x: -0.46000004, y: 0.48, z: 0}
    - {x: 0.17999996, y: 0.48, z: 0}
    - {x: -0.46000004, y: 0.48, z: 0}
    - {x: 0.17999996, y: 0.48, z: 0}
    - {x: -0.46000004, y: 0.74999994, z: 0}
    - {x: 0.17999996, y: 0.74999994, z: 0}
    - {x: 0.17999996, y: -0.75999993, z: 0}
    - {x: 0.82, y: -0.75999993, z: 0}
    - {x: 0.17999996, y: -0.15999998, z: 0}
    - {x: 0.82, y: -0.15999998, z: 0}
    - {x: 0.17999996, y: -0.15999998, z: 0}
    - {x: 0.82, y: -0.15999998, z: 0}
    - {x: 0.17999996, y: 0.48, z: 0}
    - {x: 0.82, y: 0.48, z: 0}
    - {x: 0.17999996, y: 0.48, z: 0}
    - {x: 0.82, y: 0.48, z: 0}
    - {x: 0.17999996, y: 0.7399999, z: 0}
    - {x: 0.82, y: 0.7399999, z: 0}
    - {x: 0.82, y: -0.73999995, z: 0}
    - {x: 0.86, y: -0.73999995, z: 0}
    - {x: 0.82, y: -0.55999994, z: 0}
    - {x: 0.86, y: -0.55999994, z: 0}
    - {x: 0.82, y: -0.15999998, z: 0}
    - {x: 1.0500001, y: -0.15999998, z: 0}
    - {x: 0.82, y: 0.48, z: 0}
    - {x: 1.0500001, y: 0.48, z: 0}
    - {x: 0.82, y: 0.48, z: 0}
    - {x: 0.9000001, y: 0.48, z: 0}
    - {x: 0.82, y: 0.5399999, z: 0}
    - {x: 0.9000001, y: 0.5399999, z: 0}
    normals: []
    tangents: []
    uvs:
    - {x: 0.92187697, y: 0.5957041}
    - {x: 0.99413866, y: 0.5957041}
    - {x: 0.92187697, y: 0.6542959}
    - {x: 0.99413866, y: 0.6542959}
    - {x: 0.1367207, y: 0.58300877}
    - {x: 0.1367207, y: 0.64062405}
    - {x: 0.26171678, y: 0.58300877}
    - {x: 0.26171678, y: 0.64062405}
    - {x: 0.26953322, y: 0.80957127}
    - {x: 0.35546678, y: 0.80957127}
    - {x: 0.26953322, y: 0.8300772}
    - {x: 0.35546678, y: 0.8300772}
    - {x: 0.1367207, y: 0.33398536}
    - {x: 0.26171678, y: 0.33398536}
    - {x: 0.1367207, y: 0.39257714}
    - {x: 0.26171678, y: 0.39257714}
    - {x: 0.26953322, y: 0.13476661}
    - {x: 0.39452928, y: 0.13476661}
    - {x: 0.26953322, y: 0.19726464}
    - {x: 0.39452928, y: 0.19726464}
    - {x: 0.9257832, y: 0.46679786}
    - {x: 0.9257832, y: 0.5292959}
    - {x: 0.97851366, y: 0.46679786}
    - {x: 0.97851366, y: 0.5292959}
    - {x: 0.26953322, y: 0.33398536}
    - {x: 0.39452928, y: 0.33398536}
    - {x: 0.26953322, y: 0.39257714}
    - {x: 0.39452928, y: 0.39257714}
    - {x: 0.40234572, y: 0.13476661}
    - {x: 0.5273418, y: 0.13476661}
    - {x: 0.40234572, y: 0.19726464}
    - {x: 0.5273418, y: 0.19726464}
    - {x: 0.5195332, y: 0.76562595}
    - {x: 0.6445293, y: 0.76562595}
    - {x: 0.5195332, y: 0.7910147}
    - {x: 0.6445293, y: 0.7910147}
    - {x: 0.9863301, y: 0.33398536}
    - {x: 0.99413866, y: 0.33398536}
    - {x: 0.9863301, y: 0.35156152}
    - {x: 0.99413866, y: 0.35156152}
    - {x: 0.003908203, y: 0.9472666}
    - {x: 0.003908203, y: 0.9697256}
    - {x: 0.1289043, y: 0.9472666}
    - {x: 0.1289043, y: 0.9697256}
    - {x: 0.96875197, y: 0.7207041}
    - {x: 0.98437303, y: 0.7207041}
    - {x: 0.96875197, y: 0.72656155}
    - {x: 0.98437303, y: 0.72656155}
    normalizedUvs:
    - {x: 0.9270254, y: 0.552048}
    - {x: 1, y: 0.552048}
    - {x: 0.9270254, y: 0.62222135}
    - {x: 1, y: 0.62222135}
    - {x: 0.13412282, y: 0.5368433}
    - {x: 0.13412282, y: 0.605847}
    - {x: 0.2603521, y: 0.5368433}
    - {x: 0.2603521, y: 0.605847}
    - {x: 0.26824567, y: 0.8081889}
    - {x: 0.35502705, y: 0.8081889}
    - {x: 0.26824567, y: 0.8327481}
    - {x: 0.35502705, y: 0.8327481}
    - {x: 0.13412282, y: 0.23859704}
    - {x: 0.2603521, y: 0.23859704}
    - {x: 0.13412282, y: 0.30877027}
    - {x: 0.2603521, y: 0.30877027}
    - {x: 0.26824567, y: 0}
    - {x: 0.39447492, y: 0}
    - {x: 0.26824567, y: 0.07485162}
    - {x: 0.39447492, y: 0.07485162}
    - {x: 0.9309702, y: 0.39766172}
    - {x: 0.9309702, y: 0.47251338}
    - {x: 0.98422086, y: 0.39766172}
    - {x: 0.98422086, y: 0.47251338}
    - {x: 0.26824567, y: 0.23859704}
    - {x: 0.39447492, y: 0.23859704}
    - {x: 0.26824567, y: 0.30877027}
    - {x: 0.39447492, y: 0.30877027}
    - {x: 0.4023685, y: 0}
    - {x: 0.5285978, y: 0}
    - {x: 0.4023685, y: 0.07485162}
    - {x: 0.5285978, y: 0.07485162}
    - {x: 0.52071214, y: 0.75555724}
    - {x: 0.6469414, y: 0.75555724}
    - {x: 0.52071214, y: 0.78596437}
    - {x: 0.6469414, y: 0.78596437}
    - {x: 0.9921144, y: 0.23859704}
    - {x: 1, y: 0.23859704}
    - {x: 0.9921144, y: 0.25964737}
    - {x: 1, y: 0.25964737}
    - {x: 0, y: 0.9731016}
    - {x: 0, y: 0.99999994}
    - {x: 0.1262293, y: 0.9731016}
    - {x: 0.1262293, y: 0.99999994}
    - {x: 0.97436285, y: 0.70175594}
    - {x: 0.99013805, y: 0.70175594}
    - {x: 0.97436285, y: 0.7087712}
    - {x: 0.99013805, y: 0.7087712}
    indices: 000000000300000001000000020000000300000000000000040000000700000005000000060000000700000004000000080000000b000000090000000a0000000b000000080000000c0000000f0000000d0000000e0000000f0000000c000000100000001300000011000000120000001300000010000000140000001700000015000000160000001700000014000000180000001b000000190000001a0000001b000000180000001c0000001f0000001d0000001e0000001f0000001c000000200000002300000021000000220000002300000020000000240000002700000025000000260000002700000024000000280000002b000000290000002a0000002b000000280000002c0000002f0000002d0000002e0000002f0000002c000000
    material: {fileID: 2100000, guid: 02d4957e3b17b48bb8f88c35b36547bf, type: 2}
    materialId: 0
    sourceTextureGUID: 05d3fd48d5c69489caa6ad48eebf4cb9
    extractRegion: 0
    regionX: 0
    regionY: 0
    regionW: 0
    regionH: 0
    flipped: 0
    complexGeometry: 0
    physicsEngine: 0
    colliderType: 1
    customColliders: []
    colliderVertices: []
    colliderIndicesFwd: 
    colliderIndicesBack: 
    colliderConvex: 0
    colliderSmoothSphereCollisions: 0
    polygonCollider2D: []
    edgeCollider2D: []
    attachPoints: []
  - name: Brown
    boundsData:
    - {x: -0.004999995, y: -0.004999995, z: 0}
    - {x: 2.0900002, y: 1.5099999, z: 0}
    untrimmedBoundsData:
    - {x: 0, y: 0, z: 0}
    - {x: 2.2, y: 1.5999999, z: 0}
    texelSize: {x: 0.01, y: 0.01}
    positions:
    - {x: -0.83000004, y: -0.31999996, z: 0}
    - {x: -0.46000004, y: -0.31999996, z: 0}
    - {x: -0.83000004, y: -0.15999998, z: 0}
    - {x: -0.46000004, y: -0.15999998, z: 0}
    - {x: -1.0500001, y: -0.15999998, z: 0}
    - {x: -0.46000004, y: -0.15999998, z: 0}
    - {x: -1.0500001, y: 0.48, z: 0}
    - {x: -0.46000004, y: 0.48, z: 0}
    - {x: -0.90000004, y: 0.48, z: 0}
    - {x: -0.46000004, y: 0.48, z: 0}
    - {x: -0.90000004, y: 0.68999994, z: 0}
    - {x: -0.46000004, y: 0.68999994, z: 0}
    - {x: -0.46000004, y: -0.75999993, z: 0}
    - {x: 0.17999996, y: -0.75999993, z: 0}
    - {x: -0.46000004, y: -0.15999998, z: 0}
    - {x: 0.17999996, y: -0.15999998, z: 0}
    - {x: -0.46000004, y: -0.15999998, z: 0}
    - {x: 0.17999996, y: -0.15999998, z: 0}
    - {x: -0.46000004, y: 0.48, z: 0}
    - {x: 0.17999996, y: 0.48, z: 0}
    - {x: -0.46000004, y: 0.48, z: 0}
    - {x: 0.17999996, y: 0.48, z: 0}
    - {x: -0.46000004, y: 0.74999994, z: 0}
    - {x: 0.17999996, y: 0.74999994, z: 0}
    - {x: 0.17999996, y: -0.75999993, z: 0}
    - {x: 0.81, y: -0.75999993, z: 0}
    - {x: 0.17999996, y: -0.15999998, z: 0}
    - {x: 0.81, y: -0.15999998, z: 0}
    - {x: 0.17999996, y: -0.15999998, z: 0}
    - {x: 0.82, y: -0.15999998, z: 0}
    - {x: 0.17999996, y: 0.48, z: 0}
    - {x: 0.82, y: 0.48, z: 0}
    - {x: 0.17999996, y: 0.48, z: 0}
    - {x: 0.82, y: 0.48, z: 0}
    - {x: 0.17999996, y: 0.7399999, z: 0}
    - {x: 0.82, y: 0.7399999, z: 0}
    - {x: 0.82, y: -0.15999998, z: 0}
    - {x: 1.0400001, y: -0.15999998, z: 0}
    - {x: 0.82, y: 0.48, z: 0}
    - {x: 1.0400001, y: 0.48, z: 0}
    - {x: 0.82, y: 0.48, z: 0}
    - {x: 0.89, y: 0.48, z: 0}
    - {x: 0.82, y: 0.53, z: 0}
    - {x: 0.89, y: 0.53, z: 0}
    normals: []
    tangents: []
    uvs:
    - {x: 0.0976582, y: 0.8476572}
    - {x: 0.0976582, y: 0.8837881}
    - {x: 0.1289043, y: 0.8476572}
    - {x: 0.1289043, y: 0.8837881}
    - {x: 0.26953322, y: 0.58300877}
    - {x: 0.26953322, y: 0.64062405}
    - {x: 0.39452928, y: 0.58300877}
    - {x: 0.39452928, y: 0.64062405}
    - {x: 0.26953322, y: 0.8339853}
    - {x: 0.35546678, y: 0.8339853}
    - {x: 0.26953322, y: 0.85449123}
    - {x: 0.35546678, y: 0.85449123}
    - {x: 0.40234572, y: 0.33398536}
    - {x: 0.5273418, y: 0.33398536}
    - {x: 0.40234572, y: 0.39257714}
    - {x: 0.5273418, y: 0.39257714}
    - {x: 0.5351582, y: 0.13476661}
    - {x: 0.6601543, y: 0.13476661}
    - {x: 0.5351582, y: 0.19726464}
    - {x: 0.6601543, y: 0.19726464}
    - {x: 0.26953322, y: 0.6445322}
    - {x: 0.39452928, y: 0.6445322}
    - {x: 0.26953322, y: 0.6708975}
    - {x: 0.39452928, y: 0.6708975}
    - {x: 0.13476758, y: 0.45898536}
    - {x: 0.25781053, y: 0.45898536}
    - {x: 0.13476758, y: 0.5175772}
    - {x: 0.25781053, y: 0.5175772}
    - {x: 0.6679707, y: 0.13476661}
    - {x: 0.7929668, y: 0.13476661}
    - {x: 0.6679707, y: 0.19726464}
    - {x: 0.7929668, y: 0.19726464}
    - {x: 0.6523457, y: 0.7773447}
    - {x: 0.6523457, y: 0.8398428}
    - {x: 0.70312303, y: 0.7773447}
    - {x: 0.70312303, y: 0.8398428}
    - {x: 0.26953322, y: 0.75879}
    - {x: 0.26953322, y: 0.7802725}
    - {x: 0.39452928, y: 0.75879}
    - {x: 0.39452928, y: 0.7802725}
    - {x: 0.9863301, y: 0.41992286}
    - {x: 0.9863301, y: 0.42675683}
    - {x: 0.9960918, y: 0.41992286}
    - {x: 0.9960918, y: 0.42675683}
    normalizedUvs:
    - {x: 0, y: 0.9517625}
    - {x: 0, y: 0.99999994}
    - {x: 0.034778416, y: 0.9517625}
    - {x: 0.034778416, y: 0.99999994}
    - {x: 0.1913052, y: 0.59843695}
    - {x: 0.1913052, y: 0.6753577}
    - {x: 0.33043188, y: 0.59843695}
    - {x: 0.33043188, y: 0.6753577}
    - {x: 0.1913052, y: 0.9335095}
    - {x: 0.28695342, y: 0.9335095}
    - {x: 0.1913052, y: 0.9608864}
    - {x: 0.28695342, y: 0.9608864}
    - {x: 0.33913192, y: 0.265972}
    - {x: 0.4782586, y: 0.265972}
    - {x: 0.33913192, y: 0.34419644}
    - {x: 0.4782586, y: 0.34419644}
    - {x: 0.48695868, y: 0}
    - {x: 0.62608534, y: 0}
    - {x: 0.48695868, y: 0.083439566}
    - {x: 0.62608534, y: 0.083439566}
    - {x: 0.1913052, y: 0.6805754}
    - {x: 0.33043188, y: 0.6805754}
    - {x: 0.1913052, y: 0.715775}
    - {x: 0.33043188, y: 0.715775}
    - {x: 0.04130453, y: 0.43285638}
    - {x: 0.17825729, y: 0.43285638}
    - {x: 0.04130453, y: 0.51108086}
    - {x: 0.17825729, y: 0.51108086}
    - {x: 0.6347854, y: 0}
    - {x: 0.7739121, y: 0}
    - {x: 0.6347854, y: 0.083439566}
    - {x: 0.7739121, y: 0.083439566}
    - {x: 0.61739403, y: 0.85789}
    - {x: 0.61739403, y: 0.94132966}
    - {x: 0.67391163, y: 0.85789}
    - {x: 0.67391163, y: 0.94132966}
    - {x: 0.1913052, y: 0.83311814}
    - {x: 0.1913052, y: 0.8617988}
    - {x: 0.33043188, y: 0.83311814}
    - {x: 0.33043188, y: 0.8617988}
    - {x: 0.9891348, y: 0.380705}
    - {x: 0.9891348, y: 0.38982886}
    - {x: 1, y: 0.380705}
    - {x: 1, y: 0.38982886}
    indices: 000000000300000001000000020000000300000000000000040000000700000005000000060000000700000004000000080000000b000000090000000a0000000b000000080000000c0000000f0000000d0000000e0000000f0000000c000000100000001300000011000000120000001300000010000000140000001700000015000000160000001700000014000000180000001b000000190000001a0000001b000000180000001c0000001f0000001d0000001e0000001f0000001c000000200000002300000021000000220000002300000020000000240000002700000025000000260000002700000024000000280000002b000000290000002a0000002b00000028000000
    material: {fileID: 2100000, guid: 02d4957e3b17b48bb8f88c35b36547bf, type: 2}
    materialId: 0
    sourceTextureGUID: 596d8898bdb5b4622a046f88550b5aca
    extractRegion: 0
    regionX: 0
    regionY: 0
    regionW: 0
    regionH: 0
    flipped: 0
    complexGeometry: 0
    physicsEngine: 0
    colliderType: 1
    customColliders: []
    colliderVertices: []
    colliderIndicesFwd: 
    colliderIndicesBack: 
    colliderConvex: 0
    colliderSmoothSphereCollisions: 0
    polygonCollider2D: []
    edgeCollider2D: []
    attachPoints: []
  - name: Red
    boundsData:
    - {x: -0.004999995, y: -0.004999995, z: 0}
    - {x: 2.0900002, y: 1.5099999, z: 0}
    untrimmedBoundsData:
    - {x: 0, y: 0, z: 0}
    - {x: 2.2, y: 1.5999999, z: 0}
    texelSize: {x: 0.01, y: 0.01}
    positions:
    - {x: -0.83000004, y: -0.31999996, z: 0}
    - {x: -0.46000004, y: -0.31999996, z: 0}
    - {x: -0.83000004, y: -0.15999998, z: 0}
    - {x: -0.46000004, y: -0.15999998, z: 0}
    - {x: -1.0500001, y: -0.15999998, z: 0}
    - {x: -0.46000004, y: -0.15999998, z: 0}
    - {x: -1.0500001, y: 0.48, z: 0}
    - {x: -0.46000004, y: 0.48, z: 0}
    - {x: -0.90000004, y: 0.48, z: 0}
    - {x: -0.46000004, y: 0.48, z: 0}
    - {x: -0.90000004, y: 0.68999994, z: 0}
    - {x: -0.46000004, y: 0.68999994, z: 0}
    - {x: -0.46000004, y: -0.75999993, z: 0}
    - {x: 0.17999996, y: -0.75999993, z: 0}
    - {x: -0.46000004, y: -0.15999998, z: 0}
    - {x: 0.17999996, y: -0.15999998, z: 0}
    - {x: -0.46000004, y: -0.15999998, z: 0}
    - {x: 0.17999996, y: -0.15999998, z: 0}
    - {x: -0.46000004, y: 0.48, z: 0}
    - {x: 0.17999996, y: 0.48, z: 0}
    - {x: -0.46000004, y: 0.48, z: 0}
    - {x: 0.17999996, y: 0.48, z: 0}
    - {x: -0.46000004, y: 0.74999994, z: 0}
    - {x: 0.17999996, y: 0.74999994, z: 0}
    - {x: 0.17999996, y: -0.75999993, z: 0}
    - {x: 0.81, y: -0.75999993, z: 0}
    - {x: 0.17999996, y: -0.15999998, z: 0}
    - {x: 0.81, y: -0.15999998, z: 0}
    - {x: 0.17999996, y: -0.15999998, z: 0}
    - {x: 0.82, y: -0.15999998, z: 0}
    - {x: 0.17999996, y: 0.48, z: 0}
    - {x: 0.82, y: 0.48, z: 0}
    - {x: 0.17999996, y: 0.48, z: 0}
    - {x: 0.82, y: 0.48, z: 0}
    - {x: 0.17999996, y: 0.7399999, z: 0}
    - {x: 0.82, y: 0.7399999, z: 0}
    - {x: 0.82, y: -0.15999998, z: 0}
    - {x: 1.0400001, y: -0.15999998, z: 0}
    - {x: 0.82, y: 0.48, z: 0}
    - {x: 1.0400001, y: 0.48, z: 0}
    - {x: 0.82, y: 0.48, z: 0}
    - {x: 0.89, y: 0.48, z: 0}
    - {x: 0.82, y: 0.53, z: 0}
    - {x: 0.89, y: 0.53, z: 0}
    normals: []
    tangents: []
    uvs:
    - {x: 0.36328322, y: 0.80957127}
    - {x: 0.36328322, y: 0.8457022}
    - {x: 0.39452928, y: 0.80957127}
    - {x: 0.39452928, y: 0.8457022}
    - {x: 0.40234572, y: 0.5878916}
    - {x: 0.51757616, y: 0.5878916}
    - {x: 0.40234572, y: 0.6503897}
    - {x: 0.51757616, y: 0.6503897}
    - {x: 0.0976582, y: 0.88769627}
    - {x: 0.1835918, y: 0.88769627}
    - {x: 0.0976582, y: 0.9082022}
    - {x: 0.1835918, y: 0.9082022}
    - {x: 0.5351582, y: 0.3955088}
    - {x: 0.6601543, y: 0.3955088}
    - {x: 0.5351582, y: 0.45410058}
    - {x: 0.6601543, y: 0.45410058}
    - {x: 0.8007832, y: 0.13476661}
    - {x: 0.9257793, y: 0.13476661}
    - {x: 0.8007832, y: 0.19726464}
    - {x: 0.9257793, y: 0.19726464}
    - {x: 0.40234572, y: 0.6542978}
    - {x: 0.40234572, y: 0.7167959}
    - {x: 0.45507616, y: 0.6542978}
    - {x: 0.45507616, y: 0.7167959}
    - {x: 0.26562697, y: 0.45898536}
    - {x: 0.3886699, y: 0.45898536}
    - {x: 0.26562697, y: 0.5175772}
    - {x: 0.3886699, y: 0.5175772}
    - {x: 0.003908203, y: 0.20117286}
    - {x: 0.1289043, y: 0.20117286}
    - {x: 0.003908203, y: 0.2636709}
    - {x: 0.1289043, y: 0.2636709}
    - {x: 0.71093947, y: 0.7773447}
    - {x: 0.71093947, y: 0.8398428}
    - {x: 0.7617168, y: 0.7773447}
    - {x: 0.7617168, y: 0.8398428}
    - {x: 0.1367207, y: 0.7822275}
    - {x: 0.1367207, y: 0.80371}
    - {x: 0.26171678, y: 0.7822275}
    - {x: 0.26171678, y: 0.80371}
    - {x: 0.9863301, y: 0.43066505}
    - {x: 0.9863301, y: 0.43749902}
    - {x: 0.9960918, y: 0.43066505}
    - {x: 0.9960918, y: 0.43749902}
    normalizedUvs:
    - {x: 0.36220616, y: 0.8724769}
    - {x: 0.36220616, y: 0.91919166}
    - {x: 0.3936984, y: 0.8724769}
    - {x: 0.3936984, y: 0.91919166}
    - {x: 0.4015764, y: 0.58586}
    - {x: 0.5177146, y: 0.58586}
    - {x: 0.4015764, y: 0.6666658}
    - {x: 0.5177146, y: 0.6666658}
    - {x: 0.09448856, y: 0.9734872}
    - {x: 0.18109915, y: 0.9734872}
    - {x: 0.09448856, y: 0.99999994}
    - {x: 0.18109915, y: 0.99999994}
    - {x: 0.5354352, y: 0.33712205}
    - {x: 0.661416, y: 0.33712205}
    - {x: 0.5354352, y: 0.41287726}
    - {x: 0.661416, y: 0.41287726}
    - {x: 0.8031528, y: 0}
    - {x: 0.9291336, y: 0}
    - {x: 0.8031528, y: 0.080805734}
    - {x: 0.9291336, y: 0.080805734}
    - {x: 0.4015764, y: 0.6717188}
    - {x: 0.4015764, y: 0.7525246}
    - {x: 0.45472226, y: 0.6717188}
    - {x: 0.45472226, y: 0.7525246}
    - {x: 0.2637806, y: 0.41919294}
    - {x: 0.38779286, y: 0.41919294}
    - {x: 0.2637806, y: 0.4949482}
    - {x: 0.38779286, y: 0.4949482}
    - {x: 0, y: 0.0858588}
    - {x: 0.12598081, y: 0.0858588}
    - {x: 0, y: 0.16666454}
    - {x: 0.12598081, y: 0.16666454}
    - {x: 0.71260124, y: 0.83081007}
    - {x: 0.71260124, y: 0.9116159}
    - {x: 0.7637786, y: 0.83081007}
    - {x: 0.7637786, y: 0.9116159}
    - {x: 0.1338588, y: 0.8371232}
    - {x: 0.1338588, y: 0.8648986}
    - {x: 0.2598396, y: 0.8371232}
    - {x: 0.2598396, y: 0.8648986}
    - {x: 0.9901614, y: 0.3825767}
    - {x: 0.9901614, y: 0.39141256}
    - {x: 1, y: 0.3825767}
    - {x: 1, y: 0.39141256}
    indices: 000000000300000001000000020000000300000000000000040000000700000005000000060000000700000004000000080000000b000000090000000a0000000b000000080000000c0000000f0000000d0000000e0000000f0000000c000000100000001300000011000000120000001300000010000000140000001700000015000000160000001700000014000000180000001b000000190000001a0000001b000000180000001c0000001f0000001d0000001e0000001f0000001c000000200000002300000021000000220000002300000020000000240000002700000025000000260000002700000024000000280000002b000000290000002a0000002b00000028000000
    material: {fileID: 2100000, guid: 02d4957e3b17b48bb8f88c35b36547bf, type: 2}
    materialId: 0
    sourceTextureGUID: 98641589ce4a24ea59578dcb1aba636a
    extractRegion: 0
    regionX: 0
    regionY: 0
    regionW: 0
    regionH: 0
    flipped: 0
    complexGeometry: 0
    physicsEngine: 0
    colliderType: 1
    customColliders: []
    colliderVertices: []
    colliderIndicesFwd: 
    colliderIndicesBack: 
    colliderConvex: 0
    colliderSmoothSphereCollisions: 0
    polygonCollider2D: []
    edgeCollider2D: []
    attachPoints: []
  - name: Silestone
    boundsData:
    - {x: -0.004999995, y: -0.004999995, z: 0}
    - {x: 2.0900002, y: 1.5099999, z: 0}
    untrimmedBoundsData:
    - {x: 0, y: 0, z: 0}
    - {x: 2.2, y: 1.5999999, z: 0}
    texelSize: {x: 0.01, y: 0.01}
    positions:
    - {x: -0.83000004, y: -0.75999993, z: 0}
    - {x: -0.46000004, y: -0.75999993, z: 0}
    - {x: -0.83000004, y: -0.15999998, z: 0}
    - {x: -0.46000004, y: -0.15999998, z: 0}
    - {x: -1.0500001, y: -0.15999998, z: 0}
    - {x: -0.46000004, y: -0.15999998, z: 0}
    - {x: -1.0500001, y: 0.48, z: 0}
    - {x: -0.46000004, y: 0.48, z: 0}
    - {x: -0.90000004, y: 0.48, z: 0}
    - {x: -0.46000004, y: 0.48, z: 0}
    - {x: -0.90000004, y: 0.68999994, z: 0}
    - {x: -0.46000004, y: 0.68999994, z: 0}
    - {x: -0.46000004, y: -0.75999993, z: 0}
    - {x: 0.17999996, y: -0.75999993, z: 0}
    - {x: -0.46000004, y: -0.15999998, z: 0}
    - {x: 0.17999996, y: -0.15999998, z: 0}
    - {x: -0.46000004, y: -0.15999998, z: 0}
    - {x: 0.17999996, y: -0.15999998, z: 0}
    - {x: -0.46000004, y: 0.48, z: 0}
    - {x: 0.17999996, y: 0.48, z: 0}
    - {x: -0.46000004, y: 0.48, z: 0}
    - {x: 0.17999996, y: 0.48, z: 0}
    - {x: -0.46000004, y: 0.74999994, z: 0}
    - {x: 0.17999996, y: 0.74999994, z: 0}
    - {x: 0.17999996, y: -0.75999993, z: 0}
    - {x: 0.81, y: -0.75999993, z: 0}
    - {x: 0.17999996, y: -0.15999998, z: 0}
    - {x: 0.81, y: -0.15999998, z: 0}
    - {x: 0.17999996, y: -0.15999998, z: 0}
    - {x: 0.82, y: -0.15999998, z: 0}
    - {x: 0.17999996, y: 0.48, z: 0}
    - {x: 0.82, y: 0.48, z: 0}
    - {x: 0.17999996, y: 0.48, z: 0}
    - {x: 0.82, y: 0.48, z: 0}
    - {x: 0.17999996, y: 0.7399999, z: 0}
    - {x: 0.82, y: 0.7399999, z: 0}
    - {x: 0.82, y: -0.15999998, z: 0}
    - {x: 1.0400001, y: -0.15999998, z: 0}
    - {x: 0.82, y: 0.48, z: 0}
    - {x: 1.0400001, y: 0.48, z: 0}
    - {x: 0.82, y: 0.48, z: 0}
    - {x: 0.89, y: 0.48, z: 0}
    - {x: 0.82, y: 0.53, z: 0}
    - {x: 0.89, y: 0.53, z: 0}
    normals: []
    tangents: []
    uvs:
    - {x: 0.91406447, y: 0.6582041}
    - {x: 0.98632616, y: 0.6582041}
    - {x: 0.91406447, y: 0.7167959}
    - {x: 0.98632616, y: 0.7167959}
    - {x: 0.5253926, y: 0.6445322}
    - {x: 0.5253926, y: 0.7021475}
    - {x: 0.65038866, y: 0.6445322}
    - {x: 0.65038866, y: 0.7021475}
    - {x: 0.1367207, y: 0.85644627}
    - {x: 0.2226543, y: 0.85644627}
    - {x: 0.1367207, y: 0.8769522}
    - {x: 0.2226543, y: 0.8769522}
    - {x: 0.6679707, y: 0.45703223}
    - {x: 0.7929668, y: 0.45703223}
    - {x: 0.6679707, y: 0.51562405}
    - {x: 0.7929668, y: 0.51562405}
    - {x: 0.1367207, y: 0.20117286}
    - {x: 0.26171678, y: 0.20117286}
    - {x: 0.1367207, y: 0.2636709}
    - {x: 0.26171678, y: 0.2636709}
    - {x: 0.4628926, y: 0.6542978}
    - {x: 0.4628926, y: 0.7167959}
    - {x: 0.51562303, y: 0.6542978}
    - {x: 0.51562303, y: 0.7167959}
    - {x: 0.39648634, y: 0.45898536}
    - {x: 0.5195293, y: 0.45898536}
    - {x: 0.39648634, y: 0.5175772}
    - {x: 0.5195293, y: 0.5175772}
    - {x: 0.26953322, y: 0.20117286}
    - {x: 0.39452928, y: 0.20117286}
    - {x: 0.26953322, y: 0.2636709}
    - {x: 0.39452928, y: 0.2636709}
    - {x: 0.7695332, y: 0.7792978}
    - {x: 0.8945293, y: 0.7792978}
    - {x: 0.7695332, y: 0.80468655}
    - {x: 0.8945293, y: 0.80468655}
    - {x: 0.003908203, y: 0.7822275}
    - {x: 0.003908203, y: 0.80371}
    - {x: 0.1289043, y: 0.7822275}
    - {x: 0.1289043, y: 0.80371}
    - {x: 0.9863301, y: 0.44140723}
    - {x: 0.9863301, y: 0.4482412}
    - {x: 0.9960918, y: 0.44140723}
    - {x: 0.9960918, y: 0.4482412}
    normalizedUvs:
    - {x: 0.9173265, y: 0.67630243}
    - {x: 0.9901575, y: 0.67630243}
    - {x: 0.9173265, y: 0.7630051}
    - {x: 0.9901575, y: 0.7630051}
    - {x: 0.5255926, y: 0.6560712}
    - {x: 0.5255926, y: 0.7413287}
    - {x: 0.6515734, y: 0.6560712}
    - {x: 0.6515734, y: 0.7413287}
    - {x: 0.1338588, y: 0.9696559}
    - {x: 0.22046939, y: 0.9696559}
    - {x: 0.1338588, y: 0.99999994}
    - {x: 0.22046939, y: 0.99999994}
    - {x: 0.669294, y: 0.3786138}
    - {x: 0.7952748, y: 0.3786138}
    - {x: 0.669294, y: 0.46531636}
    - {x: 0.7952748, y: 0.46531636}
    - {x: 0.1338588, y: 0}
    - {x: 0.2598396, y: 0}
    - {x: 0.1338588, y: 0.0924829}
    - {x: 0.2598396, y: 0.0924829}
    - {x: 0.46260026, y: 0.6705221}
    - {x: 0.46260026, y: 0.7630051}
    - {x: 0.5157461, y: 0.6705221}
    - {x: 0.5157461, y: 0.7630051}
    - {x: 0.39567086, y: 0.38150397}
    - {x: 0.5196831, y: 0.38150397}
    - {x: 0.39567086, y: 0.46820655}
    - {x: 0.5196831, y: 0.46820655}
    - {x: 0.2677176, y: 0}
    - {x: 0.3936984, y: 0}
    - {x: 0.2677176, y: 0.0924829}
    - {x: 0.3936984, y: 0.0924829}
    - {x: 0.77165663, y: 0.8554937}
    - {x: 0.8976374, y: 0.8554937}
    - {x: 0.77165663, y: 0.89306325}
    - {x: 0.8976374, y: 0.89306325}
    - {x: 0, y: 0.85982895}
    - {x: 0, y: 0.89161813}
    - {x: 0.12598081, y: 0.85982895}
    - {x: 0.12598081, y: 0.89161813}
    - {x: 0.9901614, y: 0.35549232}
    - {x: 0.9901614, y: 0.36560506}
    - {x: 1, y: 0.35549232}
    - {x: 1, y: 0.36560506}
    indices: 000000000300000001000000020000000300000000000000040000000700000005000000060000000700000004000000080000000b000000090000000a0000000b000000080000000c0000000f0000000d0000000e0000000f0000000c000000100000001300000011000000120000001300000010000000140000001700000015000000160000001700000014000000180000001b000000190000001a0000001b000000180000001c0000001f0000001d0000001e0000001f0000001c000000200000002300000021000000220000002300000020000000240000002700000025000000260000002700000024000000280000002b000000290000002a0000002b00000028000000
    material: {fileID: 2100000, guid: 02d4957e3b17b48bb8f88c35b36547bf, type: 2}
    materialId: 0
    sourceTextureGUID: dff645b986a9a4c6a882f82138f91dcf
    extractRegion: 0
    regionX: 0
    regionY: 0
    regionW: 0
    regionH: 0
    flipped: 0
    complexGeometry: 0
    physicsEngine: 0
    colliderType: 1
    customColliders: []
    colliderVertices: []
    colliderIndicesFwd: 
    colliderIndicesBack: 
    colliderConvex: 0
    colliderSmoothSphereCollisions: 0
    polygonCollider2D: []
    edgeCollider2D: []
    attachPoints: []
  - name: Zodiaq
    boundsData:
    - {x: 0, y: -0.02000001, z: 0}
    - {x: 2.1000001, y: 1.54, z: 0}
    untrimmedBoundsData:
    - {x: 0, y: 0, z: 0}
    - {x: 2.2, y: 1.5999999, z: 0}
    texelSize: {x: 0.01, y: 0.01}
    positions:
    - {x: -0.83000004, y: -0.31999996, z: 0}
    - {x: -0.46000004, y: -0.31999996, z: 0}
    - {x: -0.83000004, y: -0.15999998, z: 0}
    - {x: -0.46000004, y: -0.15999998, z: 0}
    - {x: -1.0500001, y: -0.15999998, z: 0}
    - {x: -0.46000004, y: -0.15999998, z: 0}
    - {x: -1.0500001, y: 0.48, z: 0}
    - {x: -0.46000004, y: 0.48, z: 0}
    - {x: -0.90000004, y: 0.48, z: 0}
    - {x: -0.46000004, y: 0.48, z: 0}
    - {x: -0.90000004, y: 0.68999994, z: 0}
    - {x: -0.46000004, y: 0.68999994, z: 0}
    - {x: -0.46000004, y: -0.75999993, z: 0}
    - {x: 0.17999996, y: -0.75999993, z: 0}
    - {x: -0.46000004, y: -0.15999998, z: 0}
    - {x: 0.17999996, y: -0.15999998, z: 0}
    - {x: -0.46000004, y: -0.15999998, z: 0}
    - {x: 0.17999996, y: -0.15999998, z: 0}
    - {x: -0.46000004, y: 0.48, z: 0}
    - {x: 0.17999996, y: 0.48, z: 0}
    - {x: -0.46000004, y: 0.48, z: 0}
    - {x: 0.17999996, y: 0.48, z: 0}
    - {x: -0.46000004, y: 0.74999994, z: 0}
    - {x: 0.17999996, y: 0.74999994, z: 0}
    - {x: 0.17999996, y: -0.78999996, z: 0}
    - {x: 0.82, y: -0.78999996, z: 0}
    - {x: 0.17999996, y: -0.15999998, z: 0}
    - {x: 0.82, y: -0.15999998, z: 0}
    - {x: 0.17999996, y: -0.15999998, z: 0}
    - {x: 0.82, y: -0.15999998, z: 0}
    - {x: 0.17999996, y: 0.48, z: 0}
    - {x: 0.82, y: 0.48, z: 0}
    - {x: 0.17999996, y: 0.48, z: 0}
    - {x: 0.82, y: 0.48, z: 0}
    - {x: 0.17999996, y: 0.7399999, z: 0}
    - {x: 0.82, y: 0.7399999, z: 0}
    - {x: 0.82, y: -0.15999998, z: 0}
    - {x: 1.0500001, y: -0.15999998, z: 0}
    - {x: 0.82, y: 0.48, z: 0}
    - {x: 1.0500001, y: 0.48, z: 0}
    - {x: 0.82, y: 0.48, z: 0}
    - {x: 0.9000001, y: 0.48, z: 0}
    - {x: 0.82, y: 0.5399999, z: 0}
    - {x: 0.9000001, y: 0.5399999, z: 0}
    normals: []
    tangents: []
    uvs:
    - {x: 0.36328322, y: 0.8496103}
    - {x: 0.36328322, y: 0.88574123}
    - {x: 0.39452928, y: 0.8496103}
    - {x: 0.39452928, y: 0.88574123}
    - {x: 0.6582051, y: 0.6445322}
    - {x: 0.77343553, y: 0.6445322}
    - {x: 0.6582051, y: 0.7070303}
    - {x: 0.77343553, y: 0.7070303}
    - {x: 0.1367207, y: 0.9121103}
    - {x: 0.1367207, y: 0.9550772}
    - {x: 0.17773242, y: 0.9121103}
    - {x: 0.17773242, y: 0.9550772}
    - {x: 0.8007832, y: 0.46484473}
    - {x: 0.8007832, y: 0.5273428}
    - {x: 0.9179668, y: 0.46484473}
    - {x: 0.9179668, y: 0.5273428}
    - {x: 0.40234572, y: 0.20117286}
    - {x: 0.5273418, y: 0.20117286}
    - {x: 0.40234572, y: 0.2636709}
    - {x: 0.5273418, y: 0.2636709}
    - {x: 0.52343947, y: 0.70605564}
    - {x: 0.64843553, y: 0.70605564}
    - {x: 0.52343947, y: 0.7324209}
    - {x: 0.64843553, y: 0.7324209}
    - {x: 0.5351582, y: 0.2675791}
    - {x: 0.6601543, y: 0.2675791}
    - {x: 0.5351582, y: 0.32910058}
    - {x: 0.6601543, y: 0.32910058}
    - {x: 0.5351582, y: 0.20117286}
    - {x: 0.6601543, y: 0.20117286}
    - {x: 0.5351582, y: 0.2636709}
    - {x: 0.6601543, y: 0.2636709}
    - {x: 0.9023457, y: 0.7871103}
    - {x: 0.9023457, y: 0.8496084}
    - {x: 0.95312303, y: 0.7871103}
    - {x: 0.95312303, y: 0.8496084}
    - {x: 0.003908203, y: 0.9199228}
    - {x: 0.003908203, y: 0.94238186}
    - {x: 0.1289043, y: 0.9199228}
    - {x: 0.1289043, y: 0.94238186}
    - {x: 0.96875197, y: 0.7304697}
    - {x: 0.98437303, y: 0.7304697}
    - {x: 0.96875197, y: 0.7363272}
    - {x: 0.98437303, y: 0.7363272}
    normalizedUvs:
    - {x: 0.36653534, y: 0.86010575}
    - {x: 0.36653534, y: 0.9080308}
    - {x: 0.39840397, y: 0.86010575}
    - {x: 0.39840397, y: 0.9080308}
    - {x: 0.66733336, y: 0.58808434}
    - {x: 0.7848597, y: 0.58808434}
    - {x: 0.66733336, y: 0.6709836}
    - {x: 0.7848597, y: 0.6709836}
    - {x: 0.13545871, y: 0.9430075}
    - {x: 0.13545871, y: 0.99999994}
    - {x: 0.17728756, y: 0.9430075}
    - {x: 0.17728756, y: 0.99999994}
    - {x: 0.8127523, y: 0.34974182}
    - {x: 0.8127523, y: 0.432641}
    - {x: 0.93227065, y: 0.34974182}
    - {x: 0.93227065, y: 0.432641}
    - {x: 0.40637615, y: 0}
    - {x: 0.5338627, y: 0}
    - {x: 0.40637615, y: 0.08289915}
    - {x: 0.5338627, y: 0.08289915}
    - {x: 0.5298826, y: 0.6696908}
    - {x: 0.65736914, y: 0.6696908}
    - {x: 0.5298826, y: 0.70466244}
    - {x: 0.65736914, y: 0.70466244}
    - {x: 0.54183483, y: 0.088083126}
    - {x: 0.6693214, y: 0.088083126}
    - {x: 0.54183483, y: 0.16968694}
    - {x: 0.6693214, y: 0.16968694}
    - {x: 0.54183483, y: 0}
    - {x: 0.6693214, y: 0}
    - {x: 0.54183483, y: 0.08289915}
    - {x: 0.6693214, y: 0.08289915}
    - {x: 0.9163383, y: 0.777204}
    - {x: 0.9163383, y: 0.86010325}
    - {x: 0.96812737, y: 0.777204}
    - {x: 0.96812737, y: 0.86010325}
    - {x: 0, y: 0.9533703}
    - {x: 0, y: 0.98316056}
    - {x: 0.12748657, y: 0.9533703}
    - {x: 0.12748657, y: 0.98316056}
    - {x: 0.9840677, y: 0.7020743}
    - {x: 1, y: 0.7020743}
    - {x: 0.9840677, y: 0.7098438}
    - {x: 1, y: 0.7098438}
    indices: 000000000300000001000000020000000300000000000000040000000700000005000000060000000700000004000000080000000b000000090000000a0000000b000000080000000c0000000f0000000d0000000e0000000f0000000c000000100000001300000011000000120000001300000010000000140000001700000015000000160000001700000014000000180000001b000000190000001a0000001b000000180000001c0000001f0000001d0000001e0000001f0000001c000000200000002300000021000000220000002300000020000000240000002700000025000000260000002700000024000000280000002b000000290000002a0000002b00000028000000
    material: {fileID: 2100000, guid: 02d4957e3b17b48bb8f88c35b36547bf, type: 2}
    materialId: 0
    sourceTextureGUID: 1dcdcdbbe8be14acdbc717b95ed41d0d
    extractRegion: 0
    regionX: 0
    regionY: 0
    regionW: 0
    regionH: 0
    flipped: 0
    complexGeometry: 0
    physicsEngine: 0
    colliderType: 1
    customColliders: []
    colliderVertices: []
    colliderIndicesFwd: 
    colliderIndicesBack: 
    colliderConvex: 0
    colliderSmoothSphereCollisions: 0
    polygonCollider2D: []
    edgeCollider2D: []
    attachPoints: []
  - name: Yellow
    boundsData:
    - {x: 0, y: -0.004999995, z: 0}
    - {x: 2.1000001, y: 1.5099999, z: 0}
    untrimmedBoundsData:
    - {x: 0, y: 0, z: 0}
    - {x: 2.2, y: 1.5999999, z: 0}
    texelSize: {x: 0.01, y: 0.01}
    positions:
    - {x: -0.83000004, y: -0.31999996, z: 0}
    - {x: -0.46000004, y: -0.31999996, z: 0}
    - {x: -0.83000004, y: -0.15999998, z: 0}
    - {x: -0.46000004, y: -0.15999998, z: 0}
    - {x: -1.0500001, y: -0.15999998, z: 0}
    - {x: -0.46000004, y: -0.15999998, z: 0}
    - {x: -1.0500001, y: 0.48, z: 0}
    - {x: -0.46000004, y: 0.48, z: 0}
    - {x: -0.90000004, y: 0.48, z: 0}
    - {x: -0.46000004, y: 0.48, z: 0}
    - {x: -0.90000004, y: 0.68999994, z: 0}
    - {x: -0.46000004, y: 0.68999994, z: 0}
    - {x: -0.46000004, y: -0.75999993, z: 0}
    - {x: 0.17999996, y: -0.75999993, z: 0}
    - {x: -0.46000004, y: -0.15999998, z: 0}
    - {x: 0.17999996, y: -0.15999998, z: 0}
    - {x: -0.46000004, y: -0.15999998, z: 0}
    - {x: 0.17999996, y: -0.15999998, z: 0}
    - {x: -0.46000004, y: 0.48, z: 0}
    - {x: 0.17999996, y: 0.48, z: 0}
    - {x: -0.46000004, y: 0.48, z: 0}
    - {x: 0.17999996, y: 0.48, z: 0}
    - {x: -0.46000004, y: 0.74999994, z: 0}
    - {x: 0.17999996, y: 0.74999994, z: 0}
    - {x: 0.17999996, y: -0.75999993, z: 0}
    - {x: 0.82, y: -0.75999993, z: 0}
    - {x: 0.17999996, y: -0.15999998, z: 0}
    - {x: 0.82, y: -0.15999998, z: 0}
    - {x: 0.17999996, y: -0.15999998, z: 0}
    - {x: 0.82, y: -0.15999998, z: 0}
    - {x: 0.17999996, y: 0.48, z: 0}
    - {x: 0.82, y: 0.48, z: 0}
    - {x: 0.17999996, y: 0.48, z: 0}
    - {x: 0.82, y: 0.48, z: 0}
    - {x: 0.17999996, y: 0.7399999, z: 0}
    - {x: 0.82, y: 0.7399999, z: 0}
    - {x: 0.82, y: -0.15999998, z: 0}
    - {x: 1.0500001, y: -0.15999998, z: 0}
    - {x: 0.82, y: 0.48, z: 0}
    - {x: 1.0500001, y: 0.48, z: 0}
    - {x: 0.82, y: 0.48, z: 0}
    - {x: 0.9000001, y: 0.48, z: 0}
    - {x: 0.82, y: 0.5399999, z: 0}
    - {x: 0.9000001, y: 0.5399999, z: 0}
    normals: []
    tangents: []
    uvs:
    - {x: 0.2304707, y: 0.8476572}
    - {x: 0.2304707, y: 0.8837881}
    - {x: 0.26171678, y: 0.8476572}
    - {x: 0.26171678, y: 0.8837881}
    - {x: 0.78125197, y: 0.6582041}
    - {x: 0.78125197, y: 0.71581936}
    - {x: 0.90624803, y: 0.6582041}
    - {x: 0.90624803, y: 0.71581936}
    - {x: 0.26953322, y: 0.8583994}
    - {x: 0.35546678, y: 0.8583994}
    - {x: 0.26953322, y: 0.8789053}
    - {x: 0.35546678, y: 0.8789053}
    - {x: 0.003908203, y: 0.39648536}
    - {x: 0.1289043, y: 0.39648536}
    - {x: 0.003908203, y: 0.45507714}
    - {x: 0.1289043, y: 0.45507714}
    - {x: 0.6679707, y: 0.20117286}
    - {x: 0.7929668, y: 0.20117286}
    - {x: 0.6679707, y: 0.2636709}
    - {x: 0.7929668, y: 0.2636709}
    - {x: 0.65625197, y: 0.71093845}
    - {x: 0.65625197, y: 0.77343655}
    - {x: 0.7089824, y: 0.71093845}
    - {x: 0.7089824, y: 0.77343655}
    - {x: 0.1367207, y: 0.39648536}
    - {x: 0.26171678, y: 0.39648536}
    - {x: 0.1367207, y: 0.45507714}
    - {x: 0.26171678, y: 0.45507714}
    - {x: 0.8007832, y: 0.20117286}
    - {x: 0.9257793, y: 0.20117286}
    - {x: 0.8007832, y: 0.2636709}
    - {x: 0.9257793, y: 0.2636709}
    - {x: 0.7695332, y: 0.8085947}
    - {x: 0.8945293, y: 0.8085947}
    - {x: 0.7695332, y: 0.8339834}
    - {x: 0.8945293, y: 0.8339834}
    - {x: 0.003908203, y: 0.97363377}
    - {x: 0.003908203, y: 0.9960928}
    - {x: 0.1289043, y: 0.97363377}
    - {x: 0.1289043, y: 0.9960928}
    - {x: 0.96875197, y: 0.7402353}
    - {x: 0.98437303, y: 0.7402353}
    - {x: 0.96875197, y: 0.7460928}
    - {x: 0.98437303, y: 0.7460928}
    normalizedUvs:
    - {x: 0.23107663, y: 0.81326973}
    - {x: 0.23107663, y: 0.858722}
    - {x: 0.26294526, y: 0.81326973}
    - {x: 0.26294526, y: 0.858722}
    - {x: 0.7928319, y: 0.5749399}
    - {x: 0.7928319, y: 0.6474193}
    - {x: 0.9203184, y: 0.5749399}
    - {x: 0.9203184, y: 0.6474193}
    - {x: 0.27091745, y: 0.8267833}
    - {x: 0.35856318, y: 0.8267833}
    - {x: 0.27091745, y: 0.8525795}
    - {x: 0.35856318, y: 0.8525795}
    - {x: 0, y: 0.24570084}
    - {x: 0.12748657, y: 0.24570084}
    - {x: 0, y: 0.31940863}
    - {x: 0.12748657, y: 0.31940863}
    - {x: 0.67729354, y: 0}
    - {x: 0.8047801, y: 0}
    - {x: 0.67729354, y: 0.07862179}
    - {x: 0.8047801, y: 0.07862179}
    - {x: 0.6653413, y: 0.64127916}
    - {x: 0.6653413, y: 0.719901}
    - {x: 0.7191224, y: 0.64127916}
    - {x: 0.7191224, y: 0.719901}
    - {x: 0.13545871, y: 0.24570084}
    - {x: 0.26294526, y: 0.24570084}
    - {x: 0.13545871, y: 0.31940863}
    - {x: 0.26294526, y: 0.31940863}
    - {x: 0.8127523, y: 0}
    - {x: 0.94023883, y: 0}
    - {x: 0.8127523, y: 0.07862179}
    - {x: 0.94023883, y: 0.07862179}
    - {x: 0.7808796, y: 0.7641296}
    - {x: 0.9083662, y: 0.7641296}
    - {x: 0.7808796, y: 0.79606825}
    - {x: 0.9083662, y: 0.79606825}
    - {x: 0, y: 0.97174674}
    - {x: 0, y: 0.99999994}
    - {x: 0.12748657, y: 0.97174674}
    - {x: 0.12748657, y: 0.99999994}
    - {x: 0.9840677, y: 0.67813426}
    - {x: 1, y: 0.67813426}
    - {x: 0.9840677, y: 0.6855029}
    - {x: 1, y: 0.6855029}
    indices: 000000000300000001000000020000000300000000000000040000000700000005000000060000000700000004000000080000000b000000090000000a0000000b000000080000000c0000000f0000000d0000000e0000000f0000000c000000100000001300000011000000120000001300000010000000140000001700000015000000160000001700000014000000180000001b000000190000001a0000001b000000180000001c0000001f0000001d0000001e0000001f0000001c000000200000002300000021000000220000002300000020000000240000002700000025000000260000002700000024000000280000002b000000290000002a0000002b00000028000000
    material: {fileID: 2100000, guid: 02d4957e3b17b48bb8f88c35b36547bf, type: 2}
    materialId: 0
    sourceTextureGUID: b47c54eb953314ba5b1ff500ebf5204b
    extractRegion: 0
    regionX: 0
    regionY: 0
    regionW: 0
    regionH: 0
    flipped: 0
    complexGeometry: 0
    physicsEngine: 0
    colliderType: 1
    customColliders: []
    colliderVertices: []
    colliderIndicesFwd: 
    colliderIndicesBack: 
    colliderConvex: 0
    colliderSmoothSphereCollisions: 0
    polygonCollider2D: []
    edgeCollider2D: []
    attachPoints: []
  - name: White
    boundsData:
    - {x: -0.004999995, y: -0.004999995, z: 0}
    - {x: 2.0900002, y: 1.5099999, z: 0}
    untrimmedBoundsData:
    - {x: 0, y: 0, z: 0}
    - {x: 2.2, y: 1.5999999, z: 0}
    texelSize: {x: 0.01, y: 0.01}
    positions:
    - {x: -0.83000004, y: -0.31999996, z: 0}
    - {x: -0.46000004, y: -0.31999996, z: 0}
    - {x: -0.83000004, y: -0.15999998, z: 0}
    - {x: -0.46000004, y: -0.15999998, z: 0}
    - {x: -1.0500001, y: -0.15999998, z: 0}
    - {x: -0.46000004, y: -0.15999998, z: 0}
    - {x: -1.0500001, y: 0.48, z: 0}
    - {x: -0.46000004, y: 0.48, z: 0}
    - {x: -0.90000004, y: 0.48, z: 0}
    - {x: -0.46000004, y: 0.48, z: 0}
    - {x: -0.90000004, y: 0.68999994, z: 0}
    - {x: -0.46000004, y: 0.68999994, z: 0}
    - {x: -0.46000004, y: -0.75999993, z: 0}
    - {x: 0.17999996, y: -0.75999993, z: 0}
    - {x: -0.46000004, y: -0.15999998, z: 0}
    - {x: 0.17999996, y: -0.15999998, z: 0}
    - {x: -0.46000004, y: -0.15999998, z: 0}
    - {x: 0.17999996, y: -0.15999998, z: 0}
    - {x: -0.46000004, y: 0.48, z: 0}
    - {x: 0.17999996, y: 0.48, z: 0}
    - {x: -0.46000004, y: 0.48, z: 0}
    - {x: 0.17999996, y: 0.48, z: 0}
    - {x: -0.46000004, y: 0.74999994, z: 0}
    - {x: 0.17999996, y: 0.74999994, z: 0}
    - {x: 0.17999996, y: -0.75999993, z: 0}
    - {x: 0.81, y: -0.75999993, z: 0}
    - {x: 0.17999996, y: -0.15999998, z: 0}
    - {x: 0.81, y: -0.15999998, z: 0}
    - {x: 0.17999996, y: -0.15999998, z: 0}
    - {x: 0.82, y: -0.15999998, z: 0}
    - {x: 0.17999996, y: 0.48, z: 0}
    - {x: 0.82, y: 0.48, z: 0}
    - {x: 0.17999996, y: 0.48, z: 0}
    - {x: 0.82, y: 0.48, z: 0}
    - {x: 0.17999996, y: 0.7399999, z: 0}
    - {x: 0.82, y: 0.7399999, z: 0}
    - {x: 0.82, y: -0.15999998, z: 0}
    - {x: 1.0400001, y: -0.15999998, z: 0}
    - {x: 0.82, y: 0.48, z: 0}
    - {x: 1.0400001, y: 0.48, z: 0}
    - {x: 0.82, y: 0.48, z: 0}
    - {x: 0.89, y: 0.48, z: 0}
    - {x: 0.82, y: 0.53, z: 0}
    - {x: 0.89, y: 0.53, z: 0}
    normals: []
    tangents: []
    uvs:
    - {x: 0.1914082, y: 0.8808603}
    - {x: 0.1914082, y: 0.91699123}
    - {x: 0.2226543, y: 0.8808603}
    - {x: 0.2226543, y: 0.91699123}
    - {x: 0.003908203, y: 0.6445322}
    - {x: 0.003908203, y: 0.7021475}
    - {x: 0.1289043, y: 0.6445322}
    - {x: 0.1289043, y: 0.7021475}
    - {x: 0.26953322, y: 0.88281345}
    - {x: 0.35546678, y: 0.88281345}
    - {x: 0.26953322, y: 0.90331936}
    - {x: 0.35546678, y: 0.90331936}
    - {x: 0.26953322, y: 0.39648536}
    - {x: 0.39452928, y: 0.39648536}
    - {x: 0.26953322, y: 0.45507714}
    - {x: 0.39452928, y: 0.45507714}
    - {x: 0.003908203, y: 0.2675791}
    - {x: 0.1289043, y: 0.2675791}
    - {x: 0.003908203, y: 0.33007714}
    - {x: 0.1289043, y: 0.33007714}
    - {x: 0.71679884, y: 0.71093845}
    - {x: 0.71679884, y: 0.77343655}
    - {x: 0.7695293, y: 0.71093845}
    - {x: 0.7695293, y: 0.77343655}
    - {x: 0.5273457, y: 0.52050877}
    - {x: 0.65038866, y: 0.52050877}
    - {x: 0.5273457, y: 0.5791006}
    - {x: 0.65038866, y: 0.5791006}
    - {x: 0.1367207, y: 0.2675791}
    - {x: 0.26171678, y: 0.2675791}
    - {x: 0.1367207, y: 0.33007714}
    - {x: 0.26171678, y: 0.33007714}
    - {x: 0.7695332, y: 0.8378916}
    - {x: 0.8945293, y: 0.8378916}
    - {x: 0.7695332, y: 0.8632803}
    - {x: 0.8945293, y: 0.8632803}
    - {x: 0.26953322, y: 0.78418064}
    - {x: 0.26953322, y: 0.8056631}
    - {x: 0.39452928, y: 0.78418064}
    - {x: 0.39452928, y: 0.8056631}
    - {x: 0.9863301, y: 0.45214942}
    - {x: 0.9863301, y: 0.4589834}
    - {x: 0.9960918, y: 0.45214942}
    - {x: 0.9960918, y: 0.4589834}
    normalizedUvs:
    - {x: 0.18897712, y: 0.94436365}
    - {x: 0.18897712, y: 0.99999994}
    - {x: 0.22046939, y: 0.94436365}
    - {x: 0.22046939, y: 0.99999994}
    - {x: 0, y: 0.5804528}
    - {x: 0, y: 0.6691719}
    - {x: 0.12598081, y: 0.5804528}
    - {x: 0.12598081, y: 0.6691719}
    - {x: 0.2677176, y: 0.9473712}
    - {x: 0.35432816, y: 0.9473712}
    - {x: 0.2677176, y: 0.9789473}
    - {x: 0.35432816, y: 0.9789473}
    - {x: 0.2677176, y: 0.19849682}
    - {x: 0.3936984, y: 0.19849682}
    - {x: 0.2677176, y: 0.28871962}
    - {x: 0.3936984, y: 0.28871962}
    - {x: 0, y: 0}
    - {x: 0.12598081, y: 0}
    - {x: 0, y: 0.09623785}
    - {x: 0.12598081, y: 0.09623785}
    - {x: 0.7185068, y: 0.68270874}
    - {x: 0.7185068, y: 0.7789467}
    - {x: 0.77165264, y: 0.68270874}
    - {x: 0.77165264, y: 0.7789467}
    - {x: 0.5275612, y: 0.38947478}
    - {x: 0.6515734, y: 0.38947478}
    - {x: 0.5275612, y: 0.47969767}
    - {x: 0.6515734, y: 0.47969767}
    - {x: 0.1338588, y: 0}
    - {x: 0.2598396, y: 0}
    - {x: 0.1338588, y: 0.09623785}
    - {x: 0.2598396, y: 0.09623785}
    - {x: 0.77165663, y: 0.878198}
    - {x: 0.8976374, y: 0.878198}
    - {x: 0.77165663, y: 0.91729295}
    - {x: 0.8976374, y: 0.91729295}
    - {x: 0.2677176, y: 0.79549104}
    - {x: 0.2677176, y: 0.8285709}
    - {x: 0.3936984, y: 0.79549104}
    - {x: 0.3936984, y: 0.8285709}
    - {x: 0.9901614, y: 0.28421137}
    - {x: 0.9901614, y: 0.2947347}
    - {x: 1, y: 0.28421137}
    - {x: 1, y: 0.2947347}
    indices: 000000000300000001000000020000000300000000000000040000000700000005000000060000000700000004000000080000000b000000090000000a0000000b000000080000000c0000000f0000000d0000000e0000000f0000000c000000100000001300000011000000120000001300000010000000140000001700000015000000160000001700000014000000180000001b000000190000001a0000001b000000180000001c0000001f0000001d0000001e0000001f0000001c000000200000002300000021000000220000002300000020000000240000002700000025000000260000002700000024000000280000002b000000290000002a0000002b00000028000000
    material: {fileID: 2100000, guid: 02d4957e3b17b48bb8f88c35b36547bf, type: 2}
    materialId: 0
    sourceTextureGUID: b51f46af52d324b68877b759ba7d32b5
    extractRegion: 0
    regionX: 0
    regionY: 0
    regionW: 0
    regionH: 0
    flipped: 0
    complexGeometry: 0
    physicsEngine: 0
    colliderType: 1
    customColliders: []
    colliderVertices: []
    colliderIndicesFwd: 
    colliderIndicesBack: 
    colliderConvex: 0
    colliderSmoothSphereCollisions: 0
    polygonCollider2D: []
    edgeCollider2D: []
    attachPoints: []
  - name: Corian
    boundsData:
    - {x: -0.004999995, y: -0.004999995, z: 0}
    - {x: 2.0900002, y: 1.5099999, z: 0}
    untrimmedBoundsData:
    - {x: 0, y: 0, z: 0}
    - {x: 2.2, y: 1.5999999, z: 0}
    texelSize: {x: 0.01, y: 0.01}
    positions:
    - {x: -0.83000004, y: -0.31999996, z: 0}
    - {x: -0.46000004, y: -0.31999996, z: 0}
    - {x: -0.83000004, y: -0.15999998, z: 0}
    - {x: -0.46000004, y: -0.15999998, z: 0}
    - {x: -1.0500001, y: -0.15999998, z: 0}
    - {x: -0.46000004, y: -0.15999998, z: 0}
    - {x: -1.0500001, y: 0.48, z: 0}
    - {x: -0.46000004, y: 0.48, z: 0}
    - {x: -0.90000004, y: 0.48, z: 0}
    - {x: -0.46000004, y: 0.48, z: 0}
    - {x: -0.90000004, y: 0.68999994, z: 0}
    - {x: -0.46000004, y: 0.68999994, z: 0}
    - {x: -0.46000004, y: -0.75999993, z: 0}
    - {x: 0.17999996, y: -0.75999993, z: 0}
    - {x: -0.46000004, y: -0.15999998, z: 0}
    - {x: 0.17999996, y: -0.15999998, z: 0}
    - {x: -0.46000004, y: -0.15999998, z: 0}
    - {x: 0.17999996, y: -0.15999998, z: 0}
    - {x: -0.46000004, y: 0.48, z: 0}
    - {x: 0.17999996, y: 0.48, z: 0}
    - {x: -0.46000004, y: 0.48, z: 0}
    - {x: 0.17999996, y: 0.48, z: 0}
    - {x: -0.46000004, y: 0.74999994, z: 0}
    - {x: 0.17999996, y: 0.74999994, z: 0}
    - {x: 0.17999996, y: -0.75999993, z: 0}
    - {x: 0.81, y: -0.75999993, z: 0}
    - {x: 0.17999996, y: -0.15999998, z: 0}
    - {x: 0.81, y: -0.15999998, z: 0}
    - {x: 0.17999996, y: -0.15999998, z: 0}
    - {x: 0.82, y: -0.15999998, z: 0}
    - {x: 0.17999996, y: 0.48, z: 0}
    - {x: 0.82, y: 0.48, z: 0}
    - {x: 0.17999996, y: 0.48, z: 0}
    - {x: 0.82, y: 0.48, z: 0}
    - {x: 0.17999996, y: 0.7399999, z: 0}
    - {x: 0.82, y: 0.7399999, z: 0}
    - {x: 0.82, y: -0.15999998, z: 0}
    - {x: 1.0400001, y: -0.15999998, z: 0}
    - {x: 0.82, y: 0.48, z: 0}
    - {x: 1.0400001, y: 0.48, z: 0}
    - {x: 0.82, y: 0.48, z: 0}
    - {x: 0.89, y: 0.48, z: 0}
    - {x: 0.82, y: 0.53, z: 0}
    - {x: 0.89, y: 0.53, z: 0}
    normals: []
    tangents: []
    uvs:
    - {x: 0.2304707, y: 0.88769627}
    - {x: 0.2304707, y: 0.9238272}
    - {x: 0.26171678, y: 0.88769627}
    - {x: 0.26171678, y: 0.9238272}
    - {x: 0.1367207, y: 0.6445322}
    - {x: 0.1367207, y: 0.7021475}
    - {x: 0.26171678, y: 0.6445322}
    - {x: 0.26171678, y: 0.7021475}
    - {x: 0.5019551, y: 0.7949228}
    - {x: 0.58788866, y: 0.7949228}
    - {x: 0.5019551, y: 0.81542873}
    - {x: 0.58788866, y: 0.81542873}
    - {x: 0.40234572, y: 0.39648536}
    - {x: 0.5273418, y: 0.39648536}
    - {x: 0.40234572, y: 0.45507714}
    - {x: 0.5273418, y: 0.45507714}
    - {x: 0.26953322, y: 0.2675791}
    - {x: 0.39452928, y: 0.2675791}
    - {x: 0.26953322, y: 0.33007714}
    - {x: 0.39452928, y: 0.33007714}
    - {x: 0.7773457, y: 0.7197275}
    - {x: 0.9023418, y: 0.7197275}
    - {x: 0.7773457, y: 0.7460928}
    - {x: 0.9023418, y: 0.7460928}
    - {x: 0.6582051, y: 0.5820322}
    - {x: 0.78124803, y: 0.5820322}
    - {x: 0.6582051, y: 0.64062405}
    - {x: 0.78124803, y: 0.64062405}
    - {x: 0.40234572, y: 0.2675791}
    - {x: 0.5273418, y: 0.2675791}
    - {x: 0.40234572, y: 0.33007714}
    - {x: 0.5273418, y: 0.33007714}
    - {x: 0.9023457, y: 0.8535166}
    - {x: 0.9023457, y: 0.9160147}
    - {x: 0.95312303, y: 0.8535166}
    - {x: 0.95312303, y: 0.9160147}
    - {x: 0.40234572, y: 0.7871103}
    - {x: 0.44531053, y: 0.7871103}
    - {x: 0.40234572, y: 0.8496084}
    - {x: 0.44531053, y: 0.8496084}
    - {x: 0.9863301, y: 0.4628916}
    - {x: 0.9863301, y: 0.46972558}
    - {x: 0.9960918, y: 0.4628916}
    - {x: 0.9960918, y: 0.46972558}
    normalizedUvs:
    - {x: 0.10909141, y: 0.9449432}
    - {x: 0.10909141, y: 0.99999994}
    - {x: 0.14545065, y: 0.9449432}
    - {x: 0.14545065, y: 0.99999994}
    - {x: 0, y: 0.5744064}
    - {x: 0, y: 0.66220134}
    - {x: 0.14545065, y: 0.5744064}
    - {x: 0.14545065, y: 0.66220134}
    - {x: 0.42500195, y: 0.8035737}
    - {x: 0.52499783, y: 0.8035737}
    - {x: 0.42500195, y: 0.8348209}
    - {x: 0.52499783, y: 0.8348209}
    - {x: 0.30909234, y: 0.19642915}
    - {x: 0.45454296, y: 0.19642915}
    - {x: 0.30909234, y: 0.28571212}
    - {x: 0.45454296, y: 0.28571212}
    - {x: 0.15454619, y: 0}
    - {x: 0.29999682, y: 0}
    - {x: 0.15454619, y: 0.09523538}
    - {x: 0.29999682, y: 0.09523538}
    - {x: 0.74545795, y: 0.68899006}
    - {x: 0.8909086, y: 0.68899006}
    - {x: 0.74545795, y: 0.72916585}
    - {x: 0.8909086, y: 0.72916585}
    - {x: 0.606821, y: 0.47916803}
    - {x: 0.74999887, y: 0.47916803}
    - {x: 0.606821, y: 0.5684511}
    - {x: 0.74999887, y: 0.5684511}
    - {x: 0.30909234, y: 0}
    - {x: 0.45454296, y: 0}
    - {x: 0.30909234, y: 0.09523538}
    - {x: 0.45454296, y: 0.09523538}
    - {x: 0.8909132, y: 0.8928597}
    - {x: 0.8909132, y: 0.98809516}
    - {x: 0.9499998, y: 0.8928597}
    - {x: 0.9499998, y: 0.98809516}
    - {x: 0.30909234, y: 0.79166895}
    - {x: 0.359088, y: 0.79166895}
    - {x: 0.30909234, y: 0.88690436}
    - {x: 0.359088, y: 0.88690436}
    - {x: 0.9886409, y: 0.2976199}
    - {x: 0.9886409, y: 0.30803362}
    - {x: 1, y: 0.2976199}
    - {x: 1, y: 0.30803362}
    indices: 000000000300000001000000020000000300000000000000040000000700000005000000060000000700000004000000080000000b000000090000000a0000000b000000080000000c0000000f0000000d0000000e0000000f0000000c000000100000001300000011000000120000001300000010000000140000001700000015000000160000001700000014000000180000001b000000190000001a0000001b000000180000001c0000001f0000001d0000001e0000001f0000001c000000200000002300000021000000220000002300000020000000240000002700000025000000260000002700000024000000280000002b000000290000002a0000002b00000028000000
    material: {fileID: 2100000, guid: 02d4957e3b17b48bb8f88c35b36547bf, type: 2}
    materialId: 0
    sourceTextureGUID: ea176afff312347699b37dab5bba8c9d
    extractRegion: 0
    regionX: 0
    regionY: 0
    regionW: 0
    regionH: 0
    flipped: 0
    complexGeometry: 0
    physicsEngine: 0
    colliderType: 1
    customColliders: []
    colliderVertices: []
    colliderIndicesFwd: 
    colliderIndicesBack: 
    colliderConvex: 0
    colliderSmoothSphereCollisions: 0
    polygonCollider2D: []
    edgeCollider2D: []
    attachPoints: []
  premultipliedAlpha: 0
  material: {fileID: 0}
  materials:
  - {fileID: 2100000, guid: 02d4957e3b17b48bb8f88c35b36547bf, type: 2}
  textures:
  - {fileID: 2800000, guid: 1bbcfea47a9054da99f3cd8433d78c1a, type: 3}
  pngTextures: []
  materialPngTextureId: 00000000
  textureFilterMode: 1
  textureMipMaps: 0
  allowMultipleAtlases: 0
  spriteCollectionGUID: efe78e90471c549529a7c86cdb45dfdd
  spriteCollectionName: Countertops
  assetName: Countertops
  loadable: 1
  invOrthoSize: 0.13020834
  halfTargetHeight: 768
  buildKey: 1947414767
  dataGuid: 53d510ec66845480cbe6abf2bd1b7123
  managedSpriteCollection: 0
  hasPlatformData: 0
  spriteCollectionPlatforms: []
  spriteCollectionPlatformGUIDs: []
--- !u!1001 &100100000
Prefab:
  m_ObjectHideFlags: 1
  serializedVersion: 2
  m_Modification:
    m_TransformParent: {fileID: 0}
    m_Modifications: []
    m_RemovedComponents: []
  m_ParentPrefab: {fileID: 0}
  m_RootGameObject: {fileID: 100000}
  m_IsPrefabParent: 1
