# Blender v2.68 (sub 0) OBJ File: 'Counters.blend'
# www.blender.org
o Triangle_Center
v -1.500000 -0.181100 5.937500
v -1.500000 -0.181100 1.812500
v -5.072355 -0.181100 3.875000
v -1.500000 -1.181100 5.937500
v -1.500000 -1.181100 1.812500
v -5.072355 -1.181100 3.875000
v 1.500000 -0.181100 1.812500
v 1.500000 -0.181100 5.937500
v 5.072355 -0.181100 3.875000
v 1.500000 -1.181100 1.812500
v 1.500000 -1.181100 5.937500
v 5.072355 -1.181100 3.875000
v -1.500000 -0.181100 2.812500
v -1.500000 -1.181100 2.812500
v -1.500000 -0.181100 4.937500
v -1.500000 -1.181100 4.937500
v 1.500000 -0.181100 4.937500
v 1.500000 -1.181100 4.937500
v 1.500000 -0.181100 2.812500
v 1.500000 -1.181100 2.812500
vt 0.462500 0.179688
vt 0.462500 0.204867
vt 0.373191 0.153125
vt 0.462500 0.101562
vt 0.462500 0.126562
vt 0.359375 0.204868
vt 0.462500 0.229868
vt 0.359375 0.229868
vt 0.359376 0.101563
vt 0.359375 0.076563
vt 0.462500 0.076563
vt 0.462500 0.204688
vt 0.537500 0.179688
vt 0.537500 0.204688
vt 0.462500 0.101563
vt 0.537500 0.101563
vt 0.537500 0.126562
vt 0.640625 0.101562
vt 0.537500 0.101562
vt 0.537500 0.076563
vt 0.640624 0.076562
vt 0.537500 0.204867
vt 0.640626 0.204868
vt 0.640626 0.229868
vt 0.537500 0.229868
vt 0.487680 0.204868
vt 0.487680 0.179688
vt 0.512500 0.101563
vt 0.512500 0.126563
vt 0.487500 0.101562
vt 0.487500 0.126562
vt 0.512320 0.204868
vt 0.512320 0.179688
vt 0.626809 0.153125
s off
f 13/1 2/2 3/3
f 1/4 15/5 3/3
f 3/6 2/2 5/7 6/8
f 1/4 3/9 6/10 4/11
f 14/12 13/1 19/13 20/14
f 15/5 16/15 18/16 17/17
f 9/18 8/19 11/20 12/21
f 7/22 9/23 12/24 10/25
f 5/26 2/2 13/1 14/27
f 11/28 8/19 17/17 18/29
f 1/4 4/30 16/31 15/5
f 7/22 10/32 20/33 19/13
f 13/1 3/3 15/5
f 13/1 15/5 17/17 19/13
f 17/17 8/19 9/34
f 7/22 19/13 9/34
f 9/34 19/13 17/17
