# Blender v2.68 (sub 0) OBJ File: 'Counters.blend'
# www.blender.org
o Triangle_Right_Down
v 36.500000 -0.181100 2.000000
v 28.250000 -0.181100 2.000000
v 32.375000 -0.181100 9.144711
v 36.500000 -1.181100 2.000000
v 28.250000 -1.181100 2.000000
v 32.375000 -1.181100 9.144711
vt 0.206250 0.200000
vt 0.309375 0.021382
vt 0.412500 0.200000
vt 0.206250 0.225000
vt 0.206250 -0.006250
vt 0.181250 -0.006250
vt 0.412500 -0.006250
vt 0.437500 0.200000
vt 0.412500 0.225000
vt 0.181250 0.200000
vt 0.437500 -0.006250
vn 0.000000 1.000000 0.000000
vn -0.000000 0.000000 -1.000000
vn -0.866026 0.000000 0.500000
vn 0.866026 0.000000 0.500000
s off
f 2/1/1 3/2/1 1/3/1
f 2/1/2 1/3/2 5/4/2
f 3/5/3 2/1/3 6/6/3
f 1/3/4 3/7/4 4/8/4
f 1/3/2 4/9/2 5/4/2
f 2/1/3 5/10/3 6/6/3
f 3/7/4 6/11/4 4/8/4
