# Blender v2.68 (sub 0) OBJ File: ''
# www.blender.org
o Plane
v -1.280000 -1.280000 0.000000
v 1.280000 -1.280000 0.000000
v -1.280000 1.280000 -0.000000
v 1.280000 1.280000 -0.000000
vt 0.000000 0.000000
vt 1.000000 0.000000
vt 0.000000 1.000000
vt 1.000000 1.000000
vn 0.000000 -0.000000 -1.000000
s off
f 2/1/1 1/2/1 4/3/1
f 1/2/1 3/4/1 4/3/1
