# Blender v2.68 (sub 0) OBJ File: ''
# www.blender.org
o Plane
v -10.240000 -7.680000 0.000001
v 11.240000 -7.680000 0.000001
v -10.240000 7.680000 -0.000001
v 11.240000 7.680000 -0.000001
vn 0.000000 -0.000000 -1.000000
s off
f 2//1 1//1 3//1 4//1
