info face="HelveticaNeueLT Com 45 Lt" size=21 bold=0 italic=0 charset="" unicode=1 stretchH=100 smooth=1 aa=1 padding=0,0,0,0 spacing=1,1 outline=0
common lineHeight=21 base=17 scaleW=256 scaleH=256 pages=1 packed=0 alphaChnl=1 redChnl=4 greenChnl=4 blueChnl=4
page id=0 file="45 Light 18pt 21px_0.tga"
chars count=95
char id=32   x=189   y=38    width=3     height=1     xoffset=-1    yoffset=20    xadvance=5     page=0  chnl=15
char id=33   x=95    y=28    width=3     height=13    xoffset=1     yoffset=4     xadvance=4     page=0  chnl=15
char id=34   x=142   y=41    width=5     height=5     xoffset=1     yoffset=4     xadvance=7     page=0  chnl=15
char id=35   x=113   y=28    width=10    height=12    xoffset=0     yoffset=5     xadvance=10    page=0  chnl=15
char id=36   x=3     y=0     width=10    height=17    xoffset=0     yoffset=2     xadvance=10    page=0  chnl=15
char id=37   x=55    y=0     width=16    height=14    xoffset=0     yoffset=4     xadvance=16    page=0  chnl=15
char id=38   x=0     y=19    width=12    height=13    xoffset=0     yoffset=4     xadvance=11    page=0  chnl=15
char id=39   x=148   y=41    width=3     height=5     xoffset=1     yoffset=4     xadvance=5     page=0  chnl=15
char id=40   x=32    y=0     width=5     height=16    xoffset=0     yoffset=4     xadvance=4     page=0  chnl=15
char id=41   x=20    y=0     width=5     height=16    xoffset=-1    yoffset=4     xadvance=4     page=0  chnl=15
char id=42   x=135   y=41    width=6     height=5     xoffset=0     yoffset=4     xadvance=6     page=0  chnl=15
char id=43   x=223   y=28    width=11    height=9     xoffset=0     yoffset=8     xadvance=11    page=0  chnl=15
char id=44   x=152   y=41    width=3     height=4     xoffset=1     yoffset=15    xadvance=5     page=0  chnl=15
char id=45   x=55    y=15    width=6     height=1     xoffset=0     yoffset=12    xadvance=7     page=0  chnl=15
char id=46   x=173   y=41    width=3     height=2     xoffset=1     yoffset=15    xadvance=5     page=0  chnl=15
char id=47   x=64    y=29    width=8     height=13    xoffset=-1    yoffset=4     xadvance=6     page=0  chnl=15
char id=48   x=180   y=14    width=10    height=13    xoffset=0     yoffset=4     xadvance=10    page=0  chnl=15
char id=49   x=73    y=29    width=6     height=13    xoffset=1     yoffset=4     xadvance=10    page=0  chnl=15
char id=50   x=191   y=14    width=10    height=13    xoffset=0     yoffset=4     xadvance=10    page=0  chnl=15
char id=51   x=202   y=14    width=10    height=13    xoffset=0     yoffset=4     xadvance=10    page=0  chnl=15
char id=52   x=224   y=14    width=10    height=13    xoffset=0     yoffset=4     xadvance=10    page=0  chnl=15
char id=53   x=124   y=28    width=10    height=12    xoffset=0     yoffset=5     xadvance=10    page=0  chnl=15
char id=54   x=147   y=14    width=10    height=13    xoffset=0     yoffset=4     xadvance=10    page=0  chnl=15
char id=55   x=0     y=33    width=10    height=13    xoffset=0     yoffset=4     xadvance=10    page=0  chnl=15
char id=56   x=33    y=31    width=10    height=13    xoffset=0     yoffset=4     xadvance=10    page=0  chnl=15
char id=57   x=44    y=31    width=10    height=13    xoffset=0     yoffset=4     xadvance=10    page=0  chnl=15
char id=58   x=107   y=41    width=3     height=9     xoffset=1     yoffset=8     xadvance=5     page=0  chnl=15
char id=59   x=175   y=28    width=3     height=11    xoffset=1     yoffset=8     xadvance=5     page=0  chnl=15
char id=60   x=235   y=28    width=11    height=9     xoffset=0     yoffset=8     xadvance=11    page=0  chnl=15
char id=61   x=123   y=41    width=11    height=5     xoffset=0     yoffset=10    xadvance=11    page=0  chnl=15
char id=62   x=211   y=28    width=11    height=9     xoffset=0     yoffset=8     xadvance=11    page=0  chnl=15
char id=63   x=136   y=14    width=10    height=13    xoffset=0     yoffset=4     xadvance=10    page=0  chnl=15
char id=64   x=121   y=0     width=14    height=13    xoffset=0     yoffset=4     xadvance=14    page=0  chnl=15
char id=65   x=178   y=0     width=13    height=13    xoffset=-1    yoffset=4     xadvance=11    page=0  chnl=15
char id=66   x=52    y=17    width=11    height=13    xoffset=1     yoffset=4     xadvance=12    page=0  chnl=15
char id=67   x=206   y=0     width=13    height=13    xoffset=0     yoffset=4     xadvance=13    page=0  chnl=15
char id=68   x=112   y=14    width=11    height=13    xoffset=1     yoffset=4     xadvance=12    page=0  chnl=15
char id=69   x=158   y=14    width=10    height=13    xoffset=1     yoffset=4     xadvance=11    page=0  chnl=15
char id=70   x=246   y=14    width=9     height=13    xoffset=1     yoffset=4     xadvance=10    page=0  chnl=15
char id=71   x=192   y=0     width=13    height=13    xoffset=0     yoffset=4     xadvance=13    page=0  chnl=15
char id=72   x=76    y=15    width=11    height=13    xoffset=1     yoffset=4     xadvance=13    page=0  chnl=15
char id=73   x=99    y=28    width=2     height=13    xoffset=1     yoffset=4     xadvance=4     page=0  chnl=15
char id=74   x=246   y=0     width=9     height=13    xoffset=0     yoffset=4     xadvance=9     page=0  chnl=15
char id=75   x=233   y=0     width=12    height=13    xoffset=1     yoffset=4     xadvance=12    page=0  chnl=15
char id=76   x=169   y=14    width=10    height=13    xoffset=1     yoffset=4     xadvance=10    page=0  chnl=15
char id=77   x=105   y=0     width=15    height=13    xoffset=0     yoffset=4     xadvance=15    page=0  chnl=15
char id=78   x=100   y=14    width=11    height=13    xoffset=1     yoffset=4     xadvance=13    page=0  chnl=15
char id=79   x=164   y=0     width=13    height=13    xoffset=0     yoffset=4     xadvance=13    page=0  chnl=15
char id=80   x=124   y=14    width=11    height=13    xoffset=0     yoffset=4     xadvance=11    page=0  chnl=15
char id=81   x=72    y=0     width=13    height=14    xoffset=0     yoffset=4     xadvance=13    page=0  chnl=15
char id=82   x=88    y=14    width=11    height=13    xoffset=1     yoffset=4     xadvance=12    page=0  chnl=15
char id=83   x=64    y=15    width=11    height=13    xoffset=0     yoffset=4     xadvance=11    page=0  chnl=15
char id=84   x=39    y=17    width=12    height=13    xoffset=-1    yoffset=4     xadvance=10    page=0  chnl=15
char id=85   x=26    y=17    width=12    height=13    xoffset=0     yoffset=4     xadvance=12    page=0  chnl=15
char id=86   x=150   y=0     width=13    height=13    xoffset=-1    yoffset=4     xadvance=11    page=0  chnl=15
char id=87   x=86    y=0     width=18    height=13    xoffset=-1    yoffset=4     xadvance=16    page=0  chnl=15
char id=88   x=220   y=0     width=12    height=13    xoffset=-1    yoffset=4     xadvance=10    page=0  chnl=15
char id=89   x=136   y=0     width=13    height=13    xoffset=-1    yoffset=4     xadvance=11    page=0  chnl=15
char id=90   x=13    y=18    width=12    height=13    xoffset=-1    yoffset=4     xadvance=10    page=0  chnl=15
char id=91   x=38    y=0     width=5     height=16    xoffset=0     yoffset=4     xadvance=4     page=0  chnl=15
char id=92   x=55    y=31    width=8     height=13    xoffset=-1    yoffset=4     xadvance=6     page=0  chnl=15
char id=93   x=44    y=0     width=5     height=16    xoffset=-1    yoffset=4     xadvance=4     page=0  chnl=15
char id=94   x=111   y=41    width=11    height=7     xoffset=0     yoffset=5     xadvance=11    page=0  chnl=15
char id=95   x=177   y=40    width=11    height=1     xoffset=-1    yoffset=18    xadvance=9     page=0  chnl=15
char id=96   x=167   y=41    width=5     height=2     xoffset=-2    yoffset=4     xadvance=3     page=0  chnl=15
char id=97   x=34    y=45    width=10    height=9     xoffset=0     yoffset=8     xadvance=9     page=0  chnl=15
char id=98   x=213   y=14    width=10    height=13    xoffset=0     yoffset=4     xadvance=10    page=0  chnl=15
char id=99   x=77    y=43    width=9     height=9     xoffset=0     yoffset=8     xadvance=9     page=0  chnl=15
char id=100  x=22    y=32    width=10    height=13    xoffset=0     yoffset=4     xadvance=10    page=0  chnl=15
char id=101  x=97    y=42    width=9     height=9     xoffset=0     yoffset=8     xadvance=9     page=0  chnl=15
char id=102  x=80    y=29    width=6     height=13    xoffset=0     yoffset=4     xadvance=5     page=0  chnl=15
char id=103  x=102   y=28    width=10    height=12    xoffset=0     yoffset=8     xadvance=10    page=0  chnl=15
char id=104  x=235   y=14    width=10    height=13    xoffset=0     yoffset=4     xadvance=10    page=0  chnl=15
char id=105  x=87    y=29    width=3     height=13    xoffset=0     yoffset=4     xadvance=3     page=0  chnl=15
char id=106  x=50    y=0     width=4     height=16    xoffset=-1    yoffset=4     xadvance=3     page=0  chnl=15
char id=107  x=11    y=33    width=10    height=13    xoffset=0     yoffset=4     xadvance=9     page=0  chnl=15
char id=108  x=91    y=28    width=3     height=13    xoffset=0     yoffset=4     xadvance=3     page=0  chnl=15
char id=109  x=195   y=28    width=15    height=9     xoffset=0     yoffset=8     xadvance=15    page=0  chnl=15
char id=110  x=12    y=47    width=10    height=9     xoffset=0     yoffset=8     xadvance=10    page=0  chnl=15
char id=111  x=23    y=46    width=10    height=9     xoffset=0     yoffset=8     xadvance=10    page=0  chnl=15
char id=112  x=135   y=28    width=10    height=12    xoffset=0     yoffset=8     xadvance=10    page=0  chnl=15
char id=113  x=146   y=28    width=10    height=12    xoffset=0     yoffset=8     xadvance=10    page=0  chnl=15
char id=114  x=247   y=28    width=6     height=9     xoffset=0     yoffset=8     xadvance=6     page=0  chnl=15
char id=115  x=67    y=43    width=9     height=9     xoffset=0     yoffset=8     xadvance=9     page=0  chnl=15
char id=116  x=168   y=28    width=6     height=12    xoffset=-1    yoffset=5     xadvance=5     page=0  chnl=15
char id=117  x=45    y=45    width=10    height=9     xoffset=0     yoffset=8     xadvance=10    page=0  chnl=15
char id=118  x=56    y=45    width=10    height=9     xoffset=-1    yoffset=8     xadvance=8     page=0  chnl=15
char id=119  x=179   y=28    width=15    height=9     xoffset=-1    yoffset=8     xadvance=13    page=0  chnl=15
char id=120  x=0     y=47    width=11    height=9     xoffset=-1    yoffset=8     xadvance=9     page=0  chnl=15
char id=121  x=157   y=28    width=10    height=12    xoffset=-1    yoffset=8     xadvance=8     page=0  chnl=15
char id=122  x=87    y=43    width=9     height=9     xoffset=0     yoffset=8     xadvance=8     page=0  chnl=15
char id=123  x=26    y=0     width=5     height=16    xoffset=1     yoffset=4     xadvance=6     page=0  chnl=15
char id=124  x=0     y=0     width=2     height=18    xoffset=1     yoffset=3     xadvance=4     page=0  chnl=15
char id=125  x=14    y=0     width=5     height=16    xoffset=0     yoffset=4     xadvance=6     page=0  chnl=15
char id=126  x=156   y=41    width=10    height=2     xoffset=0     yoffset=12    xadvance=11    page=0  chnl=15
kernings count=65
kerning first=121 second=46  amount=-2  
kerning first=121 second=44  amount=-2  
kerning first=119 second=46  amount=-1  
kerning first=119 second=44  amount=-1  
kerning first=118 second=46  amount=-1  
kerning first=118 second=44  amount=-1  
kerning first=114 second=46  amount=-2  
kerning first=114 second=45  amount=-1  
kerning first=114 second=44  amount=-2  
kerning first=89  second=118 amount=-1  
kerning first=89  second=117 amount=-1  
kerning first=65  second=84  amount=-1  
kerning first=65  second=86  amount=-1  
kerning first=89  second=113 amount=-2  
kerning first=65  second=89  amount=-1  
kerning first=89  second=112 amount=-1  
kerning first=89  second=111 amount=-2  
kerning first=89  second=101 amount=-2  
kerning first=89  second=97  amount=-2  
kerning first=89  second=65  amount=-1  
kerning first=89  second=59  amount=-2  
kerning first=89  second=58  amount=-2  
kerning first=89  second=46  amount=-2  
kerning first=89  second=45  amount=-2  
kerning first=89  second=44  amount=-2  
kerning first=87  second=97  amount=-1  
kerning first=87  second=46  amount=-1  
kerning first=87  second=44  amount=-1  
kerning first=86  second=117 amount=-1  
kerning first=70  second=44  amount=-2  
kerning first=70  second=46  amount=-2  
kerning first=70  second=65  amount=-1  
kerning first=86  second=114 amount=-1  
kerning first=86  second=111 amount=-1  
kerning first=86  second=101 amount=-1  
kerning first=86  second=97  amount=-1  
kerning first=86  second=65  amount=-1  
kerning first=86  second=59  amount=-1  
kerning first=86  second=58  amount=-1  
kerning first=86  second=46  amount=-2  
kerning first=86  second=45  amount=-1  
kerning first=86  second=44  amount=-2  
kerning first=76  second=84  amount=-2  
kerning first=76  second=86  amount=-2  
kerning first=76  second=87  amount=-1  
kerning first=76  second=89  amount=-2  
kerning first=76  second=121 amount=-1  
kerning first=84  second=121 amount=-2  
kerning first=84  second=119 amount=-2  
kerning first=84  second=117 amount=-2  
kerning first=84  second=115 amount=-2  
kerning first=84  second=114 amount=-2  
kerning first=84  second=111 amount=-2  
kerning first=84  second=101 amount=-2  
kerning first=84  second=99  amount=-2  
kerning first=84  second=97  amount=-2  
kerning first=84  second=65  amount=-1  
kerning first=80  second=44  amount=-3  
kerning first=80  second=46  amount=-3  
kerning first=80  second=65  amount=-1  
kerning first=84  second=59  amount=-2  
kerning first=84  second=58  amount=-2  
kerning first=84  second=46  amount=-2  
kerning first=84  second=45  amount=-2  
kerning first=84  second=44  amount=-2  
