info face="HelveticaNeueLT Com 45 Lt" size=34 bold=0 italic=0 charset="ANSI" unicode=0 stretchH=100 smooth=1 aa=1 padding=0,0,0,0 spacing=1,1 outline=0
common lineHeight=34 base=28 scaleW=256 scaleH=256 pages=1 packed=0 alphaChnl=1 redChnl=4 greenChnl=4 blueChnl=4
page id=0 file="45 Light 28pt 37px_0.tga"
chars count=97
char id=32   x=5     y=28    width=3     height=1     xoffset=-1    yoffset=33    xadvance=8     page=0  chnl=15
char id=33   x=244   y=63    width=4     height=20    xoffset=2     yoffset=8     xadvance=7     page=0  chnl=15
char id=34   x=86    y=106   width=7     height=6     xoffset=2     yoffset=8     xadvance=11    page=0  chnl=15
char id=35   x=168   y=43    width=16    height=20    xoffset=0     yoffset=8     xadvance=16    page=0  chnl=15
char id=36   x=12    y=0     width=16    height=26    xoffset=0     yoffset=5     xadvance=16    page=0  chnl=15
char id=37   x=77    y=0     width=24    height=21    xoffset=1     yoffset=8     xadvance=26    page=0  chnl=15
char id=38   x=188   y=22    width=19    height=20    xoffset=0     yoffset=8     xadvance=18    page=0  chnl=15
char id=39   x=94    y=106   width=4     height=6     xoffset=2     yoffset=8     xadvance=8     page=0  chnl=15
char id=40   x=29    y=0     width=7     height=26    xoffset=1     yoffset=8     xadvance=7     page=0  chnl=15
char id=41   x=53    y=0     width=7     height=26    xoffset=-1    yoffset=8     xadvance=7     page=0  chnl=15
char id=42   x=70    y=106   width=10    height=7     xoffset=0     yoffset=8     xadvance=10    page=0  chnl=15
char id=43   x=62    y=90    width=17    height=15    xoffset=0     yoffset=13    xadvance=17    page=0  chnl=15
char id=44   x=81    y=106   width=4     height=7     xoffset=2     yoffset=25    xadvance=8     page=0  chnl=15
char id=45   x=22    y=48    width=9     height=2     xoffset=1     yoffset=19    xadvance=11    page=0  chnl=15
char id=46   x=86    y=43    width=4     height=3     xoffset=2     yoffset=25    xadvance=8     page=0  chnl=15
char id=47   x=208   y=64    width=12    height=20    xoffset=-1    yoffset=8     xadvance=10    page=0  chnl=15
char id=48   x=51    y=69    width=16    height=20    xoffset=0     yoffset=8     xadvance=16    page=0  chnl=15
char id=49   x=246   y=0     width=9     height=20    xoffset=2     yoffset=8     xadvance=16    page=0  chnl=15
char id=50   x=132   y=64    width=15    height=20    xoffset=0     yoffset=8     xadvance=16    page=0  chnl=15
char id=51   x=34    y=72    width=16    height=20    xoffset=0     yoffset=8     xadvance=16    page=0  chnl=15
char id=52   x=17    y=72    width=16    height=20    xoffset=0     yoffset=8     xadvance=16    page=0  chnl=15
char id=53   x=100   y=64    width=15    height=20    xoffset=0     yoffset=8     xadvance=16    page=0  chnl=15
char id=54   x=236   y=42    width=16    height=20    xoffset=0     yoffset=8     xadvance=16    page=0  chnl=15
char id=55   x=163   y=64    width=14    height=20    xoffset=1     yoffset=8     xadvance=16    page=0  chnl=15
char id=56   x=0     y=72    width=16    height=20    xoffset=0     yoffset=8     xadvance=16    page=0  chnl=15
char id=57   x=151   y=43    width=16    height=20    xoffset=0     yoffset=8     xadvance=16    page=0  chnl=15
char id=58   x=30    y=109   width=4     height=14    xoffset=2     yoffset=14    xadvance=8     page=0  chnl=15
char id=59   x=10    y=93    width=4     height=18    xoffset=2     yoffset=14    xadvance=8     page=0  chnl=15
char id=60   x=97    y=90    width=16    height=15    xoffset=1     yoffset=13    xadvance=17    page=0  chnl=15
char id=61   x=53    y=109   width=16    height=8     xoffset=1     yoffset=17    xadvance=17    page=0  chnl=15
char id=62   x=148   y=85    width=16    height=15    xoffset=1     yoffset=13    xadvance=17    page=0  chnl=15
char id=63   x=148   y=64    width=14    height=20    xoffset=1     yoffset=8     xadvance=16    page=0  chnl=15
char id=64   x=0     y=30    width=21    height=20    xoffset=1     yoffset=8     xadvance=23    page=0  chnl=15
char id=65   x=107   y=22    width=20    height=20    xoffset=-1    yoffset=8     xadvance=18    page=0  chnl=15
char id=66   x=95    y=43    width=18    height=20    xoffset=1     yoffset=8     xadvance=19    page=0  chnl=15
char id=67   x=65    y=27    width=20    height=20    xoffset=0     yoffset=8     xadvance=20    page=0  chnl=15
char id=68   x=208   y=21    width=19    height=20    xoffset=1     yoffset=8     xadvance=20    page=0  chnl=15
char id=69   x=185   y=43    width=16    height=20    xoffset=1     yoffset=8     xadvance=17    page=0  chnl=15
char id=70   x=68    y=69    width=15    height=20    xoffset=1     yoffset=8     xadvance=16    page=0  chnl=15
char id=71   x=44    y=27    width=20    height=20    xoffset=0     yoffset=8     xadvance=21    page=0  chnl=15
char id=72   x=76    y=48    width=18    height=20    xoffset=1     yoffset=8     xadvance=20    page=0  chnl=15
char id=73   x=248   y=21    width=4     height=20    xoffset=1     yoffset=8     xadvance=6     page=0  chnl=15
char id=74   x=178   y=64    width=14    height=20    xoffset=0     yoffset=8     xadvance=15    page=0  chnl=15
char id=75   x=228   y=21    width=19    height=20    xoffset=1     yoffset=8     xadvance=19    page=0  chnl=15
char id=76   x=84    y=69    width=15    height=20    xoffset=1     yoffset=8     xadvance=16    page=0  chnl=15
char id=77   x=223   y=0     width=22    height=20    xoffset=1     yoffset=8     xadvance=24    page=0  chnl=15
char id=78   x=0     y=51    width=18    height=20    xoffset=1     yoffset=8     xadvance=20    page=0  chnl=15
char id=79   x=22    y=27    width=21    height=20    xoffset=0     yoffset=8     xadvance=21    page=0  chnl=15
char id=80   x=133   y=43    width=17    height=20    xoffset=1     yoffset=8     xadvance=18    page=0  chnl=15
char id=81   x=102   y=0     width=21    height=21    xoffset=0     yoffset=8     xadvance=21    page=0  chnl=15
char id=82   x=148   y=22    width=19    height=20    xoffset=1     yoffset=8     xadvance=20    page=0  chnl=15
char id=83   x=38    y=48    width=18    height=20    xoffset=0     yoffset=8     xadvance=18    page=0  chnl=15
char id=84   x=57    y=48    width=18    height=20    xoffset=-1    yoffset=8     xadvance=16    page=0  chnl=15
char id=85   x=114   y=43    width=18    height=20    xoffset=1     yoffset=8     xadvance=20    page=0  chnl=15
char id=86   x=168   y=22    width=19    height=20    xoffset=-1    yoffset=8     xadvance=17    page=0  chnl=15
char id=87   x=194   y=0     width=28    height=20    xoffset=-1    yoffset=8     xadvance=26    page=0  chnl=15
char id=88   x=128   y=22    width=19    height=20    xoffset=-1    yoffset=8     xadvance=17    page=0  chnl=15
char id=89   x=86    y=22    width=20    height=20    xoffset=-1    yoffset=8     xadvance=18    page=0  chnl=15
char id=90   x=19    y=51    width=18    height=20    xoffset=-1    yoffset=8     xadvance=17    page=0  chnl=15
char id=91   x=37    y=0     width=7     height=26    xoffset=1     yoffset=8     xadvance=7     page=0  chnl=15
char id=92   x=221   y=63    width=12    height=20    xoffset=-1    yoffset=8     xadvance=10    page=0  chnl=15
char id=93   x=69    y=0     width=7     height=26    xoffset=-1    yoffset=8     xadvance=7     page=0  chnl=15
char id=94   x=35    y=109   width=17    height=13    xoffset=0     yoffset=8     xadvance=17    page=0  chnl=15
char id=95   x=125   y=101   width=16    height=2     xoffset=-1    yoffset=30    xadvance=15    page=0  chnl=15
char id=96   x=77    y=22    width=7     height=4     xoffset=-2    yoffset=7     xadvance=5     page=0  chnl=15
char id=97   x=80    y=90    width=16    height=15    xoffset=0     yoffset=13    xadvance=15    page=0  chnl=15
char id=98   x=202   y=43    width=16    height=20    xoffset=1     yoffset=8     xadvance=17    page=0  chnl=15
char id=99   x=165   y=85    width=15    height=15    xoffset=0     yoffset=13    xadvance=15    page=0  chnl=15
char id=100  x=219   y=42    width=16    height=20    xoffset=0     yoffset=8     xadvance=17    page=0  chnl=15
char id=101  x=181   y=85    width=15    height=15    xoffset=0     yoffset=13    xadvance=15    page=0  chnl=15
char id=102  x=234   y=63    width=9     height=20    xoffset=0     yoffset=8     xadvance=8     page=0  chnl=15
char id=103  x=174   y=0     width=15    height=21    xoffset=0     yoffset=13    xadvance=16    page=0  chnl=15
char id=104  x=193   y=64    width=14    height=20    xoffset=1     yoffset=8     xadvance=16    page=0  chnl=15
char id=105  x=190   y=0     width=3     height=21    xoffset=1     yoffset=7     xadvance=5     page=0  chnl=15
char id=106  x=5     y=0     width=6     height=27    xoffset=-2    yoffset=7     xadvance=5     page=0  chnl=15
char id=107  x=116   y=64    width=15    height=20    xoffset=1     yoffset=8     xadvance=15    page=0  chnl=15
char id=108  x=249   y=63    width=3     height=20    xoffset=1     yoffset=8     xadvance=5     page=0  chnl=15
char id=109  x=39    y=93    width=22    height=15    xoffset=1     yoffset=13    xadvance=24    page=0  chnl=15
char id=110  x=213   y=85    width=14    height=15    xoffset=1     yoffset=13    xadvance=16    page=0  chnl=15
char id=111  x=114   y=85    width=16    height=15    xoffset=0     yoffset=13    xadvance=16    page=0  chnl=15
char id=112  x=141   y=0     width=16    height=21    xoffset=1     yoffset=13    xadvance=17    page=0  chnl=15
char id=113  x=124   y=0     width=16    height=21    xoffset=0     yoffset=13    xadvance=17    page=0  chnl=15
char id=114  x=243   y=84    width=9     height=15    xoffset=1     yoffset=13    xadvance=9     page=0  chnl=15
char id=115  x=228   y=84    width=14    height=15    xoffset=0     yoffset=13    xadvance=14    page=0  chnl=15
char id=116  x=0     y=93    width=9     height=19    xoffset=0     yoffset=9     xadvance=9     page=0  chnl=15
char id=117  x=0     y=113   width=14    height=15    xoffset=1     yoffset=13    xadvance=16    page=0  chnl=15
char id=118  x=197   y=85    width=15    height=15    xoffset=-1    yoffset=13    xadvance=13    page=0  chnl=15
char id=119  x=15    y=93    width=23    height=15    xoffset=-1    yoffset=13    xadvance=21    page=0  chnl=15
char id=120  x=131   y=85    width=16    height=15    xoffset=-1    yoffset=13    xadvance=14    page=0  chnl=15
char id=121  x=158   y=0     width=15    height=21    xoffset=-1    yoffset=13    xadvance=13    page=0  chnl=15
char id=122  x=15    y=109   width=14    height=15    xoffset=0     yoffset=13    xadvance=13    page=0  chnl=15
char id=123  x=61    y=0     width=7     height=26    xoffset=2     yoffset=8     xadvance=10    page=0  chnl=15
char id=124  x=0     y=0     width=4     height=29    xoffset=1     yoffset=5     xadvance=6     page=0  chnl=15
char id=125  x=45    y=0     width=7     height=26    xoffset=1     yoffset=8     xadvance=10    page=0  chnl=15
char id=126  x=99    y=106   width=15    height=5     xoffset=1     yoffset=18    xadvance=17    page=0  chnl=15
char id=136  x=115   y=101   width=9     height=4     xoffset=-2    yoffset=7     xadvance=5     page=0  chnl=15
char id=152  x=100   y=85    width=11    height=3     xoffset=-3    yoffset=7     xadvance=5     page=0  chnl=15
kernings count=86
kerning first=121 second=46  amount=-3  
kerning first=121 second=44  amount=-3  
kerning first=119 second=46  amount=-2  
kerning first=119 second=44  amount=-2  
kerning first=114 second=111 amount=-1  
kerning first=65  second=119 amount=-1  
kerning first=65  second=121 amount=-1  
kerning first=114 second=110 amount=1   
kerning first=65  second=118 amount=-1  
kerning first=65  second=84  amount=-2  
kerning first=65  second=86  amount=-1  
kerning first=65  second=89  amount=-2  
kerning first=82  second=121 amount=1   
kerning first=84  second=58  amount=-3  
kerning first=76  second=89  amount=-3  
kerning first=84  second=59  amount=-3  
kerning first=76  second=87  amount=-2  
kerning first=76  second=121 amount=-1  
kerning first=114 second=101 amount=-1  
kerning first=84  second=114 amount=-3  
kerning first=84  second=65  amount=-2  
kerning first=84  second=105 amount=1   
kerning first=84  second=101 amount=-3  
kerning first=84  second=111 amount=-3  
kerning first=84  second=115 amount=-3  
kerning first=84  second=45  amount=-4  
kerning first=70  second=44  amount=-4  
kerning first=70  second=46  amount=-4  
kerning first=70  second=65  amount=-2  
kerning first=114 second=100 amount=-1  
kerning first=114 second=99  amount=-1  
kerning first=84  second=117 amount=-3  
kerning first=84  second=119 amount=-3  
kerning first=84  second=121 amount=-3  
kerning first=89  second=117 amount=-2  
kerning first=87  second=117 amount=-1  
kerning first=114 second=113 amount=-1  
kerning first=87  second=111 amount=-1  
kerning first=87  second=114 amount=-1  
kerning first=76  second=84  amount=-3  
kerning first=76  second=86  amount=-3  
kerning first=84  second=97  amount=-3  
kerning first=89  second=101 amount=-3  
kerning first=89  second=97  amount=-3  
kerning first=89  second=65  amount=-2  
kerning first=89  second=111 amount=-3  
kerning first=84  second=99  amount=-3  
kerning first=89  second=112 amount=-2  
kerning first=89  second=46  amount=-3  
kerning first=118 second=44  amount=-2  
kerning first=87  second=97  amount=-1  
kerning first=87  second=105 amount=1   
kerning first=87  second=44  amount=-2  
kerning first=80  second=44  amount=-4  
kerning first=80  second=46  amount=-4  
kerning first=80  second=65  amount=-2  
kerning first=114 second=46  amount=-3  
kerning first=114 second=45  amount=-2  
kerning first=114 second=44  amount=-3  
kerning first=84  second=46  amount=-3  
kerning first=84  second=44  amount=-3  
kerning first=87  second=101 amount=-1  
kerning first=87  second=65  amount=-1  
kerning first=86  second=101 amount=-2  
kerning first=86  second=44  amount=-4  
kerning first=89  second=58  amount=-3  
kerning first=89  second=45  amount=-3  
kerning first=86  second=114 amount=-1  
kerning first=87  second=59  amount=-1  
kerning first=86  second=97  amount=-2  
kerning first=87  second=46  amount=-2  
kerning first=86  second=45  amount=-2  
kerning first=86  second=111 amount=-2  
kerning first=86  second=46  amount=-4  
kerning first=86  second=121 amount=-1  
kerning first=86  second=117 amount=-1  
kerning first=87  second=58  amount=-1  
kerning first=89  second=113 amount=-3  
kerning first=86  second=65  amount=-2  
kerning first=89  second=59  amount=-3  
kerning first=89  second=118 amount=-2  
kerning first=102 second=102 amount=-1  
kerning first=86  second=58  amount=-2  
kerning first=89  second=44  amount=-4  
kerning first=86  second=59  amount=-2  
kerning first=118 second=46  amount=-2  
