# Blender v2.68 (sub 0) OBJ File: '911.blend'
# www.blender.org
o 911.C.V
v 1.482471 0.000000 -17.671202
v 1.724030 0.000000 -17.543819
v 1.903015 0.000000 -17.346552
v -13.993011 0.000000 -16.275898
v -13.976978 0.000000 -16.588470
v -13.940108 0.000000 -16.887932
v -13.867032 0.000000 -17.167988
v -13.739539 0.000000 -17.416142
v -13.539982 0.000000 -17.602745
v -13.278906 0.000000 -17.709663
v -12.984429 0.000000 -17.757839
v -14.000000 0.000000 -15.955244
v 19.000000 0.000000 -24.750000
v 19.000000 -0.044953 0.225993
v -19.000000 0.000000 -24.750000
v -19.000000 -1.181100 0.000000
v 19.000000 -1.181100 0.000000
v 19.000000 -1.181100 -24.750000
v -20.000000 -1.181100 -24.750000
v -14.000000 0.000000 0.000000
v -14.000000 -1.181100 0.000000
v -13.993011 -1.181100 -16.275898
v 15.000000 0.000000 0.000000
v 15.000000 -1.181100 0.000000
v -13.739539 -1.181100 -17.416142
v 2.329326 0.000000 -16.215050
v 2.329326 -1.181100 -16.215050
v -13.867032 -1.181100 -17.167988
v -13.976978 -1.181100 -16.588470
v -13.940108 -1.181100 -16.887932
v -13.539982 -1.181100 -17.602745
v -13.278906 -1.181100 -17.709663
v -12.984429 -1.181100 -17.757839
v -14.000000 -1.181100 -15.955244
v -12.966710 -1.181100 -17.758865
v 0.978065 0.000000 -17.758869
v 1.203066 0.000000 -17.736393
v -12.966710 0.000000 -17.758865
v 2.000000 0.000000 -17.113640
v 2.570884 0.000000 -16.087667
v 1.482471 -1.181100 -17.671202
v 1.724030 -1.181100 -17.543819
v 1.903015 -1.181100 -17.346552
v 0.978065 -1.181100 -17.758869
v 1.203066 -1.181100 -17.736393
v 2.000000 -1.181100 -17.113640
v 2.150340 0.000000 -16.412317
v 3.075291 0.000000 -16.000002
v 2.850290 0.000000 -16.022476
v 2.053355 0.000000 -16.645229
v 2.570884 -1.181100 -16.087667
v 2.150340 -1.181100 -16.412317
v 3.075291 -1.181100 -16.000002
v 2.850290 -1.181100 -16.022476
v 2.053355 -1.181100 -16.645229
v 15.000000 -1.181100 -14.769722
v 14.328792 -1.181100 -15.954536
v 14.104833 -1.181100 -16.000000
v 14.958694 -1.181100 -15.103822
v 14.870380 -1.181100 -15.445114
v 14.676167 0.000000 -15.783241
v 14.870380 0.000000 -15.445114
v 14.958694 0.000000 -15.103822
v 14.104833 0.000000 -16.000000
v 14.328792 0.000000 -15.954536
v 15.000000 0.000000 -14.769722
v 14.676167 -1.181100 -15.783241
v -20.000000 0.000000 -24.750000
v -20.000000 -1.181100 0.000000
v -19.000000 -0.816543 0.545597
v -19.000000 -1.181100 -24.750000
v 20.000000 0.000000 -24.750000
v 20.000000 -1.181100 -24.750000
v 20.000000 0.000000 0.000000
v 20.000000 -1.181100 0.000000
v -19.000000 -0.262457 0.491024
v -20.000000 0.000000 0.000000
v -19.000000 -1.008132 0.417582
v 20.000000 -0.011347 0.115210
v 20.000000 -0.044953 0.225993
v 20.000000 -0.099525 0.328091
v 20.000000 -0.172968 0.417581
v 20.000000 -0.262457 0.491024
v 20.000000 -0.364556 0.545597
v 20.000000 -0.475339 0.579203
v 20.000000 -0.590549 0.590550
v 20.000000 -0.705760 0.579203
v 20.000000 -0.816543 0.545597
v 20.000000 -0.918642 0.491025
v 20.000000 -1.008132 0.417582
v 20.000000 -1.081574 0.328092
v 20.000000 -1.136147 0.225994
v 20.000000 -1.169753 0.115211
v -19.000000 -0.011347 0.115210
v -20.000000 -1.169753 0.115211
v -20.000000 -1.136147 0.225994
v -20.000000 -1.081574 0.328092
v -20.000000 -1.008132 0.417582
v -20.000000 -0.918642 0.491025
v -20.000000 -0.816543 0.545597
v -20.000000 -0.705760 0.579203
v -20.000000 -0.590549 0.590550
v -20.000000 -0.475339 0.579203
v -20.000000 -0.364556 0.545597
v -20.000000 -0.262457 0.491024
v -20.000000 -0.172968 0.417581
v -20.000000 -0.099525 0.328091
v -20.000000 -0.044953 0.225993
v -20.000000 -0.011347 0.115210
v -19.000000 -0.044953 0.225993
v -19.000000 -0.364556 0.545597
v -14.000000 -1.169753 0.115211
v -14.000000 -1.136147 0.225994
v -14.000000 -1.081574 0.328092
v -14.000000 -1.008132 0.417582
v -14.000000 -0.918642 0.491025
v -14.000000 -0.816543 0.545597
v -14.000000 -0.705760 0.579203
v -14.000000 -0.590549 0.590550
v -14.000000 -0.475339 0.579203
v -14.000000 -0.364556 0.545597
v -14.000000 -0.262457 0.491024
v -14.000000 -0.172968 0.417581
v -14.000000 -0.099525 0.328091
v -14.000000 -0.044953 0.225993
v -14.000000 -0.011347 0.115210
v 15.000000 -0.011347 0.115210
v 15.000000 -0.044953 0.225993
v 15.000000 -0.099525 0.328091
v 15.000000 -0.172968 0.417582
v 15.000000 -0.262457 0.491025
v 15.000000 -0.364556 0.545598
v 15.000000 -0.475339 0.579203
v 15.000000 -0.590549 0.590551
v 15.000000 -0.705760 0.579203
v 15.000000 -0.816543 0.545598
v 15.000000 -0.918642 0.491025
v 15.000000 -1.008132 0.417582
v 15.000000 -1.081574 0.328093
v 15.000000 -1.136147 0.225995
v 15.000000 -1.169753 0.115210
v -19.000000 -0.475339 0.579203
v -19.000000 -0.918642 0.491025
v -19.000000 -1.169753 0.115211
v -19.000000 -0.172968 0.417581
v -19.000000 -0.705760 0.579203
v -19.000000 -1.136147 0.225994
v -19.000000 -0.099525 0.328091
v -19.000000 -0.590549 0.590550
v -19.000000 -1.081574 0.328092
v -19.000000 0.000000 0.000000
v 19.000000 -0.011347 0.115210
v 19.000000 -1.169753 0.115210
v 19.000000 -1.136147 0.225994
v 19.000000 -1.081574 0.328093
v 19.000000 -1.008132 0.417582
v 19.000000 -0.918642 0.491025
v 19.000000 -0.816543 0.545597
v 19.000000 -0.705760 0.579203
v 19.000000 -0.590549 0.590550
v 19.000000 -0.475339 0.579203
v 19.000000 -0.364556 0.545597
v 19.000000 -0.262457 0.491024
v 19.000000 -0.172968 0.417582
v 19.000000 -0.099525 0.328091
v 19.000000 0.000000 0.000000
vt 0.150226 0.657317
vt 0.025000 0.868750
vt 0.150000 0.648881
vt 0.150669 0.665541
vt 0.151467 0.673431
vt 0.152787 0.680829
vt 0.154806 0.687480
vt 0.160371 0.690449
vt 0.167227 0.692437
vt 0.174932 0.693607
vt 0.175832 0.693972
vt 0.524451 0.693972
vt 0.975000 0.868750
vt 0.530361 0.692698
vt 0.537393 0.690769
vt 0.543380 0.688017
vt 0.548172 0.681606
vt 0.551709 0.675128
vt 0.556414 0.664268
vt 0.559272 0.659455
vt 0.563154 0.655415
vt 0.567804 0.652564
vt 0.573067 0.650775
vt 0.576882 0.650000
vt 0.852621 0.650000
vt 0.859011 0.649112
vt 0.868444 0.646411
vt 0.871924 0.637447
vt 0.873872 0.628344
vt 0.875000 0.619243
vt 0.000000 0.868750
vt 0.000000 0.898278
vt 1.000000 0.868750
vt 0.975000 0.898278
vt 1.029528 0.868750
vt 1.029528 0.250000
vt 0.025000 0.898278
vt 1.001125 0.244350
vt 1.028404 0.244351
vt 1.000284 0.247120
vt 1.027040 0.241799
vt 1.002489 0.241798
vt 1.025204 0.239561
vt 1.004326 0.239561
vt 1.022967 0.237725
vt 1.006563 0.237725
vt 1.020415 0.236361
vt 1.009116 0.236361
vt 1.017646 0.235521
vt 1.011886 0.235521
vt 1.014766 0.235237
vt -0.028405 0.244350
vt -0.001125 0.244343
vt -0.029245 0.247120
vt -0.027042 0.241797
vt -0.002490 0.241790
vt -0.025206 0.239559
vt -0.004327 0.239554
vt -0.022969 0.237722
vt -0.006564 0.237718
vt -0.020417 0.236357
vt -0.009117 0.236354
vt -0.017648 0.235516
vt -0.011887 0.235515
vt -0.014768 0.235232
vt -0.029528 0.250000
vt 0.000000 0.249992
vt -0.029528 0.868750
vt -0.000284 0.247112
vt 1.029244 0.247120
vt 1.000000 0.250000
vt 0.150000 0.250000
vt 0.875000 0.250000
vt 1.000000 0.898278
vt 0.025000 0.250000
vt 0.975000 0.250000
vt 1.000000 0.226842
vt 0.974993 0.226844
vt 1.000000 0.223948
vt 0.857536 0.620317
vt 0.866321 0.619621
vt 0.844457 0.633929
vt 0.845270 0.626412
vt 0.845473 0.619243
vt 0.845473 0.250000
vt 0.576882 0.620472
vt 0.568055 0.622131
vt 0.558314 0.625392
vt 0.549660 0.629845
vt 0.542005 0.635275
vt 0.525801 0.651908
vt 0.535487 0.641276
vt 0.520666 0.657894
vt 0.540752 0.663451
vt 0.529059 0.664463
vt 0.524451 0.664444
vt 0.175832 0.664444
vt 0.169828 0.664417
vt 0.176230 0.664697
vt 0.163908 0.663816
vt 0.158249 0.663019
vt 0.181361 0.677404
vt 0.180610 0.670668
vt 0.180030 0.663615
vt 0.179662 0.656270
vt 0.179528 0.648717
vt 0.974992 0.223949
vt 1.000000 0.221053
vt 0.000007 0.215269
vt 0.025003 0.215272
vt 0.000007 0.218163
vt 0.000005 0.232631
vt 0.025002 0.232636
vt 0.000004 0.235524
vt 0.025003 0.218166
vt 0.000007 0.221057
vt 0.025003 0.226848
vt 0.150000 0.226847
vt 0.025002 0.229742
vt 0.025001 0.241318
vt 0.150000 0.241318
vt 0.025001 0.244212
vt 0.025002 0.235530
vt 0.000004 0.238418
vt 0.025004 0.209484
vt 0.150000 0.209483
vt 0.025004 0.212378
vt 0.025003 0.223954
vt 0.150000 0.223953
vt 0.025001 0.238424
vt 0.150000 0.238424
vt 0.025004 0.206590
vt 0.150000 0.206589
vt 0.025003 0.221060
vt 0.150000 0.221059
vt 0.150000 0.235530
vt 0.000006 0.223950
vt 0.150000 0.218165
vt 0.150000 0.232635
vt 0.150000 0.215271
vt 0.150000 0.229741
vt 0.150000 0.244212
vt 0.025000 0.247106
vt 0.000008 0.206588
vt 0.000008 0.209482
vt 0.000003 0.241311
vt 0.150000 0.212377
vt 0.000006 0.226844
vt 0.974999 0.247106
vt 0.875000 0.247106
vt 0.974998 0.244211
vt 0.000007 0.212376
vt 0.974990 0.209476
vt 0.874998 0.209484
vt 0.974990 0.206581
vt 0.974991 0.212371
vt 0.874999 0.212378
vt 0.974991 0.215265
vt 0.874999 0.215272
vt 0.974992 0.218160
vt 0.874999 0.218166
vt 0.974992 0.221054
vt 0.874999 0.221060
vt 0.874999 0.223954
vt 0.874999 0.226848
vt 0.974994 0.229739
vt 0.874999 0.229742
vt 0.974995 0.232633
vt 0.874999 0.232636
vt 0.974995 0.235528
vt 0.874999 0.235530
vt 0.974996 0.238423
vt 0.874999 0.238424
vt 0.974997 0.241317
vt 0.874999 0.241318
vt 0.874999 0.244212
vt 0.000002 0.244205
vt 0.000005 0.229737
vt 1.000000 0.218158
vt 0.999999 0.215263
vt 0.150000 0.247106
vt 0.999999 0.212368
vt 0.000001 0.247099
vt 0.999999 0.209473
vt 0.999999 0.206578
vt 1.000000 0.247105
vt 1.000000 0.244211
vt 0.025004 0.203697
vt 0.150000 0.203695
vt 0.000008 0.203694
vt 1.000000 0.229737
vt 1.000000 0.232632
vt 1.000000 0.235527
vt 1.000000 0.238421
vt 1.000000 0.241316
vt 0.874998 0.206590
vt 0.974990 0.203687
vt 0.999999 0.203682
vt 0.852621 0.620472
vt 0.843099 0.642297
vt 0.515301 0.664226
vt 0.535071 0.664058
vt 0.182212 0.683878
vt 0.179528 0.250000
vt 0.874998 0.203696
vt 0.179244 0.247120
vt 0.150284 0.247120
vt 0.178404 0.244350
vt 0.151124 0.244350
vt 0.177039 0.241798
vt 0.152488 0.241798
vt 0.175204 0.239561
vt 0.154325 0.239561
vt 0.172966 0.237725
vt 0.156562 0.237725
vt 0.170414 0.236361
vt 0.159114 0.236360
vt 0.167644 0.235520
vt 0.161884 0.235520
vt 0.164764 0.235237
vt 0.846597 0.244350
vt 0.873877 0.244351
vt 0.845756 0.247120
vt 0.847961 0.241798
vt 0.872512 0.241798
vt 0.849798 0.239560
vt 0.870677 0.239561
vt 0.852035 0.237724
vt 0.868440 0.237725
vt 0.854588 0.236360
vt 0.865888 0.236361
vt 0.857358 0.235520
vt 0.863118 0.235520
vt 0.860238 0.235237
vt 0.874716 0.247120
vn -0.000000 1.000000 0.000000
vn 0.000000 0.000000 -1.000000
vn 1.000000 0.000000 0.000000
vn -1.000000 0.000000 0.000000
vn 0.685690 0.000000 0.727866
vn 0.000000 0.000000 1.000000
vn 0.685690 -0.142003 0.713889
vn -0.218421 0.737205 0.639363
vn -0.068270 0.730308 0.679678
vn -0.323283 0.000000 0.946287
vn -0.684378 0.000000 0.729087
vn -0.624317 0.738456 0.254646
vn -0.429182 0.778924 0.457228
vn -0.925932 0.000000 0.377667
vn -0.679617 0.722037 0.129368
vn -0.982330 0.000000 0.186987
vn -0.691397 0.721183 0.042573
vn -0.998108 0.000000 0.061464
vn -0.888607 -0.456404 0.044954
vn -0.035707 0.696066 0.717063
vn -0.049745 0.000000 0.998749
vn -0.117985 0.692801 0.711386
vn -0.163640 0.000000 0.986511
vn -0.349681 0.000000 0.936857
vn -0.612812 0.000000 0.790216
vn -0.454878 0.670064 0.586566
vn -0.626148 0.670705 0.397565
vn -0.712455 0.676870 0.184942
vn -0.844203 0.000000 0.535997
vn -0.967895 0.000000 0.251259
vn -0.650960 0.740043 0.168981
vn -0.560747 0.747520 0.356029
vn -0.406476 0.748283 0.524186
vn -0.236335 0.736991 0.633198
vn -0.113224 0.721976 0.682577
vn 0.020264 0.713645 0.700156
vn 0.028932 0.000000 0.999573
vn -0.034608 0.718467 0.694662
vn 0.271950 0.000000 0.962279
vn 0.109806 0.000000 0.993927
vn 0.184851 0.733451 0.654103
vn 0.357006 0.750084 0.556658
vn 0.539842 0.000000 0.841731
vn 0.529832 0.747765 0.400098
vn 0.798029 0.000000 0.602588
vn 0.635823 0.732566 0.242897
vn 0.934141 0.000000 0.356853
vn 0.982208 0.000000 0.187750
vn 0.679220 0.722343 0.129826
vn 0.996216 0.000000 0.086764
vn 0.696249 0.715201 0.060640
vn 0.999329 0.000000 0.036500
vn 0.703269 0.710410 0.025666
vn 0.704581 0.709555 0.007660
vn 0.696219 0.716941 0.035218
vn 0.999939 0.000000 0.010895
vn 0.000000 -0.195074 0.980773
vn 0.685690 -0.278542 0.672475
vn 0.076296 0.719016 0.690756
vn -0.685690 -0.514664 0.514664
vn 0.000000 -0.707083 0.707083
vn -0.685690 -0.404370 0.605213
vn -0.685690 0.278542 0.672475
vn 0.000000 0.382672 0.923856
vn -0.685690 0.404370 0.605213
vn 0.000000 -0.555559 0.831446
vn -0.685690 -0.278542 0.672475
vn 0.000000 0.000000 0.999969
vn 0.000000 0.195074 0.980773
vn 0.000000 0.831446 0.555559
vn 0.685690 0.605213 0.404370
vn 0.000000 0.923856 0.382672
vn 0.000000 0.555559 0.831446
vn -0.685690 0.514664 0.514664
vn 0.000000 -0.923856 0.382672
vn 0.685690 -0.672475 0.278542
vn 0.000000 -0.831446 0.555559
vn 0.000000 0.707083 0.707083
vn 0.685690 0.514695 0.514664
vn 0.000000 -0.980773 0.195074
vn 0.685690 -0.713889 0.142003
vn 0.000000 -0.382672 0.923856
vn 0.685690 0.404370 0.605213
vn -0.685690 -0.142003 0.713889
vn 0.685690 -0.404370 0.605213
vn 0.685690 0.278542 0.672475
vn 0.685690 -0.514664 0.514664
vn 0.685690 0.142003 0.713889
vn 0.685690 0.672475 0.278542
vn 0.000000 0.980773 0.195074
vn -0.685690 -0.713889 0.142003
vn -0.685690 -0.672475 0.278542
vn -0.685690 0.605213 0.404370
vn 0.685690 -0.605213 0.404370
vn -0.685690 0.000000 0.727866
vn -0.685690 0.713889 0.142003
vn -0.685690 -0.605213 0.404370
vn -0.685690 -0.514664 0.514695
vn -0.685690 0.142003 0.713889
vn -0.685690 0.514695 0.514664
vn -0.685690 0.672475 0.278542
vn 0.685690 0.713889 0.142003
vn 0.000000 0.998779 0.049043
vn -0.696219 0.716941 0.035218
vn 0.000000 -0.995178 0.097995
vn 0.888607 -0.456404 0.044954
vn -0.099948 0.000000 0.994964
vn -0.256569 0.679464 0.687368
s off
f 4/1/1 15/2/1 12/3/1
f 15/2/1 4/1/1 5/4/1
f 15/2/1 5/4/1 6/5/1
f 15/2/1 6/5/1 7/6/1
f 15/2/1 7/6/1 8/7/1
f 15/2/1 8/7/1 9/8/1
f 15/2/1 9/8/1 10/9/1
f 15/2/1 10/9/1 11/10/1
f 15/2/1 11/10/1 38/11/1
f 36/12/1 13/13/1 15/2/1
f 37/14/1 13/13/1 36/12/1
f 13/13/1 37/14/1 1/15/1
f 13/13/1 1/15/1 2/16/1
f 13/13/1 2/16/1 3/17/1
f 13/13/1 3/17/1 39/18/1
f 13/13/1 39/18/1 50/19/1
f 47/20/1 13/13/1 50/19/1
f 26/21/1 13/13/1 47/20/1
f 40/22/1 13/13/1 26/21/1
f 49/23/1 13/13/1 40/22/1
f 13/13/1 49/23/1 48/24/1
f 13/13/1 48/24/1 64/25/1
f 65/26/1 13/13/1 64/25/1
f 13/13/1 65/26/1 61/27/1
f 13/13/1 61/27/1 62/28/1
f 13/13/1 62/28/1 63/29/1
f 13/13/1 63/29/1 66/30/1
f 68/31/2 15/2/2 19/32/2
f 13/13/2 72/33/2 18/34/2
f 73/35/3 72/33/3 75/36/3
f 18/34/2 71/37/2 13/13/2
f 80/38/3 92/39/3 79/40/3
f 92/39/3 80/38/3 91/41/3
f 91/41/3 81/42/3 90/43/3
f 90/43/3 82/44/3 89/45/3
f 89/45/3 83/46/3 88/47/3
f 88/47/3 84/48/3 87/49/3
f 87/49/3 85/50/3 86/51/3
f 96/52/4 108/53/4 95/54/4
f 97/55/4 107/56/4 96/52/4
f 98/57/4 106/58/4 97/55/4
f 99/59/4 105/60/4 98/57/4
f 100/61/4 104/62/4 99/59/4
f 101/63/4 103/64/4 104/62/4
f 102/65/4 103/64/4 101/63/4
f 69/66/4 77/67/4 19/68/4
f 77/67/4 69/66/4 109/69/4
f 79/40/3 93/70/3 74/71/3
f 12/3/1 15/2/1 20/72/1
f 68/31/1 77/67/1 15/2/1
f 72/33/1 13/13/1 74/71/1
f 13/13/1 66/30/1 23/73/1
f 38/11/1 36/12/1 15/2/1
f 15/2/2 71/37/2 19/32/2
f 72/33/2 73/74/2 18/34/2
f 72/33/3 74/71/3 75/36/3
f 71/37/2 15/2/2 13/13/2
f 92/39/3 93/70/3 79/40/3
f 80/38/3 81/42/3 91/41/3
f 81/42/3 82/44/3 90/43/3
f 82/44/3 83/46/3 89/45/3
f 83/46/3 84/48/3 88/47/3
f 84/48/3 85/50/3 87/49/3
f 108/53/4 109/69/4 95/54/4
f 107/56/4 108/53/4 96/52/4
f 106/58/4 107/56/4 97/55/4
f 105/60/4 106/58/4 98/57/4
f 104/62/4 105/60/4 99/59/4
f 100/61/4 101/63/4 104/62/4
f 77/67/4 68/31/4 19/68/4
f 69/66/4 95/54/4 109/69/4
f 93/70/3 75/36/3 74/71/3
f 15/2/1 151/75/1 20/72/1
f 77/67/1 151/75/1 15/2/1
f 13/13/1 166/76/1 74/71/1
f 166/76/1 13/13/1 23/73/1
s 1
f 86/77/5 160/78/6 87/79/7
f 65/26/8 64/25/9 57/80/10
f 57/80/10 67/81/11 65/26/8
f 62/28/12 61/27/13 60/82/14
f 63/29/15 62/28/12 59/83/16
f 66/30/17 63/29/15 56/84/18
f 56/84/18 24/85/19 66/30/17
f 48/24/20 53/86/21 64/25/9
f 49/23/22 54/87/23 48/24/20
f 54/87/23 49/23/22 51/88/24
f 27/89/25 51/88/24 26/21/26
f 26/21/26 47/20/27 27/89/25
f 47/20/27 50/19/28 52/90/29
f 46/91/30 55/92/30 39/18/31
f 39/18/31 3/17/32 46/91/30
f 3/17/32 2/16/33 43/93/29
f 2/16/33 1/15/34 42/94/25
f 37/14/35 45/95/23 1/15/34
f 45/95/23 37/14/35 44/96/21
f 38/11/36 35/97/37 36/12/38
f 32/98/39 33/99/40 10/9/41
f 9/8/42 31/100/43 10/9/41
f 8/7/44 25/101/45 9/8/42
f 7/6/46 28/102/47 8/7/44
f 30/103/48 28/102/47 6/5/49
f 29/104/50 30/103/48 5/4/51
f 22/105/52 29/104/50 4/1/53
f 4/1/53 12/3/54 22/105/52
f 12/3/54 20/72/55 34/106/56
f 87/79/7 159/107/57 88/108/58
f 11/10/59 33/99/40 38/11/36
f 98/109/60 78/110/61 99/111/62
f 104/112/63 111/113/64 105/114/65
f 99/111/62 143/115/66 100/116/67
f 149/117/68 119/118/5 142/119/69
f 148/120/70 124/121/71 110/122/72
f 105/114/65 76/123/73 106/124/74
f 147/125/75 113/126/76 150/127/77
f 146/128/57 118/129/7 149/117/68
f 145/130/78 123/131/79 148/120/70
f 144/132/80 112/133/81 147/125/75
f 70/134/82 117/135/58 146/128/57
f 76/123/73 122/136/83 145/130/78
f 100/116/67 70/134/82 101/137/84
f 143/115/66 116/138/85 70/134/82
f 111/113/64 121/139/86 76/123/73
f 78/110/61 115/140/87 143/115/66
f 142/119/69 120/141/88 111/113/64
f 110/122/72 125/142/89 94/143/90
f 95/144/91 144/132/80 96/145/92
f 106/124/74 145/130/78 107/146/93
f 150/127/77 114/147/94 78/110/61
f 101/137/84 146/128/57 102/148/95
f 152/149/90 127/150/96 14/151/72
f 96/145/92 147/125/75 97/152/97
f 154/153/75 140/154/92 153/155/80
f 155/156/77 139/157/97 154/153/75
f 156/158/61 138/159/98 155/156/77
f 157/160/66 137/161/62 156/158/61
f 158/162/82 136/163/67 157/160/66
f 159/107/57 135/164/84 158/162/82
f 160/78/6 134/165/95 159/107/57
f 161/166/69 133/167/99 160/78/6
f 162/168/64 132/169/63 161/166/69
f 163/170/73 131/171/65 162/168/64
f 164/172/78 130/173/100 163/170/73
f 165/174/70 129/175/93 164/172/78
f 14/151/72 128/176/101 165/174/70
f 107/146/93 148/120/70 108/177/101
f 102/148/95 149/117/68 103/178/99
f 88/108/58 158/162/82 89/179/85
f 89/179/85 157/160/66 90/180/87
f 94/143/90 126/181/102 151/75/103
f 90/180/87 156/158/61 91/182/94
f 166/76/103 23/73/104 152/149/90
f 103/178/99 142/119/69 104/112/63
f 108/177/101 110/122/72 109/183/96
f 97/152/97 150/127/77 98/109/60
f 109/183/96 94/143/90 77/67/104
f 91/182/94 155/156/77 92/184/76
f 92/184/76 154/153/75 93/185/81
f 79/186/102 152/149/90 80/187/89
f 16/188/105 21/189/106 144/132/80
f 69/190/19 16/188/105 95/144/91
f 85/191/88 161/166/69 86/77/5
f 84/192/86 162/168/64 85/191/88
f 83/193/83 163/170/73 84/192/86
f 82/194/79 164/172/78 83/193/83
f 81/195/71 165/174/70 82/194/79
f 80/187/89 14/151/72 81/195/71
f 74/71/55 166/76/103 79/186/102
f 153/155/80 141/196/91 17/197/105
f 93/185/81 153/155/80 75/198/106
f 160/78/6 159/107/57 87/79/7
f 64/25/9 58/199/107 57/80/10
f 67/81/11 61/27/13 65/26/8
f 61/27/13 67/200/11 60/82/14
f 62/28/12 60/82/14 59/83/16
f 63/29/15 59/83/16 56/84/18
f 24/85/19 23/73/104 66/30/17
f 53/86/21 58/199/107 64/25/9
f 54/87/23 53/86/21 48/24/20
f 49/23/22 40/22/108 51/88/24
f 51/88/24 40/22/108 26/21/26
f 47/20/27 52/90/29 27/89/25
f 50/19/28 55/92/30 52/90/29
f 55/92/30 50/19/28 39/18/31
f 3/17/32 43/93/29 46/91/30
f 2/16/33 42/201/25 43/93/29
f 1/15/34 41/202/24 42/94/25
f 45/95/23 41/202/24 1/15/34
f 37/14/35 36/12/38 44/96/21
f 35/97/37 44/96/21 36/12/38
f 33/99/40 11/10/59 10/9/41
f 31/100/43 32/98/39 10/9/41
f 25/101/45 31/100/43 9/8/42
f 28/102/47 25/203/45 8/7/44
f 28/102/47 7/6/46 6/5/49
f 30/103/48 6/5/49 5/4/51
f 29/104/50 5/4/51 4/1/53
f 12/3/54 34/106/56 22/105/52
f 20/72/55 21/204/106 34/106/56
f 159/107/57 158/162/82 88/108/58
f 33/99/40 35/97/37 38/11/36
f 78/110/61 143/115/66 99/111/62
f 111/113/64 76/123/73 105/114/65
f 143/115/66 70/134/82 100/116/67
f 119/118/5 120/141/88 142/119/69
f 124/121/71 125/142/89 110/122/72
f 76/123/73 145/130/78 106/124/74
f 113/126/76 114/147/94 150/127/77
f 118/129/7 119/118/5 149/117/68
f 123/131/79 124/121/71 148/120/70
f 112/133/81 113/126/76 147/125/75
f 117/135/58 118/129/7 146/128/57
f 122/136/83 123/131/79 145/130/78
f 70/134/82 146/128/57 101/137/84
f 116/138/85 117/135/58 70/134/82
f 121/139/86 122/136/83 76/123/73
f 115/140/87 116/138/85 143/115/66
f 120/141/88 121/139/86 111/113/64
f 125/142/89 126/181/102 94/143/90
f 144/132/80 147/125/75 96/145/92
f 145/130/78 148/120/70 107/146/93
f 114/147/94 115/140/87 78/110/61
f 146/128/57 149/117/68 102/148/95
f 127/150/96 128/176/101 14/151/72
f 147/125/75 150/127/77 97/152/97
f 140/154/92 141/196/91 153/155/80
f 139/157/97 140/154/92 154/153/75
f 138/159/98 139/157/97 155/156/77
f 137/161/62 138/159/98 156/158/61
f 136/163/67 137/161/62 157/160/66
f 135/164/84 136/163/67 158/162/82
f 134/165/95 135/164/84 159/107/57
f 133/167/99 134/165/95 160/78/6
f 132/169/63 133/167/99 161/166/69
f 131/171/65 132/169/63 162/168/64
f 130/173/100 131/171/65 163/170/73
f 129/175/93 130/173/100 164/172/78
f 128/176/101 129/175/93 165/174/70
f 148/120/70 110/122/72 108/177/101
f 149/117/68 142/119/69 103/178/99
f 158/162/82 157/160/66 89/179/85
f 157/160/66 156/158/61 90/180/87
f 126/181/102 20/72/55 151/75/103
f 156/158/61 155/156/77 91/182/94
f 23/73/104 127/150/96 152/149/90
f 142/119/69 111/113/64 104/112/63
f 110/122/72 94/143/90 109/183/96
f 150/127/77 78/110/61 98/109/60
f 94/143/90 151/75/103 77/67/104
f 155/156/77 154/153/75 92/184/76
f 154/153/75 153/155/80 93/185/81
f 152/149/90 14/151/72 80/187/89
f 21/189/106 112/133/81 144/132/80
f 16/188/105 144/132/80 95/144/91
f 161/166/69 160/78/6 86/77/5
f 162/168/64 161/166/69 85/191/88
f 163/170/73 162/168/64 84/192/86
f 164/172/78 163/170/73 83/193/83
f 165/174/70 164/172/78 82/194/79
f 14/151/72 165/174/70 81/195/71
f 166/76/103 152/149/90 79/186/102
f 141/196/91 24/205/19 17/197/105
f 153/155/80 17/197/105 75/198/106
f 112/206/81 126/207/102 113/208/76
f 113/208/76 125/209/89 114/210/94
f 114/210/94 124/211/71 115/212/87
f 115/212/87 123/213/79 116/214/85
f 116/214/85 122/215/83 117/216/58
f 117/216/58 121/217/86 118/218/7
f 118/218/7 120/219/88 119/220/5
f 140/221/92 128/222/101 141/223/91
f 139/224/97 129/225/93 140/221/92
f 138/226/98 130/227/100 139/224/97
f 137/228/62 131/229/65 138/226/98
f 136/230/67 132/231/63 137/228/62
f 135/232/84 133/233/99 136/230/67
f 133/233/99 135/232/84 134/234/95
f 126/207/102 112/206/81 20/72/55
f 23/73/104 24/85/19 127/235/96
f 126/207/102 125/209/89 113/208/76
f 125/209/89 124/211/71 114/210/94
f 124/211/71 123/213/79 115/212/87
f 123/213/79 122/215/83 116/214/85
f 122/215/83 121/217/86 117/216/58
f 121/217/86 120/219/88 118/218/7
f 128/222/101 127/235/96 141/223/91
f 129/225/93 128/222/101 140/221/92
f 130/227/100 129/225/93 139/224/97
f 131/229/65 130/227/100 138/226/98
f 132/231/63 131/229/65 137/228/62
f 133/233/99 132/231/63 136/230/67
f 112/206/81 21/204/106 20/72/55
f 24/85/19 141/223/91 127/235/96
