# Blender v2.68 (sub 0) OBJ File: 'Counters.blend'
# www.blender.org
o C.A.L
v -20.000000 0.000000 -24.750000
v -20.000000 0.000000 0.000000
v -20.000000 -1.181100 -24.750000
v -19.902456 -0.009607 0.000000
v -19.808657 -0.038060 0.000000
v -19.722218 -0.084265 0.000000
v -19.646446 -0.146446 0.000000
v -19.584263 -0.222214 0.000000
v -19.538059 -0.308658 0.000000
v -19.509607 -0.402454 0.000000
v -44.750000 0.000000 -24.750000
v -44.941341 -0.038060 -0.000000
v -44.750000 -1.181100 -24.750000
v -45.027782 -0.084265 -0.000000
v -45.103554 -0.146446 -0.000000
v -45.165737 -0.222214 -0.000000
v -45.211937 -0.308658 -0.000000
v -45.240391 -0.402454 -0.000000
v -45.250000 -0.500000 -0.000000
v -45.250000 -1.181100 -0.000000
v -19.500000 -0.500000 0.000000
v -19.500000 -1.181100 0.000000
v -19.500000 -1.181100 1.500000
v -19.500000 -0.500000 1.500000
v -19.509607 -0.402454 1.490392
v -19.538059 -0.308658 1.461939
v -19.584263 -0.222214 1.415735
v -19.646446 -0.146446 1.353554
v -19.722218 -0.084265 1.277784
v -19.808657 -0.038060 1.191341
v -19.902456 -0.009607 1.097544
v -20.000000 0.000000 1.000000
v -45.250000 -1.181100 1.500000
v -45.250000 -0.500000 1.500000
v -45.240391 -0.402454 1.490395
v -45.211937 -0.308658 1.461941
v -45.165733 -0.222214 1.415737
v -45.103554 -0.146446 1.353554
v -45.027782 -0.084265 1.277782
v -44.941341 -0.038060 1.191345
v -44.847546 -0.009607 1.097542
v -44.750000 0.000000 1.000000
v -44.847542 -0.009607 -0.000000
v -44.750000 0.000000 -0.000000
v -44.941341 -0.038060 -24.750000
v -45.027782 -0.084265 -24.750000
v -45.103554 -0.146446 -24.750000
v -45.165737 -0.222214 -24.750000
v -45.211937 -0.308658 -24.750000
v -45.240391 -0.402454 -24.750000
v -45.250000 -0.500000 -24.750000
v -45.250000 -1.181100 -24.750000
v -44.847542 -0.009607 -24.750000
vt 1.000000 0.898278
vt 0.381250 0.898278
vt 1.000000 0.868750
vt 1.000000 0.250000
vt 0.381250 0.250000
vt 1.000000 0.225001
vt 0.381250 0.868750
vt 0.378811 0.868990
vt 0.368751 0.898278
vt 0.368750 0.881251
vt 0.368990 0.878813
vt 0.369702 0.876468
vt 0.370856 0.874306
vt 0.372411 0.872412
vt 0.374305 0.870857
vt 0.376466 0.869702
vt 0.381250 0.225000
vt 0.371448 0.216162
vt 0.373898 0.218056
vt 0.373900 0.250001
vt 0.361646 0.212501
vt 0.361648 0.250001
vt 0.344618 0.212502
vt 0.368997 0.214607
vt 0.371450 0.250001
vt 0.364096 0.212741
vt 0.364098 0.250001
vt 0.366547 0.213452
vt 0.368999 0.250001
vt 0.366549 0.250001
vt 0.376349 0.220217
vt 0.378799 0.222562
vt 0.378800 0.250000
vt 1.004901 0.250000
vt 1.002450 0.250000
vt 1.004901 0.220217
vt 1.014702 0.250001
vt 1.012251 0.250000
vt 1.014702 0.213453
vt 1.002451 0.222562
vt 1.009801 0.250000
vt 1.012252 0.214608
vt 1.007351 0.250000
vt 1.009802 0.216162
vt 1.007352 0.218057
vt 1.019603 0.250001
vt 1.017152 0.250001
vt 1.019603 0.212501
vt 1.017153 0.212742
vt 1.036630 0.250001
vt 1.012261 0.207847
vt 1.011549 0.210298
vt 0.368975 0.207831
vt 1.010394 0.212748
vt 0.369686 0.210281
vt 1.012501 0.205397
vt 0.368733 0.205367
vt 1.008839 0.215199
vt 0.370838 0.212725
vt 1.012502 0.188368
vt 1.006945 0.217649
vt 0.372394 0.215178
vt 1.004784 0.220100
vt 0.374295 0.217637
vt 1.002439 0.222550
vt 0.378807 0.222545
vt 0.376458 0.220090
vt 0.376350 0.250000
vt 0.361647 0.250000
vt 0.364098 0.250000
vt 0.361670 0.868750
vt 0.366548 0.250000
vt 0.364125 0.868750
vt 0.376349 0.250000
vt 0.376332 0.868750
vt 0.373899 0.250000
vt 0.373877 0.868750
vt 0.371449 0.250000
vt 0.371442 0.868750
vt 0.368998 0.250000
vt 0.368996 0.868750
vt 0.344619 0.250001
vt 0.366561 0.868750
vt 0.378796 0.868750
vt 0.344620 0.250002
vt 1.036630 0.212502
vt 0.368734 0.188339
vt 0.344643 0.868751
vn 0.000000 -0.000000 -1.000000
vn -0.000000 1.000000 0.000000
vn -0.429731 0.794122 0.429731
vn -0.325755 0.887539 0.325724
vn -0.555528 0.831477 0.000000
vn -0.705496 0.067049 0.705496
vn -0.998779 0.049104 0.000000
vn -0.707083 0.000000 0.707083
vn -0.531022 0.660268 0.531022
vn -0.707053 0.707114 0.000000
vn -0.683889 0.254067 0.683889
vn -0.980773 0.195105 0.000000
vn -0.620441 0.479629 0.620441
vn -0.831446 0.555559 0.000000
vn -0.923856 0.382672 0.000000
vn -0.223243 0.948820 0.223273
vn -0.123142 0.984710 0.123112
vn -0.195074 0.980773 0.000000
vn 0.382672 0.923856 0.000000
vn 0.195074 0.980773 0.000000
vn 0.223273 0.948820 0.223243
vn 0.923856 0.382672 0.000000
vn 0.831446 0.555559 0.000000
vn 0.620441 0.479629 0.620441
vn 0.032685 0.999451 0.000000
vn 0.123142 0.984710 0.123142
vn 0.707083 0.707114 0.000000
vn 0.531022 0.660268 0.531022
vn 0.555559 0.831446 0.000000
vn 0.429731 0.794122 0.429731
vn 0.325724 0.887539 0.325755
vn 0.998779 0.049043 0.000000
vn 0.980773 0.195074 0.000000
vn 0.705496 0.067080 0.705496
vn 0.683889 0.254097 0.683889
vn 0.999969 0.000000 0.000000
vn 0.707083 0.000000 0.707083
vn 0.036805 0.998627 0.036805
vn -0.382672 0.923856 0.000000
vn -0.036805 0.998627 0.036805
vn -0.049043 0.998779 0.000000
vn -0.716941 0.035157 -0.696219
vn -0.713889 0.141972 -0.685690
vn -0.278542 0.672475 -0.685690
vn -0.404401 0.605182 -0.685690
vn -0.514695 0.514664 -0.685690
vn -0.605213 0.404340 -0.685690
vn -1.000000 0.000000 0.000000
vn -0.672475 0.278512 -0.685690
vn -0.142003 0.713889 -0.685690
vn -0.707083 0.000000 -0.707083
vn -0.035218 0.716941 -0.696219
s off
f 3/1/1 13/2/1 1/3/1
f 2/4/2 44/5/2 32/6/2
f 1/3/2 11/7/2 2/4/2
f 53/8/1 11/7/1 13/2/1
f 52/9/1 51/10/1 13/2/1
f 13/2/1 51/10/1 50/11/1
f 13/2/1 50/11/1 49/12/1
f 13/2/1 49/12/1 48/13/1
f 13/2/1 48/13/1 47/14/1
f 13/2/1 47/14/1 46/15/1
f 13/2/1 46/15/1 45/16/1
f 13/2/1 45/16/1 53/8/1
f 13/2/1 11/7/1 1/3/1
f 44/5/2 42/17/2 32/6/2
f 11/7/2 44/5/2 2/4/2
s 1
f 38/18/3 39/19/4 14/20/5
f 34/21/6 19/22/7 33/23/8
f 37/24/9 38/18/3 15/25/10
f 34/21/6 35/26/11 18/27/12
f 36/28/13 37/24/9 16/29/14
f 35/26/11 36/28/13 17/30/15
f 40/31/16 41/32/17 43/33/18
f 5/34/19 4/35/20 30/36/21
f 9/37/22 8/38/23 26/39/24
f 4/35/20 2/4/25 31/40/26
f 8/38/23 7/41/27 27/42/28
f 7/41/27 6/43/29 28/44/30
f 6/43/29 5/34/19 29/45/31
f 21/46/32 10/47/33 24/48/34
f 10/47/33 9/37/22 25/49/35
f 21/46/32 24/48/34 22/50/36
f 25/51/35 26/52/24 35/53/11
f 26/52/24 27/54/28 36/55/13
f 24/56/34 25/51/35 34/57/6
f 27/54/28 28/58/30 37/59/9
f 24/56/34 34/57/6 23/60/37
f 28/58/30 29/61/31 38/62/3
f 29/61/31 30/63/21 39/64/4
f 31/65/26 32/6/38 41/66/17
f 30/63/21 31/65/26 40/67/16
f 39/19/4 40/31/16 12/68/39
f 41/32/17 42/17/40 44/5/41
f 19/69/7 18/70/12 51/71/42
f 18/70/12 17/72/15 50/73/43
f 12/74/39 43/33/18 45/75/44
f 14/76/5 12/74/39 46/77/45
f 15/78/10 14/76/5 47/79/46
f 16/80/14 15/78/10 48/81/47
f 19/69/7 51/71/42 20/82/48
f 17/72/15 16/80/14 49/83/49
f 43/33/18 44/5/41 53/84/50
f 15/25/10 38/18/3 14/20/5
f 19/22/7 20/85/48 33/23/8
f 16/29/14 37/24/9 15/25/10
f 19/22/7 34/21/6 18/27/12
f 17/30/15 36/28/13 16/29/14
f 18/27/12 35/26/11 17/30/15
f 12/68/39 40/31/16 43/33/18
f 4/35/20 31/40/26 30/36/21
f 8/38/23 27/42/28 26/39/24
f 2/4/25 32/6/38 31/40/26
f 7/41/27 28/44/30 27/42/28
f 6/43/29 29/45/31 28/44/30
f 5/34/19 30/36/21 29/45/31
f 10/47/33 25/49/35 24/48/34
f 9/37/22 26/39/24 25/49/35
f 24/48/34 23/86/37 22/50/36
f 26/52/24 36/55/13 35/53/11
f 27/54/28 37/59/9 36/55/13
f 25/51/35 35/53/11 34/57/6
f 28/58/30 38/62/3 37/59/9
f 34/57/6 33/87/8 23/60/37
f 29/61/31 39/64/4 38/62/3
f 30/63/21 40/67/16 39/64/4
f 32/6/38 42/17/40 41/66/17
f 31/65/26 41/66/17 40/67/16
f 14/20/5 39/19/4 12/68/39
f 43/33/18 41/32/17 44/5/41
f 18/70/12 50/73/43 51/71/42
f 17/72/15 49/83/49 50/73/43
f 43/33/18 53/84/50 45/75/44
f 12/74/39 45/75/44 46/77/45
f 14/76/5 46/77/45 47/79/46
f 15/78/10 47/79/46 48/81/47
f 51/71/42 52/88/51 20/82/48
f 16/80/14 48/81/47 49/83/49
f 44/5/41 11/7/52 53/84/50
