%YAML 1.1
%TAG !u! tag:unity3d.com,2011:
--- !u!1 &100000
GameObject:
  m_ObjectHideFlags: 0
  m_PrefabParentObject: {fileID: 0}
  m_PrefabInternal: {fileID: 100100000}
  serializedVersion: 5
  m_Component:
  - component: {fileID: 400000}
  - component: {fileID: 11400000}
  m_Layer: 0
  m_Name: 45 Light 14pt 17px data
  m_TagString: Untagged
  m_Icon: {fileID: 0}
  m_NavMeshLayer: 0
  m_StaticEditorFlags: 0
  m_IsActive: 0
--- !u!4 &400000
Transform:
  m_ObjectHideFlags: 1
  m_PrefabParentObject: {fileID: 0}
  m_PrefabInternal: {fileID: 100100000}
  m_GameObject: {fileID: 100000}
  m_LocalRotation: {x: 0, y: 0, z: 0, w: 1}
  m_LocalPosition: {x: 0, y: 0, z: 0}
  m_LocalScale: {x: 1, y: 1, z: 1}
  m_Children: []
  m_Father: {fileID: 0}
  m_RootOrder: 0
  m_LocalEulerAnglesHint: {x: 0, y: 0, z: 0}
--- !u!114 &11400000
MonoBehaviour:
  m_ObjectHideFlags: 1
  m_PrefabParentObject: {fileID: 0}
  m_PrefabInternal: {fileID: 100100000}
  m_GameObject: {fileID: 100000}
  m_Enabled: 1
  m_EditorHideFlags: 0
  m_Script: {fileID: 11500000, guid: 023bfc31841d2f24ba7eb00462467382, type: 3}
  m_Name: 
  m_EditorClassIdentifier: 
  version: 2
  lineHeight: 0.34
  chars:
  - p0: {x: 0, y: 0, z: 0}
    p1: {x: 0, y: 0, z: 0}
    uv0: {x: 0, y: 0, z: 0}
    uv1: {x: 0, y: 0, z: 0}
    flipped: 0
    gradientUv:
    - {x: 0, y: 0}
    - {x: 0, y: 0}
    - {x: 0, y: 0}
    - {x: 0, y: 0}
    advance: 0
    channel: 0
  - p0: {x: 0, y: 0, z: 0}
    p1: {x: 0, y: 0, z: 0}
    uv0: {x: 0, y: 0, z: 0}
    uv1: {x: 0, y: 0, z: 0}
    flipped: 0
    gradientUv:
    - {x: 0, y: 0}
    - {x: 0, y: 0}
    - {x: 0, y: 0}
    - {x: 0, y: 0}
    advance: 0
    channel: 0
  - p0: {x: 0, y: 0, z: 0}
    p1: {x: 0, y: 0, z: 0}
    uv0: {x: 0, y: 0, z: 0}
    uv1: {x: 0, y: 0, z: 0}
    flipped: 0
    gradientUv:
    - {x: 0, y: 0}
    - {x: 0, y: 0}
    - {x: 0, y: 0}
    - {x: 0, y: 0}
    advance: 0
    channel: 0
  - p0: {x: 0, y: 0, z: 0}
    p1: {x: 0, y: 0, z: 0}
    uv0: {x: 0, y: 0, z: 0}
    uv1: {x: 0, y: 0, z: 0}
    flipped: 0
    gradientUv:
    - {x: 0, y: 0}
    - {x: 0, y: 0}
    - {x: 0, y: 0}
    - {x: 0, y: 0}
    advance: 0
    channel: 0
  - p0: {x: 0, y: 0, z: 0}
    p1: {x: 0, y: 0, z: 0}
    uv0: {x: 0, y: 0, z: 0}
    uv1: {x: 0, y: 0, z: 0}
    flipped: 0
    gradientUv:
    - {x: 0, y: 0}
    - {x: 0, y: 0}
    - {x: 0, y: 0}
    - {x: 0, y: 0}
    advance: 0
    channel: 0
  - p0: {x: 0, y: 0, z: 0}
    p1: {x: 0, y: 0, z: 0}
    uv0: {x: 0, y: 0, z: 0}
    uv1: {x: 0, y: 0, z: 0}
    flipped: 0
    gradientUv:
    - {x: 0, y: 0}
    - {x: 0, y: 0}
    - {x: 0, y: 0}
    - {x: 0, y: 0}
    advance: 0
    channel: 0
  - p0: {x: 0, y: 0, z: 0}
    p1: {x: 0, y: 0, z: 0}
    uv0: {x: 0, y: 0, z: 0}
    uv1: {x: 0, y: 0, z: 0}
    flipped: 0
    gradientUv:
    - {x: 0, y: 0}
    - {x: 0, y: 0}
    - {x: 0, y: 0}
    - {x: 0, y: 0}
    advance: 0
    channel: 0
  - p0: {x: 0, y: 0, z: 0}
    p1: {x: 0, y: 0, z: 0}
    uv0: {x: 0, y: 0, z: 0}
    uv1: {x: 0, y: 0, z: 0}
    flipped: 0
    gradientUv:
    - {x: 0, y: 0}
    - {x: 0, y: 0}
    - {x: 0, y: 0}
    - {x: 0, y: 0}
    advance: 0
    channel: 0
  - p0: {x: 0, y: 0, z: 0}
    p1: {x: 0, y: 0, z: 0}
    uv0: {x: 0, y: 0, z: 0}
    uv1: {x: 0, y: 0, z: 0}
    flipped: 0
    gradientUv:
    - {x: 0, y: 0}
    - {x: 0, y: 0}
    - {x: 0, y: 0}
    - {x: 0, y: 0}
    advance: 0
    channel: 0
  - p0: {x: 0, y: 0, z: 0}
    p1: {x: 0, y: 0, z: 0}
    uv0: {x: 0, y: 0, z: 0}
    uv1: {x: 0, y: 0, z: 0}
    flipped: 0
    gradientUv:
    - {x: 0, y: 0}
    - {x: 0, y: 0}
    - {x: 0, y: 0}
    - {x: 0, y: 0}
    advance: 0
    channel: 0
  - p0: {x: 0, y: 0, z: 0}
    p1: {x: 0, y: 0, z: 0}
    uv0: {x: 0, y: 0, z: 0}
    uv1: {x: 0, y: 0, z: 0}
    flipped: 0
    gradientUv:
    - {x: 0, y: 0}
    - {x: 0, y: 0}
    - {x: 0, y: 0}
    - {x: 0, y: 0}
    advance: 0
    channel: 0
  - p0: {x: 0, y: 0, z: 0}
    p1: {x: 0, y: 0, z: 0}
    uv0: {x: 0, y: 0, z: 0}
    uv1: {x: 0, y: 0, z: 0}
    flipped: 0
    gradientUv:
    - {x: 0, y: 0}
    - {x: 0, y: 0}
    - {x: 0, y: 0}
    - {x: 0, y: 0}
    advance: 0
    channel: 0
  - p0: {x: 0, y: 0, z: 0}
    p1: {x: 0, y: 0, z: 0}
    uv0: {x: 0, y: 0, z: 0}
    uv1: {x: 0, y: 0, z: 0}
    flipped: 0
    gradientUv:
    - {x: 0, y: 0}
    - {x: 0, y: 0}
    - {x: 0, y: 0}
    - {x: 0, y: 0}
    advance: 0
    channel: 0
  - p0: {x: 0, y: 0, z: 0}
    p1: {x: 0, y: 0, z: 0}
    uv0: {x: 0, y: 0, z: 0}
    uv1: {x: 0, y: 0, z: 0}
    flipped: 0
    gradientUv:
    - {x: 0, y: 0}
    - {x: 0, y: 0}
    - {x: 0, y: 0}
    - {x: 0, y: 0}
    advance: 0
    channel: 0
  - p0: {x: 0, y: 0, z: 0}
    p1: {x: 0, y: 0, z: 0}
    uv0: {x: 0, y: 0, z: 0}
    uv1: {x: 0, y: 0, z: 0}
    flipped: 0
    gradientUv:
    - {x: 0, y: 0}
    - {x: 0, y: 0}
    - {x: 0, y: 0}
    - {x: 0, y: 0}
    advance: 0
    channel: 0
  - p0: {x: 0, y: 0, z: 0}
    p1: {x: 0, y: 0, z: 0}
    uv0: {x: 0, y: 0, z: 0}
    uv1: {x: 0, y: 0, z: 0}
    flipped: 0
    gradientUv:
    - {x: 0, y: 0}
    - {x: 0, y: 0}
    - {x: 0, y: 0}
    - {x: 0, y: 0}
    advance: 0
    channel: 0
  - p0: {x: 0, y: 0, z: 0}
    p1: {x: 0, y: 0, z: 0}
    uv0: {x: 0, y: 0, z: 0}
    uv1: {x: 0, y: 0, z: 0}
    flipped: 0
    gradientUv:
    - {x: 0, y: 0}
    - {x: 0, y: 0}
    - {x: 0, y: 0}
    - {x: 0, y: 0}
    advance: 0
    channel: 0
  - p0: {x: 0, y: 0, z: 0}
    p1: {x: 0, y: 0, z: 0}
    uv0: {x: 0, y: 0, z: 0}
    uv1: {x: 0, y: 0, z: 0}
    flipped: 0
    gradientUv:
    - {x: 0, y: 0}
    - {x: 0, y: 0}
    - {x: 0, y: 0}
    - {x: 0, y: 0}
    advance: 0
    channel: 0
  - p0: {x: 0, y: 0, z: 0}
    p1: {x: 0, y: 0, z: 0}
    uv0: {x: 0, y: 0, z: 0}
    uv1: {x: 0, y: 0, z: 0}
    flipped: 0
    gradientUv:
    - {x: 0, y: 0}
    - {x: 0, y: 0}
    - {x: 0, y: 0}
    - {x: 0, y: 0}
    advance: 0
    channel: 0
  - p0: {x: 0, y: 0, z: 0}
    p1: {x: 0, y: 0, z: 0}
    uv0: {x: 0, y: 0, z: 0}
    uv1: {x: 0, y: 0, z: 0}
    flipped: 0
    gradientUv:
    - {x: 0, y: 0}
    - {x: 0, y: 0}
    - {x: 0, y: 0}
    - {x: 0, y: 0}
    advance: 0
    channel: 0
  - p0: {x: 0, y: 0, z: 0}
    p1: {x: 0, y: 0, z: 0}
    uv0: {x: 0, y: 0, z: 0}
    uv1: {x: 0, y: 0, z: 0}
    flipped: 0
    gradientUv:
    - {x: 0, y: 0}
    - {x: 0, y: 0}
    - {x: 0, y: 0}
    - {x: 0, y: 0}
    advance: 0
    channel: 0
  - p0: {x: 0, y: 0, z: 0}
    p1: {x: 0, y: 0, z: 0}
    uv0: {x: 0, y: 0, z: 0}
    uv1: {x: 0, y: 0, z: 0}
    flipped: 0
    gradientUv:
    - {x: 0, y: 0}
    - {x: 0, y: 0}
    - {x: 0, y: 0}
    - {x: 0, y: 0}
    advance: 0
    channel: 0
  - p0: {x: 0, y: 0, z: 0}
    p1: {x: 0, y: 0, z: 0}
    uv0: {x: 0, y: 0, z: 0}
    uv1: {x: 0, y: 0, z: 0}
    flipped: 0
    gradientUv:
    - {x: 0, y: 0}
    - {x: 0, y: 0}
    - {x: 0, y: 0}
    - {x: 0, y: 0}
    advance: 0
    channel: 0
  - p0: {x: 0, y: 0, z: 0}
    p1: {x: 0, y: 0, z: 0}
    uv0: {x: 0, y: 0, z: 0}
    uv1: {x: 0, y: 0, z: 0}
    flipped: 0
    gradientUv:
    - {x: 0, y: 0}
    - {x: 0, y: 0}
    - {x: 0, y: 0}
    - {x: 0, y: 0}
    advance: 0
    channel: 0
  - p0: {x: 0, y: 0, z: 0}
    p1: {x: 0, y: 0, z: 0}
    uv0: {x: 0, y: 0, z: 0}
    uv1: {x: 0, y: 0, z: 0}
    flipped: 0
    gradientUv:
    - {x: 0, y: 0}
    - {x: 0, y: 0}
    - {x: 0, y: 0}
    - {x: 0, y: 0}
    advance: 0
    channel: 0
  - p0: {x: 0, y: 0, z: 0}
    p1: {x: 0, y: 0, z: 0}
    uv0: {x: 0, y: 0, z: 0}
    uv1: {x: 0, y: 0, z: 0}
    flipped: 0
    gradientUv:
    - {x: 0, y: 0}
    - {x: 0, y: 0}
    - {x: 0, y: 0}
    - {x: 0, y: 0}
    advance: 0
    channel: 0
  - p0: {x: 0, y: 0, z: 0}
    p1: {x: 0, y: 0, z: 0}
    uv0: {x: 0, y: 0, z: 0}
    uv1: {x: 0, y: 0, z: 0}
    flipped: 0
    gradientUv:
    - {x: 0, y: 0}
    - {x: 0, y: 0}
    - {x: 0, y: 0}
    - {x: 0, y: 0}
    advance: 0
    channel: 0
  - p0: {x: 0, y: 0, z: 0}
    p1: {x: 0, y: 0, z: 0}
    uv0: {x: 0, y: 0, z: 0}
    uv1: {x: 0, y: 0, z: 0}
    flipped: 0
    gradientUv:
    - {x: 0, y: 0}
    - {x: 0, y: 0}
    - {x: 0, y: 0}
    - {x: 0, y: 0}
    advance: 0
    channel: 0
  - p0: {x: 0, y: 0, z: 0}
    p1: {x: 0, y: 0, z: 0}
    uv0: {x: 0, y: 0, z: 0}
    uv1: {x: 0, y: 0, z: 0}
    flipped: 0
    gradientUv:
    - {x: 0, y: 0}
    - {x: 0, y: 0}
    - {x: 0, y: 0}
    - {x: 0, y: 0}
    advance: 0
    channel: 0
  - p0: {x: 0, y: 0, z: 0}
    p1: {x: 0, y: 0, z: 0}
    uv0: {x: 0, y: 0, z: 0}
    uv1: {x: 0, y: 0, z: 0}
    flipped: 0
    gradientUv:
    - {x: 0, y: 0}
    - {x: 0, y: 0}
    - {x: 0, y: 0}
    - {x: 0, y: 0}
    advance: 0
    channel: 0
  - p0: {x: 0, y: 0, z: 0}
    p1: {x: 0, y: 0, z: 0}
    uv0: {x: 0, y: 0, z: 0}
    uv1: {x: 0, y: 0, z: 0}
    flipped: 0
    gradientUv:
    - {x: 0, y: 0}
    - {x: 0, y: 0}
    - {x: 0, y: 0}
    - {x: 0, y: 0}
    advance: 0
    channel: 0
  - p0: {x: 0, y: 0, z: 0}
    p1: {x: 0, y: 0, z: 0}
    uv0: {x: 0, y: 0, z: 0}
    uv1: {x: 0, y: 0, z: 0}
    flipped: 0
    gradientUv:
    - {x: 0, y: 0}
    - {x: 0, y: 0}
    - {x: 0, y: 0}
    - {x: 0, y: 0}
    advance: 0
    channel: 0
  - p0: {x: -0.02, y: 0.02, z: 0}
    p1: {x: -0.02, y: 0.02, z: 0}
    uv0: {x: 0.5605469, y: 0.4326172, z: 0}
    uv1: {x: 0.5605469, y: 0.4326172, z: 0}
    flipped: 0
    gradientUv: []
    advance: 0.08
    channel: 0
  - p0: {x: 0, y: 0.26, z: 0}
    p1: {x: 0.06, y: 0.059999995, z: 0}
    uv0: {x: 0.20507812, y: 0.66015625, z: 0}
    uv1: {x: 0.20800781, y: 0.6503906, z: 0}
    flipped: 0
    gradientUv: []
    advance: 0.06
    channel: 0
  - p0: {x: 0, y: 0.26, z: 0}
    p1: {x: 0.099999994, y: 0.19999999, z: 0}
    uv0: {x: 0.17871094, y: 0.8564453, z: 0}
    uv1: {x: 0.18164062, y: 0.8515625, z: 0}
    flipped: 1
    gradientUv: []
    advance: 0.099999994
    channel: 0
  - p0: {x: 0, y: 0.26, z: 0}
    p1: {x: 0.16, y: 0.059999995, z: 0}
    uv0: {x: 0.43359375, y: 0.8642578, z: 0}
    uv1: {x: 0.44140625, y: 0.8544922, z: 0}
    flipped: 0
    gradientUv: []
    advance: 0.16
    channel: 0
  - p0: {x: 0, y: 0.28, z: 0}
    p1: {x: 0.17999999, y: 0.040000007, z: 0}
    uv0: {x: 0.39453125, y: 0.78222656, z: 0}
    uv1: {x: 0.40625, y: 0.7734375, z: 0}
    flipped: 1
    gradientUv: []
    advance: 0.16
    channel: 0
  - p0: {x: 0, y: 0.26, z: 0}
    p1: {x: 0.24, y: 0.059999995, z: 0}
    uv0: {x: 0.35351562, y: 0.8046875, z: 0}
    uv1: {x: 0.36523438, y: 0.7949219, z: 0}
    flipped: 0
    gradientUv: []
    advance: 0.24
    channel: 0
  - p0: {x: 0, y: 0.26, z: 0}
    p1: {x: 0.19999999, y: 0.059999995, z: 0}
    uv0: {x: 0.38671875, y: 0.8300781, z: 0}
    uv1: {x: 0.39648438, y: 0.8203125, z: 0}
    flipped: 0
    gradientUv: []
    advance: 0.17999999
    channel: 0
  - p0: {x: 0.02, y: 0.26, z: 0}
    p1: {x: 0.06, y: 0.19999999, z: 0}
    uv0: {x: 0.17285156, y: 0.8652344, z: 0}
    uv1: {x: 0.17480469, y: 0.8623047, z: 0}
    flipped: 0
    gradientUv: []
    advance: 0.08
    channel: 0
  - p0: {x: 0, y: 0.26, z: 0}
    p1: {x: 0.08, y: -0.0000000037252903, z: 0}
    uv0: {x: 0.2763672, y: 0.6171875, z: 0}
    uv1: {x: 0.28027344, y: 0.6044922, z: 0}
    flipped: 0
    gradientUv: []
    advance: 0.06
    channel: 0
  - p0: {x: -0.02, y: 0.26, z: 0}
    p1: {x: 0.08, y: -0.0000000037252903, z: 0}
    uv0: {x: 0.064453125, y: 0.83984375, z: 0}
    uv1: {x: 0.06933594, y: 0.82714844, z: 0}
    flipped: 0
    gradientUv: []
    advance: 0.08
    channel: 0
  - p0: {x: 0, y: 0.26, z: 0}
    p1: {x: 0.099999994, y: 0.17999999, z: 0}
    uv0: {x: 0.22753906, y: 0.8486328, z: 0}
    uv1: {x: 0.23144531, y: 0.84375, z: 0}
    flipped: 1
    gradientUv: []
    advance: 0.099999994
    channel: 0
  - p0: {x: 0, y: 0.19999999, z: 0}
    p1: {x: 0.16, y: 0.05999999, z: 0}
    uv0: {x: 0.4609375, y: 0.7998047, z: 0}
    uv1: {x: 0.46777344, y: 0.7919922, z: 0}
    flipped: 1
    gradientUv: []
    advance: 0.16
    channel: 0
  - p0: {x: 0.02, y: 0.08, z: 0}
    p1: {x: 0.06, y: 0.02, z: 0}
    uv0: {x: 0.3310547, y: 0.77734375, z: 0}
    uv1: {x: 0.3330078, y: 0.77441406, z: 0}
    flipped: 0
    gradientUv: []
    advance: 0.08
    channel: 0
  - p0: {x: 0, y: 0.14, z: 0}
    p1: {x: 0.099999994, y: 0.120000005, z: 0}
    uv0: {x: 0.12988281, y: 0.484375, z: 0}
    uv1: {x: 0.13085938, y: 0.4794922, z: 0}
    flipped: 1
    gradientUv: []
    advance: 0.099999994
    channel: 0
  - p0: {x: 0.02, y: 0.08, z: 0}
    p1: {x: 0.06, y: 0.06, z: 0}
    uv0: {x: 0.56152344, y: 0.41503906, z: 0}
    uv1: {x: 0.5625, y: 0.41308594, z: 0}
    flipped: 1
    gradientUv: []
    advance: 0.08
    channel: 0
  - p0: {x: -0.02, y: 0.26, z: 0}
    p1: {x: 0.12, y: 0.059999995, z: 0}
    uv0: {x: 0.43554688, y: 0.84375, z: 0}
    uv1: {x: 0.4423828, y: 0.8339844, z: 0}
    flipped: 0
    gradientUv: []
    advance: 0.099999994
    channel: 0
  - p0: {x: 0, y: 0.26, z: 0}
    p1: {x: 0.16, y: 0.059999995, z: 0}
    uv0: {x: 0.4267578, y: 0.81640625, z: 0}
    uv1: {x: 0.4345703, y: 0.8066406, z: 0}
    flipped: 0
    gradientUv: []
    advance: 0.16
    channel: 0
  - p0: {x: 0.02, y: 0.26, z: 0}
    p1: {x: 0.12, y: 0.059999995, z: 0}
    uv0: {x: 0.50878906, y: 0.5751953, z: 0}
    uv1: {x: 0.5136719, y: 0.5654297, z: 0}
    flipped: 0
    gradientUv: []
    advance: 0.16
    channel: 0
  - p0: {x: 0, y: 0.26, z: 0}
    p1: {x: 0.16, y: 0.059999995, z: 0}
    uv0: {x: 0.43652344, y: 0.79589844, z: 0}
    uv1: {x: 0.44433594, y: 0.7861328, z: 0}
    flipped: 0
    gradientUv: []
    advance: 0.16
    channel: 0
  - p0: {x: 0, y: 0.26, z: 0}
    p1: {x: 0.16, y: 0.059999995, z: 0}
    uv0: {x: 0.44726562, y: 0.7792969, z: 0}
    uv1: {x: 0.45507812, y: 0.76953125, z: 0}
    flipped: 0
    gradientUv: []
    advance: 0.16
    channel: 0
  - p0: {x: 0, y: 0.26, z: 0}
    p1: {x: 0.16, y: 0.059999995, z: 0}
    uv0: {x: 0.4501953, y: 0.76171875, z: 0}
    uv1: {x: 0.4580078, y: 0.7519531, z: 0}
    flipped: 0
    gradientUv: []
    advance: 0.16
    channel: 0
  - p0: {x: 0, y: 0.26, z: 0}
    p1: {x: 0.16, y: 0.059999995, z: 0}
    uv0: {x: 0.453125, y: 0.7470703, z: 0}
    uv1: {x: 0.4609375, y: 0.7373047, z: 0}
    flipped: 0
    gradientUv: []
    advance: 0.16
    channel: 0
  - p0: {x: 0, y: 0.26, z: 0}
    p1: {x: 0.16, y: 0.059999995, z: 0}
    uv0: {x: 0.45703125, y: 0.71777344, z: 0}
    uv1: {x: 0.46484375, y: 0.7080078, z: 0}
    flipped: 0
    gradientUv: []
    advance: 0.16
    channel: 0
  - p0: {x: 0, y: 0.26, z: 0}
    p1: {x: 0.16, y: 0.059999995, z: 0}
    uv0: {x: 0.45703125, y: 0.7314453, z: 0}
    uv1: {x: 0.46484375, y: 0.7216797, z: 0}
    flipped: 0
    gradientUv: []
    advance: 0.16
    channel: 0
  - p0: {x: 0, y: 0.26, z: 0}
    p1: {x: 0.16, y: 0.059999995, z: 0}
    uv0: {x: 0.4609375, y: 0.6904297, z: 0}
    uv1: {x: 0.46875, y: 0.68066406, z: 0}
    flipped: 0
    gradientUv: []
    advance: 0.16
    channel: 0
  - p0: {x: 0, y: 0.26, z: 0}
    p1: {x: 0.16, y: 0.059999995, z: 0}
    uv0: {x: 0.4609375, y: 0.70410156, z: 0}
    uv1: {x: 0.46875, y: 0.69433594, z: 0}
    flipped: 0
    gradientUv: []
    advance: 0.16
    channel: 0
  - p0: {x: 0.02, y: 0.19999999, z: 0}
    p1: {x: 0.06, y: 0.05999999, z: 0}
    uv0: {x: 0.068359375, y: 0.71875, z: 0}
    uv1: {x: 0.0703125, y: 0.71191406, z: 0}
    flipped: 0
    gradientUv: []
    advance: 0.08
    channel: 0
  - p0: {x: 0.02, y: 0.19999999, z: 0}
    p1: {x: 0.06, y: 0.019999992, z: 0}
    uv0: {x: 0.19628906, y: 0.7294922, z: 0}
    uv1: {x: 0.19824219, y: 0.7207031, z: 0}
    flipped: 0
    gradientUv: []
    advance: 0.08
    channel: 0
  - p0: {x: 0, y: 0.19999999, z: 0}
    p1: {x: 0.17999999, y: 0.05999999, z: 0}
    uv0: {x: 0.44628906, y: 0.84277344, z: 0}
    uv1: {x: 0.453125, y: 0.8339844, z: 0}
    flipped: 1
    gradientUv: []
    advance: 0.16
    channel: 0
  - p0: {x: 0, y: 0.16, z: 0}
    p1: {x: 0.16, y: 0.099999994, z: 0}
    uv0: {x: 0.3798828, y: 0.7265625, z: 0}
    uv1: {x: 0.3828125, y: 0.71875, z: 0}
    flipped: 1
    gradientUv: []
    advance: 0.16
    channel: 0
  - p0: {x: 0, y: 0.19999999, z: 0}
    p1: {x: 0.17999999, y: 0.05999999, z: 0}
    uv0: {x: 0.44726562, y: 0.8222656, z: 0}
    uv1: {x: 0.45410156, y: 0.81347656, z: 0}
    flipped: 1
    gradientUv: []
    advance: 0.16
    channel: 0
  - p0: {x: 0, y: 0.26, z: 0}
    p1: {x: 0.16, y: 0.059999995, z: 0}
    uv0: {x: 0.46484375, y: 0.65722656, z: 0}
    uv1: {x: 0.47265625, y: 0.64746094, z: 0}
    flipped: 0
    gradientUv: []
    advance: 0.16
    channel: 0
  - p0: {x: 0, y: 0.26, z: 0}
    p1: {x: 0.24, y: 0.059999995, z: 0}
    uv0: {x: 0.37402344, y: 0.76953125, z: 0}
    uv1: {x: 0.38378906, y: 0.7578125, z: 0}
    flipped: 1
    gradientUv: []
    advance: 0.24
    channel: 0
  - p0: {x: -0.02, y: 0.26, z: 0}
    p1: {x: 0.19999999, y: 0.059999995, z: 0}
    uv0: {x: 0.3779297, y: 0.8964844, z: 0}
    uv1: {x: 0.3876953, y: 0.8857422, z: 0}
    flipped: 1
    gradientUv: []
    advance: 0.17999999
    channel: 0
  - p0: {x: 0, y: 0.26, z: 0}
    p1: {x: 0.17999999, y: 0.059999995, z: 0}
    uv0: {x: 0.45898438, y: 0.9921875, z: 0}
    uv1: {x: 0.46777344, y: 0.9824219, z: 0}
    flipped: 0
    gradientUv: []
    advance: 0.17999999
    channel: 0
  - p0: {x: 0, y: 0.26, z: 0}
    p1: {x: 0.19999999, y: 0.059999995, z: 0}
    uv0: {x: 0.39746094, y: 0.8125, z: 0}
    uv1: {x: 0.40722656, y: 0.8027344, z: 0}
    flipped: 0
    gradientUv: []
    advance: 0.19999999
    channel: 0
  - p0: {x: 0, y: 0.26, z: 0}
    p1: {x: 0.19999999, y: 0.059999995, z: 0}
    uv0: {x: 0.40722656, y: 0.79589844, z: 0}
    uv1: {x: 0.4169922, y: 0.7861328, z: 0}
    flipped: 0
    gradientUv: []
    advance: 0.19999999
    channel: 0
  - p0: {x: 0, y: 0.26, z: 0}
    p1: {x: 0.17999999, y: 0.059999995, z: 0}
    uv0: {x: 0.4716797, y: 0.9921875, z: 0}
    uv1: {x: 0.48046875, y: 0.9824219, z: 0}
    flipped: 0
    gradientUv: []
    advance: 0.16
    channel: 0
  - p0: {x: 0, y: 0.26, z: 0}
    p1: {x: 0.16, y: 0.059999995, z: 0}
    uv0: {x: 0.46484375, y: 0.67089844, z: 0}
    uv1: {x: 0.47265625, y: 0.6611328, z: 0}
    flipped: 0
    gradientUv: []
    advance: 0.16
    channel: 0
  - p0: {x: 0, y: 0.26, z: 0}
    p1: {x: 0.19999999, y: 0.059999995, z: 0}
    uv0: {x: 0.38378906, y: 0.859375, z: 0}
    uv1: {x: 0.3935547, y: 0.8496094, z: 0}
    flipped: 0
    gradientUv: []
    advance: 0.19999999
    channel: 0
  - p0: {x: 0, y: 0.26, z: 0}
    p1: {x: 0.19999999, y: 0.059999995, z: 0}
    uv0: {x: 0.3935547, y: 0.8730469, z: 0}
    uv1: {x: 0.4033203, y: 0.86328125, z: 0}
    flipped: 0
    gradientUv: []
    advance: 0.19999999
    channel: 0
  - p0: {x: 0, y: 0.26, z: 0}
    p1: {x: 0.06, y: 0.059999995, z: 0}
    uv0: {x: 0.20507812, y: 0.6738281, z: 0}
    uv1: {x: 0.20800781, y: 0.6640625, z: 0}
    flipped: 0
    gradientUv: []
    advance: 0.06
    channel: 0
  - p0: {x: -0.02, y: 0.26, z: 0}
    p1: {x: 0.14, y: 0.059999995, z: 0}
    uv0: {x: 0.4658203, y: 0.6298828, z: 0}
    uv1: {x: 0.4736328, y: 0.6201172, z: 0}
    flipped: 0
    gradientUv: []
    advance: 0.14
    channel: 0
  - p0: {x: 0, y: 0.26, z: 0}
    p1: {x: 0.19999999, y: 0.059999995, z: 0}
    uv0: {x: 0.41015625, y: 0.77441406, z: 0}
    uv1: {x: 0.41992188, y: 0.76464844, z: 0}
    flipped: 0
    gradientUv: []
    advance: 0.17999999
    channel: 0
  - p0: {x: 0, y: 0.26, z: 0}
    p1: {x: 0.16, y: 0.059999995, z: 0}
    uv0: {x: 0.4658203, y: 0.6435547, z: 0}
    uv1: {x: 0.4736328, y: 0.63378906, z: 0}
    flipped: 0
    gradientUv: []
    advance: 0.16
    channel: 0
  - p0: {x: 0, y: 0.26, z: 0}
    p1: {x: 0.24, y: 0.059999995, z: 0}
    uv0: {x: 0.34277344, y: 0.8691406, z: 0}
    uv1: {x: 0.35253906, y: 0.8574219, z: 0}
    flipped: 1
    gradientUv: []
    advance: 0.24
    channel: 0
  - p0: {x: 0, y: 0.26, z: 0}
    p1: {x: 0.19999999, y: 0.059999995, z: 0}
    uv0: {x: 0.41308594, y: 0.7558594, z: 0}
    uv1: {x: 0.42285156, y: 0.74609375, z: 0}
    flipped: 0
    gradientUv: []
    advance: 0.19999999
    channel: 0
  - p0: {x: 0, y: 0.26, z: 0}
    p1: {x: 0.19999999, y: 0.059999995, z: 0}
    uv0: {x: 0.4169922, y: 0.7392578, z: 0}
    uv1: {x: 0.4267578, y: 0.7294922, z: 0}
    flipped: 0
    gradientUv: []
    advance: 0.19999999
    channel: 0
  - p0: {x: 0, y: 0.26, z: 0}
    p1: {x: 0.17999999, y: 0.059999995, z: 0}
    uv0: {x: 0.4482422, y: 0.6904297, z: 0}
    uv1: {x: 0.45703125, y: 0.68066406, z: 0}
    flipped: 0
    gradientUv: []
    advance: 0.17999999
    channel: 0
  - p0: {x: 0, y: 0.26, z: 0}
    p1: {x: 0.19999999, y: 0.039999995, z: 0}
    uv0: {x: 0.36621094, y: 0.88183594, z: 0}
    uv1: {x: 0.37597656, y: 0.87109375, z: 0}
    flipped: 0
    gradientUv: []
    advance: 0.19999999
    channel: 0
  - p0: {x: 0, y: 0.26, z: 0}
    p1: {x: 0.17999999, y: 0.059999995, z: 0}
    uv0: {x: 0.4482422, y: 0.70410156, z: 0}
    uv1: {x: 0.45703125, y: 0.69433594, z: 0}
    flipped: 0
    gradientUv: []
    advance: 0.17999999
    channel: 0
  - p0: {x: 0, y: 0.26, z: 0}
    p1: {x: 0.17999999, y: 0.059999995, z: 0}
    uv0: {x: 0.45214844, y: 0.66308594, z: 0}
    uv1: {x: 0.4609375, y: 0.6533203, z: 0}
    flipped: 0
    gradientUv: []
    advance: 0.17999999
    channel: 0
  - p0: {x: -0.02, y: 0.26, z: 0}
    p1: {x: 0.17999999, y: 0.059999995, z: 0}
    uv0: {x: 0.42871094, y: 0.7216797, z: 0}
    uv1: {x: 0.43847656, y: 0.71191406, z: 0}
    flipped: 0
    gradientUv: []
    advance: 0.16
    channel: 0
  - p0: {x: 0, y: 0.26, z: 0}
    p1: {x: 0.19999999, y: 0.059999995, z: 0}
    uv0: {x: 0.40527344, y: 0.88671875, z: 0}
    uv1: {x: 0.41503906, y: 0.8769531, z: 0}
    flipped: 0
    gradientUv: []
    advance: 0.19999999
    channel: 0
  - p0: {x: -0.02, y: 0.26, z: 0}
    p1: {x: 0.17999999, y: 0.059999995, z: 0}
    uv0: {x: 0.4140625, y: 0.9003906, z: 0}
    uv1: {x: 0.42382812, y: 0.890625, z: 0}
    flipped: 0
    gradientUv: []
    advance: 0.16
    channel: 0
  - p0: {x: -0.02, y: 0.26, z: 0}
    p1: {x: 0.28, y: 0.059999995, z: 0}
    uv0: {x: 0.3046875, y: 0.7109375, z: 0}
    uv1: {x: 0.31445312, y: 0.69628906, z: 0}
    flipped: 1
    gradientUv: []
    advance: 0.26
    channel: 0
  - p0: {x: -0.02, y: 0.26, z: 0}
    p1: {x: 0.17999999, y: 0.059999995, z: 0}
    uv0: {x: 0.41992188, y: 0.9140625, z: 0}
    uv1: {x: 0.4296875, y: 0.9042969, z: 0}
    flipped: 0
    gradientUv: []
    advance: 0.16
    channel: 0
  - p0: {x: -0.02, y: 0.26, z: 0}
    p1: {x: 0.19999999, y: 0.059999995, z: 0}
    uv0: {x: 0.38671875, y: 0.9111328, z: 0}
    uv1: {x: 0.39648438, y: 0.9003906, z: 0}
    flipped: 1
    gradientUv: []
    advance: 0.17999999
    channel: 0
  - p0: {x: -0.02, y: 0.26, z: 0}
    p1: {x: 0.17999999, y: 0.059999995, z: 0}
    uv0: {x: 0.42089844, y: 0.9277344, z: 0}
    uv1: {x: 0.43066406, y: 0.91796875, z: 0}
    flipped: 0
    gradientUv: []
    advance: 0.16
    channel: 0
  - p0: {x: 0, y: 0.26, z: 0}
    p1: {x: 0.08, y: -0.0000000037252903, z: 0}
    uv0: {x: 0.06640625, y: 0.73535156, z: 0}
    uv1: {x: 0.0703125, y: 0.72265625, z: 0}
    flipped: 0
    gradientUv: []
    advance: 0.06
    channel: 0
  - p0: {x: -0.02, y: 0.26, z: 0}
    p1: {x: 0.12, y: 0.059999995, z: 0}
    uv0: {x: 0.46875, y: 0.71777344, z: 0}
    uv1: {x: 0.47558594, y: 0.7080078, z: 0}
    flipped: 0
    gradientUv: []
    advance: 0.099999994
    channel: 0
  - p0: {x: -0.02, y: 0.26, z: 0}
    p1: {x: 0.06, y: -0.0000000037252903, z: 0}
    uv0: {x: 0.03515625, y: 0.75390625, z: 0}
    uv1: {x: 0.0390625, y: 0.74121094, z: 0}
    flipped: 0
    gradientUv: []
    advance: 0.06
    channel: 0
  - p0: {x: 0, y: 0.26, z: 0}
    p1: {x: 0.16, y: 0.13999999, z: 0}
    uv0: {x: 0.19921875, y: 0.9003906, z: 0}
    uv1: {x: 0.20703125, y: 0.89453125, z: 0}
    flipped: 0
    gradientUv: []
    advance: 0.16
    channel: 0
  - p0: {x: -0.02, y: 0.04, z: 0}
    p1: {x: 0.16, y: 0.02, z: 0}
    uv0: {x: 0.12988281, y: 0.45507812, z: 0}
    uv1: {x: 0.13085938, y: 0.44628906, z: 0}
    flipped: 1
    gradientUv: []
    advance: 0.14
    channel: 0
  - p0: {x: -0.02, y: 0.26, z: 0}
    p1: {x: 0.06, y: 0.22, z: 0}
    uv0: {x: 0.3310547, y: 0.7626953, z: 0}
    uv1: {x: 0.3330078, y: 0.75878906, z: 0}
    flipped: 1
    gradientUv: []
    advance: 0.06
    channel: 0
  - p0: {x: 0, y: 0.19999999, z: 0}
    p1: {x: 0.16, y: 0.05999999, z: 0}
    uv0: {x: 0.47070312, y: 0.77246094, z: 0}
    uv1: {x: 0.47753906, y: 0.76464844, z: 0}
    flipped: 1
    gradientUv: []
    advance: 0.14
    channel: 0
  - p0: {x: 0, y: 0.26, z: 0}
    p1: {x: 0.16, y: 0.059999995, z: 0}
    uv0: {x: 0.44726562, y: 0.9082031, z: 0}
    uv1: {x: 0.45507812, y: 0.8984375, z: 0}
    flipped: 0
    gradientUv: []
    advance: 0.16
    channel: 0
  - p0: {x: 0, y: 0.19999999, z: 0}
    p1: {x: 0.14, y: 0.05999999, z: 0}
    uv0: {x: 0.4873047, y: 0.6542969, z: 0}
    uv1: {x: 0.49414062, y: 0.64746094, z: 0}
    flipped: 0
    gradientUv: []
    advance: 0.14
    channel: 0
  - p0: {x: 0, y: 0.26, z: 0}
    p1: {x: 0.16, y: 0.059999995, z: 0}
    uv0: {x: 0.44726562, y: 0.921875, z: 0}
    uv1: {x: 0.45507812, y: 0.9121094, z: 0}
    flipped: 0
    gradientUv: []
    advance: 0.16
    channel: 0
  - p0: {x: 0, y: 0.19999999, z: 0}
    p1: {x: 0.14, y: 0.05999999, z: 0}
    uv0: {x: 0.4873047, y: 0.66503906, z: 0}
    uv1: {x: 0.49414062, y: 0.6582031, z: 0}
    flipped: 0
    gradientUv: []
    advance: 0.14
    channel: 0
  - p0: {x: 0, y: 0.26, z: 0}
    p1: {x: 0.099999994, y: 0.059999995, z: 0}
    uv0: {x: 0.50878906, y: 0.5888672, z: 0}
    uv1: {x: 0.5136719, y: 0.57910156, z: 0}
    flipped: 0
    gradientUv: []
    advance: 0.08
    channel: 0
  - p0: {x: 0, y: 0.19999999, z: 0}
    p1: {x: 0.16, y: -0.000000007450581, z: 0}
    uv0: {x: 0.44921875, y: 0.9355469, z: 0}
    uv1: {x: 0.45703125, y: 0.92578125, z: 0}
    flipped: 0
    gradientUv: []
    advance: 0.16
    channel: 0
  - p0: {x: 0, y: 0.26, z: 0}
    p1: {x: 0.16, y: 0.059999995, z: 0}
    uv0: {x: 0.43554688, y: 0.8300781, z: 0}
    uv1: {x: 0.44335938, y: 0.8203125, z: 0}
    flipped: 0
    gradientUv: []
    advance: 0.16
    channel: 0
  - p0: {x: 0, y: 0.26, z: 0}
    p1: {x: 0.06, y: 0.059999995, z: 0}
    uv0: {x: 0.036132812, y: 0.7001953, z: 0}
    uv1: {x: 0.0390625, y: 0.6904297, z: 0}
    flipped: 0
    gradientUv: []
    advance: 0.06
    channel: 0
  - p0: {x: -0.02, y: 0.26, z: 0}
    p1: {x: 0.06, y: -0.0000000037252903, z: 0}
    uv0: {x: 0.06640625, y: 0.7519531, z: 0}
    uv1: {x: 0.0703125, y: 0.7392578, z: 0}
    flipped: 0
    gradientUv: []
    advance: 0.06
    channel: 0
  - p0: {x: 0, y: 0.26, z: 0}
    p1: {x: 0.16, y: 0.059999995, z: 0}
    uv0: {x: 0.43847656, y: 0.8095703, z: 0}
    uv1: {x: 0.44628906, y: 0.7998047, z: 0}
    flipped: 0
    gradientUv: []
    advance: 0.14
    channel: 0
  - p0: {x: 0, y: 0.26, z: 0}
    p1: {x: 0.06, y: 0.059999995, z: 0}
    uv0: {x: 0.20507812, y: 0.6738281, z: 0}
    uv1: {x: 0.20800781, y: 0.6640625, z: 0}
    flipped: 0
    gradientUv: []
    advance: 0.06
    channel: 0
  - p0: {x: 0, y: 0.19999999, z: 0}
    p1: {x: 0.24, y: 0.05999999, z: 0}
    uv0: {x: 0.21484375, y: 0.9980469, z: 0}
    uv1: {x: 0.2265625, y: 0.99121094, z: 0}
    flipped: 0
    gradientUv: []
    advance: 0.24
    channel: 0
  - p0: {x: 0, y: 0.19999999, z: 0}
    p1: {x: 0.16, y: 0.05999999, z: 0}
    uv0: {x: 0.4736328, y: 0.75683594, z: 0}
    uv1: {x: 0.48046875, y: 0.74902344, z: 0}
    flipped: 1
    gradientUv: []
    advance: 0.16
    channel: 0
  - p0: {x: 0, y: 0.19999999, z: 0}
    p1: {x: 0.16, y: 0.05999999, z: 0}
    uv0: {x: 0.4765625, y: 0.74316406, z: 0}
    uv1: {x: 0.48339844, y: 0.73535156, z: 0}
    flipped: 1
    gradientUv: []
    advance: 0.16
    channel: 0
  - p0: {x: 0, y: 0.19999999, z: 0}
    p1: {x: 0.16, y: -0.000000007450581, z: 0}
    uv0: {x: 0.4482422, y: 0.79296875, z: 0}
    uv1: {x: 0.4560547, y: 0.7832031, z: 0}
    flipped: 0
    gradientUv: []
    advance: 0.16
    channel: 0
  - p0: {x: 0, y: 0.19999999, z: 0}
    p1: {x: 0.16, y: -0.000000007450581, z: 0}
    uv0: {x: 0.45898438, y: 0.7753906, z: 0}
    uv1: {x: 0.46679688, y: 0.765625, z: 0}
    flipped: 0
    gradientUv: []
    advance: 0.16
    channel: 0
  - p0: {x: 0, y: 0.19999999, z: 0}
    p1: {x: 0.099999994, y: 0.05999999, z: 0}
    uv0: {x: 0.21777344, y: 0.890625, z: 0}
    uv1: {x: 0.22460938, y: 0.8857422, z: 0}
    flipped: 1
    gradientUv: []
    advance: 0.08
    channel: 0
  - p0: {x: 0, y: 0.19999999, z: 0}
    p1: {x: 0.14, y: 0.05999999, z: 0}
    uv0: {x: 0.46679688, y: 0.84472656, z: 0}
    uv1: {x: 0.4736328, y: 0.8378906, z: 0}
    flipped: 0
    gradientUv: []
    advance: 0.14
    channel: 0
  - p0: {x: -0.02, y: 0.24, z: 0}
    p1: {x: 0.08, y: 0.06, z: 0}
    uv0: {x: 0.32226562, y: 0.78027344, z: 0}
    uv1: {x: 0.32714844, y: 0.7714844, z: 0}
    flipped: 0
    gradientUv: []
    advance: 0.08
    channel: 0
  - p0: {x: 0, y: 0.19999999, z: 0}
    p1: {x: 0.16, y: 0.05999999, z: 0}
    uv0: {x: 0.47070312, y: 0.7841797, z: 0}
    uv1: {x: 0.47753906, y: 0.7763672, z: 0}
    flipped: 1
    gradientUv: []
    advance: 0.16
    channel: 0
  - p0: {x: -0.02, y: 0.19999999, z: 0}
    p1: {x: 0.14, y: 0.05999999, z: 0}
    uv0: {x: 0.45898438, y: 0.9042969, z: 0}
    uv1: {x: 0.4658203, y: 0.8964844, z: 0}
    flipped: 1
    gradientUv: []
    advance: 0.12
    channel: 0
  - p0: {x: -0.02, y: 0.19999999, z: 0}
    p1: {x: 0.22, y: 0.05999999, z: 0}
    uv0: {x: 0.23046875, y: 0.9980469, z: 0}
    uv1: {x: 0.2421875, y: 0.99121094, z: 0}
    flipped: 0
    gradientUv: []
    advance: 0.19999999
    channel: 0
  - p0: {x: -0.02, y: 0.19999999, z: 0}
    p1: {x: 0.16, y: 0.05999999, z: 0}
    uv0: {x: 0.4501953, y: 0.80566406, z: 0}
    uv1: {x: 0.45703125, y: 0.796875, z: 0}
    flipped: 1
    gradientUv: []
    advance: 0.14
    channel: 0
  - p0: {x: -0.02, y: 0.19999999, z: 0}
    p1: {x: 0.14, y: -0.000000007450581, z: 0}
    uv0: {x: 0.46191406, y: 0.7607422, z: 0}
    uv1: {x: 0.46972656, y: 0.75097656, z: 0}
    flipped: 0
    gradientUv: []
    advance: 0.12
    channel: 0
  - p0: {x: -0.02, y: 0.19999999, z: 0}
    p1: {x: 0.14, y: 0.05999999, z: 0}
    uv0: {x: 0.46484375, y: 0.890625, z: 0}
    uv1: {x: 0.4716797, y: 0.8828125, z: 0}
    flipped: 1
    gradientUv: []
    advance: 0.12
    channel: 0
  - p0: {x: 0.02, y: 0.26, z: 0}
    p1: {x: 0.099999994, y: -0.0000000037252903, z: 0}
    uv0: {x: 0.06640625, y: 0.7685547, z: 0}
    uv1: {x: 0.0703125, y: 0.7558594, z: 0}
    flipped: 0
    gradientUv: []
    advance: 0.099999994
    channel: 0
  - p0: {x: 0, y: 0.28, z: 0}
    p1: {x: 0.06, y: 0.000000007450581, z: 0}
    uv0: {x: 0.20507812, y: 0.56933594, z: 0}
    uv1: {x: 0.20800781, y: 0.55566406, z: 0}
    flipped: 0
    gradientUv: []
    advance: 0.06
    channel: 0
  - p0: {x: 0, y: 0.26, z: 0}
    p1: {x: 0.08, y: -0.0000000037252903, z: 0}
    uv0: {x: 0.06640625, y: 0.78515625, z: 0}
    uv1: {x: 0.0703125, y: 0.77246094, z: 0}
    flipped: 0
    gradientUv: []
    advance: 0.099999994
    channel: 0
  - p0: {x: 0, y: 0.16, z: 0}
    p1: {x: 0.16, y: 0.12, z: 0}
    uv0: {x: 0.19628906, y: 0.74121094, z: 0}
    uv1: {x: 0.19824219, y: 0.73339844, z: 0}
    flipped: 1
    gradientUv: []
    advance: 0.16
    channel: 0
  charDictKeys: 
  charDictValues: []
  fontPlatforms: []
  fontPlatformGUIDs: []
  hasPlatformData: 0
  managedFont: 0
  needMaterialInstance: 0
  isPacked: 0
  premultipliedAlpha: 0
  spriteCollection: {fileID: 11400000, guid: 2cd751c1d1cec47cda106be3d26143c7, type: 2}
  useDictionary: 0
  kerning:
  - c0: 121
    c1: 46
    amount: -0.02
  - c0: 121
    c1: 44
    amount: -0.02
  - c0: 119
    c1: 46
    amount: -0.02
  - c0: 119
    c1: 44
    amount: -0.02
  - c0: 118
    c1: 46
    amount: -0.02
  - c0: 118
    c1: 44
    amount: -0.02
  - c0: 114
    c1: 46
    amount: -0.02
  - c0: 114
    c1: 45
    amount: -0.02
  - c0: 114
    c1: 44
    amount: -0.02
  - c0: 89
    c1: 118
    amount: -0.02
  - c0: 89
    c1: 117
    amount: -0.02
  - c0: 65
    c1: 84
    amount: -0.02
  - c0: 65
    c1: 86
    amount: -0.02
  - c0: 89
    c1: 113
    amount: -0.02
  - c0: 65
    c1: 89
    amount: -0.02
  - c0: 89
    c1: 112
    amount: -0.02
  - c0: 89
    c1: 111
    amount: -0.02
  - c0: 89
    c1: 101
    amount: -0.02
  - c0: 89
    c1: 97
    amount: -0.02
  - c0: 89
    c1: 65
    amount: -0.02
  - c0: 89
    c1: 59
    amount: -0.02
  - c0: 89
    c1: 58
    amount: -0.02
  - c0: 89
    c1: 46
    amount: -0.02
  - c0: 89
    c1: 45
    amount: -0.04
  - c0: 89
    c1: 44
    amount: -0.04
  - c0: 87
    c1: 97
    amount: -0.02
  - c0: 87
    c1: 46
    amount: -0.02
  - c0: 87
    c1: 44
    amount: -0.02
  - c0: 86
    c1: 117
    amount: -0.02
  - c0: 70
    c1: 44
    amount: -0.04
  - c0: 70
    c1: 46
    amount: -0.04
  - c0: 70
    c1: 65
    amount: -0.02
  - c0: 86
    c1: 114
    amount: -0.02
  - c0: 86
    c1: 111
    amount: -0.02
  - c0: 86
    c1: 101
    amount: -0.02
  - c0: 86
    c1: 97
    amount: -0.02
  - c0: 86
    c1: 65
    amount: -0.02
  - c0: 86
    c1: 59
    amount: -0.02
  - c0: 86
    c1: 58
    amount: -0.02
  - c0: 86
    c1: 46
    amount: -0.04
  - c0: 86
    c1: 45
    amount: -0.02
  - c0: 86
    c1: 44
    amount: -0.04
  - c0: 76
    c1: 84
    amount: -0.02
  - c0: 76
    c1: 86
    amount: -0.02
  - c0: 76
    c1: 87
    amount: -0.02
  - c0: 76
    c1: 89
    amount: -0.04
  - c0: 76
    c1: 121
    amount: -0.02
  - c0: 84
    c1: 121
    amount: -0.04
  - c0: 84
    c1: 119
    amount: -0.04
  - c0: 84
    c1: 117
    amount: -0.02
  - c0: 84
    c1: 115
    amount: -0.04
  - c0: 84
    c1: 114
    amount: -0.02
  - c0: 84
    c1: 111
    amount: -0.04
  - c0: 84
    c1: 101
    amount: -0.04
  - c0: 84
    c1: 99
    amount: -0.04
  - c0: 84
    c1: 97
    amount: -0.04
  - c0: 84
    c1: 65
    amount: -0.02
  - c0: 80
    c1: 44
    amount: -0.04
  - c0: 80
    c1: 46
    amount: -0.04
  - c0: 80
    c1: 65
    amount: -0.02
  - c0: 84
    c1: 59
    amount: -0.04
  - c0: 84
    c1: 58
    amount: -0.04
  - c0: 84
    c1: 46
    amount: -0.04
  - c0: 84
    c1: 45
    amount: -0.04
  - c0: 84
    c1: 44
    amount: -0.04
  largestWidth: 0.26
  material: {fileID: 2100000, guid: 2be10acff18be4a628bfc5045e4a014a, type: 2}
  gradientTexture: {fileID: 0}
  textureGradients: 0
  gradientCount: 1
  texelSize: {x: 0.02, y: 0.02}
  invOrthoSize: 0.13020834
  halfTargetHeight: 384
--- !u!1001 &100100000
Prefab:
  m_ObjectHideFlags: 1
  serializedVersion: 2
  m_Modification:
    m_TransformParent: {fileID: 0}
    m_Modifications: []
    m_RemovedComponents: []
  m_ParentPrefab: {fileID: 0}
  m_RootGameObject: {fileID: 100000}
  m_IsPrefabParent: 1
