%YAML 1.1
%TAG !u! tag:unity3d.com,2011:
--- !u!1 &100000
GameObject:
  m_ObjectHideFlags: 0
  m_PrefabParentObject: {fileID: 0}
  m_PrefabInternal: {fileID: 100100000}
  serializedVersion: 5
  m_Component:
  - component: {fileID: 400000}
  - component: {fileID: 11400000}
  m_Layer: 0
  m_Name: 45 Light 18pt 21px data
  m_TagString: Untagged
  m_Icon: {fileID: 0}
  m_NavMeshLayer: 0
  m_StaticEditorFlags: 0
  m_IsActive: 0
--- !u!4 &400000
Transform:
  m_ObjectHideFlags: 1
  m_PrefabParentObject: {fileID: 0}
  m_PrefabInternal: {fileID: 100100000}
  m_GameObject: {fileID: 100000}
  m_LocalRotation: {x: 0, y: 0, z: 0, w: 1}
  m_LocalPosition: {x: 0, y: 0, z: 0}
  m_LocalScale: {x: 1, y: 1, z: 1}
  m_Children: []
  m_Father: {fileID: 0}
  m_RootOrder: 0
  m_LocalEulerAnglesHint: {x: 0, y: 0, z: 0}
--- !u!114 &11400000
MonoBehaviour:
  m_ObjectHideFlags: 1
  m_PrefabParentObject: {fileID: 0}
  m_PrefabInternal: {fileID: 100100000}
  m_GameObject: {fileID: 100000}
  m_Enabled: 1
  m_EditorHideFlags: 0
  m_Script: {fileID: 11500000, guid: 023bfc31841d2f24ba7eb00462467382, type: 3}
  m_Name: 
  m_EditorClassIdentifier: 
  version: 2
  lineHeight: 0.42
  chars:
  - p0: {x: 0, y: 0, z: 0}
    p1: {x: 0, y: 0, z: 0}
    uv0: {x: 0, y: 0, z: 0}
    uv1: {x: 0, y: 0, z: 0}
    flipped: 0
    gradientUv:
    - {x: 0, y: 0}
    - {x: 0, y: 0}
    - {x: 0, y: 0}
    - {x: 0, y: 0}
    advance: 0
    channel: 0
  - p0: {x: 0, y: 0, z: 0}
    p1: {x: 0, y: 0, z: 0}
    uv0: {x: 0, y: 0, z: 0}
    uv1: {x: 0, y: 0, z: 0}
    flipped: 0
    gradientUv:
    - {x: 0, y: 0}
    - {x: 0, y: 0}
    - {x: 0, y: 0}
    - {x: 0, y: 0}
    advance: 0
    channel: 0
  - p0: {x: 0, y: 0, z: 0}
    p1: {x: 0, y: 0, z: 0}
    uv0: {x: 0, y: 0, z: 0}
    uv1: {x: 0, y: 0, z: 0}
    flipped: 0
    gradientUv:
    - {x: 0, y: 0}
    - {x: 0, y: 0}
    - {x: 0, y: 0}
    - {x: 0, y: 0}
    advance: 0
    channel: 0
  - p0: {x: 0, y: 0, z: 0}
    p1: {x: 0, y: 0, z: 0}
    uv0: {x: 0, y: 0, z: 0}
    uv1: {x: 0, y: 0, z: 0}
    flipped: 0
    gradientUv:
    - {x: 0, y: 0}
    - {x: 0, y: 0}
    - {x: 0, y: 0}
    - {x: 0, y: 0}
    advance: 0
    channel: 0
  - p0: {x: 0, y: 0, z: 0}
    p1: {x: 0, y: 0, z: 0}
    uv0: {x: 0, y: 0, z: 0}
    uv1: {x: 0, y: 0, z: 0}
    flipped: 0
    gradientUv:
    - {x: 0, y: 0}
    - {x: 0, y: 0}
    - {x: 0, y: 0}
    - {x: 0, y: 0}
    advance: 0
    channel: 0
  - p0: {x: 0, y: 0, z: 0}
    p1: {x: 0, y: 0, z: 0}
    uv0: {x: 0, y: 0, z: 0}
    uv1: {x: 0, y: 0, z: 0}
    flipped: 0
    gradientUv:
    - {x: 0, y: 0}
    - {x: 0, y: 0}
    - {x: 0, y: 0}
    - {x: 0, y: 0}
    advance: 0
    channel: 0
  - p0: {x: 0, y: 0, z: 0}
    p1: {x: 0, y: 0, z: 0}
    uv0: {x: 0, y: 0, z: 0}
    uv1: {x: 0, y: 0, z: 0}
    flipped: 0
    gradientUv:
    - {x: 0, y: 0}
    - {x: 0, y: 0}
    - {x: 0, y: 0}
    - {x: 0, y: 0}
    advance: 0
    channel: 0
  - p0: {x: 0, y: 0, z: 0}
    p1: {x: 0, y: 0, z: 0}
    uv0: {x: 0, y: 0, z: 0}
    uv1: {x: 0, y: 0, z: 0}
    flipped: 0
    gradientUv:
    - {x: 0, y: 0}
    - {x: 0, y: 0}
    - {x: 0, y: 0}
    - {x: 0, y: 0}
    advance: 0
    channel: 0
  - p0: {x: 0, y: 0, z: 0}
    p1: {x: 0, y: 0, z: 0}
    uv0: {x: 0, y: 0, z: 0}
    uv1: {x: 0, y: 0, z: 0}
    flipped: 0
    gradientUv:
    - {x: 0, y: 0}
    - {x: 0, y: 0}
    - {x: 0, y: 0}
    - {x: 0, y: 0}
    advance: 0
    channel: 0
  - p0: {x: 0, y: 0, z: 0}
    p1: {x: 0, y: 0, z: 0}
    uv0: {x: 0, y: 0, z: 0}
    uv1: {x: 0, y: 0, z: 0}
    flipped: 0
    gradientUv:
    - {x: 0, y: 0}
    - {x: 0, y: 0}
    - {x: 0, y: 0}
    - {x: 0, y: 0}
    advance: 0
    channel: 0
  - p0: {x: 0, y: 0, z: 0}
    p1: {x: 0, y: 0, z: 0}
    uv0: {x: 0, y: 0, z: 0}
    uv1: {x: 0, y: 0, z: 0}
    flipped: 0
    gradientUv:
    - {x: 0, y: 0}
    - {x: 0, y: 0}
    - {x: 0, y: 0}
    - {x: 0, y: 0}
    advance: 0
    channel: 0
  - p0: {x: 0, y: 0, z: 0}
    p1: {x: 0, y: 0, z: 0}
    uv0: {x: 0, y: 0, z: 0}
    uv1: {x: 0, y: 0, z: 0}
    flipped: 0
    gradientUv:
    - {x: 0, y: 0}
    - {x: 0, y: 0}
    - {x: 0, y: 0}
    - {x: 0, y: 0}
    advance: 0
    channel: 0
  - p0: {x: 0, y: 0, z: 0}
    p1: {x: 0, y: 0, z: 0}
    uv0: {x: 0, y: 0, z: 0}
    uv1: {x: 0, y: 0, z: 0}
    flipped: 0
    gradientUv:
    - {x: 0, y: 0}
    - {x: 0, y: 0}
    - {x: 0, y: 0}
    - {x: 0, y: 0}
    advance: 0
    channel: 0
  - p0: {x: 0, y: 0, z: 0}
    p1: {x: 0, y: 0, z: 0}
    uv0: {x: 0, y: 0, z: 0}
    uv1: {x: 0, y: 0, z: 0}
    flipped: 0
    gradientUv:
    - {x: 0, y: 0}
    - {x: 0, y: 0}
    - {x: 0, y: 0}
    - {x: 0, y: 0}
    advance: 0
    channel: 0
  - p0: {x: 0, y: 0, z: 0}
    p1: {x: 0, y: 0, z: 0}
    uv0: {x: 0, y: 0, z: 0}
    uv1: {x: 0, y: 0, z: 0}
    flipped: 0
    gradientUv:
    - {x: 0, y: 0}
    - {x: 0, y: 0}
    - {x: 0, y: 0}
    - {x: 0, y: 0}
    advance: 0
    channel: 0
  - p0: {x: 0, y: 0, z: 0}
    p1: {x: 0, y: 0, z: 0}
    uv0: {x: 0, y: 0, z: 0}
    uv1: {x: 0, y: 0, z: 0}
    flipped: 0
    gradientUv:
    - {x: 0, y: 0}
    - {x: 0, y: 0}
    - {x: 0, y: 0}
    - {x: 0, y: 0}
    advance: 0
    channel: 0
  - p0: {x: 0, y: 0, z: 0}
    p1: {x: 0, y: 0, z: 0}
    uv0: {x: 0, y: 0, z: 0}
    uv1: {x: 0, y: 0, z: 0}
    flipped: 0
    gradientUv:
    - {x: 0, y: 0}
    - {x: 0, y: 0}
    - {x: 0, y: 0}
    - {x: 0, y: 0}
    advance: 0
    channel: 0
  - p0: {x: 0, y: 0, z: 0}
    p1: {x: 0, y: 0, z: 0}
    uv0: {x: 0, y: 0, z: 0}
    uv1: {x: 0, y: 0, z: 0}
    flipped: 0
    gradientUv:
    - {x: 0, y: 0}
    - {x: 0, y: 0}
    - {x: 0, y: 0}
    - {x: 0, y: 0}
    advance: 0
    channel: 0
  - p0: {x: 0, y: 0, z: 0}
    p1: {x: 0, y: 0, z: 0}
    uv0: {x: 0, y: 0, z: 0}
    uv1: {x: 0, y: 0, z: 0}
    flipped: 0
    gradientUv:
    - {x: 0, y: 0}
    - {x: 0, y: 0}
    - {x: 0, y: 0}
    - {x: 0, y: 0}
    advance: 0
    channel: 0
  - p0: {x: 0, y: 0, z: 0}
    p1: {x: 0, y: 0, z: 0}
    uv0: {x: 0, y: 0, z: 0}
    uv1: {x: 0, y: 0, z: 0}
    flipped: 0
    gradientUv:
    - {x: 0, y: 0}
    - {x: 0, y: 0}
    - {x: 0, y: 0}
    - {x: 0, y: 0}
    advance: 0
    channel: 0
  - p0: {x: 0, y: 0, z: 0}
    p1: {x: 0, y: 0, z: 0}
    uv0: {x: 0, y: 0, z: 0}
    uv1: {x: 0, y: 0, z: 0}
    flipped: 0
    gradientUv:
    - {x: 0, y: 0}
    - {x: 0, y: 0}
    - {x: 0, y: 0}
    - {x: 0, y: 0}
    advance: 0
    channel: 0
  - p0: {x: 0, y: 0, z: 0}
    p1: {x: 0, y: 0, z: 0}
    uv0: {x: 0, y: 0, z: 0}
    uv1: {x: 0, y: 0, z: 0}
    flipped: 0
    gradientUv:
    - {x: 0, y: 0}
    - {x: 0, y: 0}
    - {x: 0, y: 0}
    - {x: 0, y: 0}
    advance: 0
    channel: 0
  - p0: {x: 0, y: 0, z: 0}
    p1: {x: 0, y: 0, z: 0}
    uv0: {x: 0, y: 0, z: 0}
    uv1: {x: 0, y: 0, z: 0}
    flipped: 0
    gradientUv:
    - {x: 0, y: 0}
    - {x: 0, y: 0}
    - {x: 0, y: 0}
    - {x: 0, y: 0}
    advance: 0
    channel: 0
  - p0: {x: 0, y: 0, z: 0}
    p1: {x: 0, y: 0, z: 0}
    uv0: {x: 0, y: 0, z: 0}
    uv1: {x: 0, y: 0, z: 0}
    flipped: 0
    gradientUv:
    - {x: 0, y: 0}
    - {x: 0, y: 0}
    - {x: 0, y: 0}
    - {x: 0, y: 0}
    advance: 0
    channel: 0
  - p0: {x: 0, y: 0, z: 0}
    p1: {x: 0, y: 0, z: 0}
    uv0: {x: 0, y: 0, z: 0}
    uv1: {x: 0, y: 0, z: 0}
    flipped: 0
    gradientUv:
    - {x: 0, y: 0}
    - {x: 0, y: 0}
    - {x: 0, y: 0}
    - {x: 0, y: 0}
    advance: 0
    channel: 0
  - p0: {x: 0, y: 0, z: 0}
    p1: {x: 0, y: 0, z: 0}
    uv0: {x: 0, y: 0, z: 0}
    uv1: {x: 0, y: 0, z: 0}
    flipped: 0
    gradientUv:
    - {x: 0, y: 0}
    - {x: 0, y: 0}
    - {x: 0, y: 0}
    - {x: 0, y: 0}
    advance: 0
    channel: 0
  - p0: {x: 0, y: 0, z: 0}
    p1: {x: 0, y: 0, z: 0}
    uv0: {x: 0, y: 0, z: 0}
    uv1: {x: 0, y: 0, z: 0}
    flipped: 0
    gradientUv:
    - {x: 0, y: 0}
    - {x: 0, y: 0}
    - {x: 0, y: 0}
    - {x: 0, y: 0}
    advance: 0
    channel: 0
  - p0: {x: 0, y: 0, z: 0}
    p1: {x: 0, y: 0, z: 0}
    uv0: {x: 0, y: 0, z: 0}
    uv1: {x: 0, y: 0, z: 0}
    flipped: 0
    gradientUv:
    - {x: 0, y: 0}
    - {x: 0, y: 0}
    - {x: 0, y: 0}
    - {x: 0, y: 0}
    advance: 0
    channel: 0
  - p0: {x: 0, y: 0, z: 0}
    p1: {x: 0, y: 0, z: 0}
    uv0: {x: 0, y: 0, z: 0}
    uv1: {x: 0, y: 0, z: 0}
    flipped: 0
    gradientUv:
    - {x: 0, y: 0}
    - {x: 0, y: 0}
    - {x: 0, y: 0}
    - {x: 0, y: 0}
    advance: 0
    channel: 0
  - p0: {x: 0, y: 0, z: 0}
    p1: {x: 0, y: 0, z: 0}
    uv0: {x: 0, y: 0, z: 0}
    uv1: {x: 0, y: 0, z: 0}
    flipped: 0
    gradientUv:
    - {x: 0, y: 0}
    - {x: 0, y: 0}
    - {x: 0, y: 0}
    - {x: 0, y: 0}
    advance: 0
    channel: 0
  - p0: {x: 0, y: 0, z: 0}
    p1: {x: 0, y: 0, z: 0}
    uv0: {x: 0, y: 0, z: 0}
    uv1: {x: 0, y: 0, z: 0}
    flipped: 0
    gradientUv:
    - {x: 0, y: 0}
    - {x: 0, y: 0}
    - {x: 0, y: 0}
    - {x: 0, y: 0}
    advance: 0
    channel: 0
  - p0: {x: 0, y: 0, z: 0}
    p1: {x: 0, y: 0, z: 0}
    uv0: {x: 0, y: 0, z: 0}
    uv1: {x: 0, y: 0, z: 0}
    flipped: 0
    gradientUv:
    - {x: 0, y: 0}
    - {x: 0, y: 0}
    - {x: 0, y: 0}
    - {x: 0, y: 0}
    advance: 0
    channel: 0
  - p0: {x: -0.02, y: 0.02, z: 0}
    p1: {x: -0.02, y: 0.02, z: 0}
    uv0: {x: 0.5605469, y: 0.4326172, z: 0}
    uv1: {x: 0.5605469, y: 0.4326172, z: 0}
    flipped: 0
    gradientUv: []
    advance: 0.099999994
    channel: 0
  - p0: {x: 0.02, y: 0.34, z: 0}
    p1: {x: 0.08, y: 0.08000001, z: 0}
    uv0: {x: 0.41503906, y: 0.53222656, z: 0}
    uv1: {x: 0.41796875, y: 0.51953125, z: 0}
    flipped: 0
    gradientUv: []
    advance: 0.08
    channel: 0
  - p0: {x: 0.02, y: 0.34, z: 0}
    p1: {x: 0.12, y: 0.24000001, z: 0}
    uv0: {x: 0.23339844, y: 0.88183594, z: 0}
    uv1: {x: 0.23828125, y: 0.8769531, z: 0}
    flipped: 0
    gradientUv: []
    advance: 0.14
    channel: 0
  - p0: {x: 0, y: 0.32, z: 0}
    p1: {x: 0.19999999, y: 0.08, z: 0}
    uv0: {x: 0.37597656, y: 0.9902344, z: 0}
    uv1: {x: 0.3857422, y: 0.9785156, z: 0}
    flipped: 0
    gradientUv: []
    advance: 0.19999999
    channel: 0
  - p0: {x: 0, y: 0.38, z: 0}
    p1: {x: 0.19999999, y: 0.040000003, z: 0}
    uv0: {x: 0.3046875, y: 0.6923828, z: 0}
    uv1: {x: 0.31445312, y: 0.67578125, z: 0}
    flipped: 0
    gradientUv: []
    advance: 0.19999999
    channel: 0
  - p0: {x: 0, y: 0.34, z: 0}
    p1: {x: 0.32, y: 0.06000001, z: 0}
    uv0: {x: 0.19140625, y: 0.9511719, z: 0}
    uv1: {x: 0.20703125, y: 0.9375, z: 0}
    flipped: 0
    gradientUv: []
    advance: 0.32
    channel: 0
  - p0: {x: 0, y: 0.34, z: 0}
    p1: {x: 0.24, y: 0.08000001, z: 0}
    uv0: {x: 0.296875, y: 0.859375, z: 0}
    uv1: {x: 0.30859375, y: 0.8466797, z: 0}
    flipped: 0
    gradientUv: []
    advance: 0.22
    channel: 0
  - p0: {x: 0.02, y: 0.34, z: 0}
    p1: {x: 0.08, y: 0.24000001, z: 0}
    uv0: {x: 0.17871094, y: 0.84765625, z: 0}
    uv1: {x: 0.18164062, y: 0.84277344, z: 0}
    flipped: 0
    gradientUv: []
    advance: 0.099999994
    channel: 0
  - p0: {x: 0, y: 0.34, z: 0}
    p1: {x: 0.099999994, y: 0.02000001, z: 0}
    uv0: {x: 0.27539062, y: 0.65722656, z: 0}
    uv1: {x: 0.28027344, y: 0.64160156, z: 0}
    flipped: 0
    gradientUv: []
    advance: 0.08
    channel: 0
  - p0: {x: -0.02, y: 0.34, z: 0}
    p1: {x: 0.08, y: 0.02000001, z: 0}
    uv0: {x: 0.026367188, y: 0.75, z: 0}
    uv1: {x: 0.03125, y: 0.734375, z: 0}
    flipped: 0
    gradientUv: []
    advance: 0.08
    channel: 0
  - p0: {x: 0, y: 0.34, z: 0}
    p1: {x: 0.12, y: 0.24000001, z: 0}
    uv0: {x: 0.23339844, y: 0.9003906, z: 0}
    uv1: {x: 0.23828125, y: 0.89453125, z: 0}
    flipped: 1
    gradientUv: []
    advance: 0.12
    channel: 0
  - p0: {x: 0, y: 0.26, z: 0}
    p1: {x: 0.22, y: 0.08, z: 0}
    uv0: {x: 0.4423828, y: 0.7207031, z: 0}
    uv1: {x: 0.453125, y: 0.71191406, z: 0}
    flipped: 0
    gradientUv: []
    advance: 0.22
    channel: 0
  - p0: {x: 0.02, y: 0.12, z: 0}
    p1: {x: 0.08, y: 0.04, z: 0}
    uv0: {x: 0.21972656, y: 0.88183594, z: 0}
    uv1: {x: 0.22265625, y: 0.8779297, z: 0}
    flipped: 0
    gradientUv: []
    advance: 0.099999994
    channel: 0
  - p0: {x: 0, y: 0.17999999, z: 0}
    p1: {x: 0.12, y: 0.16, z: 0}
    uv0: {x: 0.12988281, y: 0.47558594, z: 0}
    uv1: {x: 0.13085938, y: 0.46972656, z: 0}
    flipped: 1
    gradientUv: []
    advance: 0.14
    channel: 0
  - p0: {x: 0.02, y: 0.12, z: 0}
    p1: {x: 0.08, y: 0.08, z: 0}
    uv0: {x: 0.3310547, y: 0.7910156, z: 0}
    uv1: {x: 0.3330078, y: 0.78808594, z: 0}
    flipped: 1
    gradientUv: []
    advance: 0.099999994
    channel: 0
  - p0: {x: -0.02, y: 0.34, z: 0}
    p1: {x: 0.14, y: 0.08000001, z: 0}
    uv0: {x: 0.2421875, y: 0.9003906, z: 0}
    uv1: {x: 0.2548828, y: 0.8925781, z: 0}
    flipped: 1
    gradientUv: []
    advance: 0.12
    channel: 0
  - p0: {x: 0, y: 0.34, z: 0}
    p1: {x: 0.19999999, y: 0.08000001, z: 0}
    uv0: {x: 0.33789062, y: 0.82128906, z: 0}
    uv1: {x: 0.34765625, y: 0.80859375, z: 0}
    flipped: 0
    gradientUv: []
    advance: 0.19999999
    channel: 0
  - p0: {x: 0.02, y: 0.34, z: 0}
    p1: {x: 0.14, y: 0.08000001, z: 0}
    uv0: {x: 0.09472656, y: 0.8300781, z: 0}
    uv1: {x: 0.10058594, y: 0.8173828, z: 0}
    flipped: 0
    gradientUv: []
    advance: 0.19999999
    channel: 0
  - p0: {x: 0, y: 0.34, z: 0}
    p1: {x: 0.19999999, y: 0.08000001, z: 0}
    uv0: {x: 0.3232422, y: 0.9091797, z: 0}
    uv1: {x: 0.3330078, y: 0.8964844, z: 0}
    flipped: 0
    gradientUv: []
    advance: 0.19999999
    channel: 0
  - p0: {x: 0, y: 0.34, z: 0}
    p1: {x: 0.19999999, y: 0.08000001, z: 0}
    uv0: {x: 0.3251953, y: 0.8925781, z: 0}
    uv1: {x: 0.33496094, y: 0.8798828, z: 0}
    flipped: 0
    gradientUv: []
    advance: 0.19999999
    channel: 0
  - p0: {x: 0, y: 0.34, z: 0}
    p1: {x: 0.19999999, y: 0.08000001, z: 0}
    uv0: {x: 0.32910156, y: 0.87597656, z: 0}
    uv1: {x: 0.3388672, y: 0.86328125, z: 0}
    flipped: 0
    gradientUv: []
    advance: 0.19999999
    channel: 0
  - p0: {x: 0, y: 0.32, z: 0}
    p1: {x: 0.19999999, y: 0.08, z: 0}
    uv0: {x: 0.3798828, y: 0.9736328, z: 0}
    uv1: {x: 0.38964844, y: 0.96191406, z: 0}
    flipped: 0
    gradientUv: []
    advance: 0.19999999
    channel: 0
  - p0: {x: 0, y: 0.34, z: 0}
    p1: {x: 0.19999999, y: 0.08000001, z: 0}
    uv0: {x: 0.33203125, y: 0.92578125, z: 0}
    uv1: {x: 0.34179688, y: 0.91308594, z: 0}
    flipped: 0
    gradientUv: []
    advance: 0.19999999
    channel: 0
  - p0: {x: 0, y: 0.34, z: 0}
    p1: {x: 0.19999999, y: 0.08000001, z: 0}
    uv0: {x: 0.33691406, y: 0.9091797, z: 0}
    uv1: {x: 0.3466797, y: 0.8964844, z: 0}
    flipped: 0
    gradientUv: []
    advance: 0.19999999
    channel: 0
  - p0: {x: 0, y: 0.34, z: 0}
    p1: {x: 0.19999999, y: 0.08000001, z: 0}
    uv0: {x: 0.3388672, y: 0.8925781, z: 0}
    uv1: {x: 0.3486328, y: 0.8798828, z: 0}
    flipped: 0
    gradientUv: []
    advance: 0.19999999
    channel: 0
  - p0: {x: 0, y: 0.34, z: 0}
    p1: {x: 0.19999999, y: 0.08000001, z: 0}
    uv0: {x: 0.33789062, y: 0.9423828, z: 0}
    uv1: {x: 0.34765625, y: 0.9296875, z: 0}
    flipped: 0
    gradientUv: []
    advance: 0.19999999
    channel: 0
  - p0: {x: 0.02, y: 0.26, z: 0}
    p1: {x: 0.08, y: 0.08, z: 0}
    uv0: {x: 0.036132812, y: 0.7128906, z: 0}
    uv1: {x: 0.0390625, y: 0.70410156, z: 0}
    flipped: 0
    gradientUv: []
    advance: 0.099999994
    channel: 0
  - p0: {x: 0.02, y: 0.26, z: 0}
    p1: {x: 0.08, y: 0.039999995, z: 0}
    uv0: {x: 0.41503906, y: 0.546875, z: 0}
    uv1: {x: 0.41796875, y: 0.5361328, z: 0}
    flipped: 0
    gradientUv: []
    advance: 0.099999994
    channel: 0
  - p0: {x: 0, y: 0.26, z: 0}
    p1: {x: 0.22, y: 0.08, z: 0}
    uv0: {x: 0.44628906, y: 0.9511719, z: 0}
    uv1: {x: 0.45703125, y: 0.9423828, z: 0}
    flipped: 0
    gradientUv: []
    advance: 0.22
    channel: 0
  - p0: {x: 0, y: 0.22, z: 0}
    p1: {x: 0.22, y: 0.120000005, z: 0}
    uv0: {x: 0.50878906, y: 0.56152344, z: 0}
    uv1: {x: 0.5136719, y: 0.55078125, z: 0}
    flipped: 1
    gradientUv: []
    advance: 0.22
    channel: 0
  - p0: {x: 0, y: 0.26, z: 0}
    p1: {x: 0.22, y: 0.08, z: 0}
    uv0: {x: 0.4482422, y: 0.9658203, z: 0}
    uv1: {x: 0.45703125, y: 0.9550781, z: 0}
    flipped: 1
    gradientUv: []
    advance: 0.22
    channel: 0
  - p0: {x: 0, y: 0.34, z: 0}
    p1: {x: 0.19999999, y: 0.08000001, z: 0}
    uv0: {x: 0.34570312, y: 0.92578125, z: 0}
    uv1: {x: 0.35546875, y: 0.91308594, z: 0}
    flipped: 0
    gradientUv: []
    advance: 0.19999999
    channel: 0
  - p0: {x: 0, y: 0.34, z: 0}
    p1: {x: 0.28, y: 0.08000001, z: 0}
    uv0: {x: 0.25976562, y: 0.96777344, z: 0}
    uv1: {x: 0.27246094, y: 0.95410156, z: 0}
    flipped: 1
    gradientUv: []
    advance: 0.28
    channel: 0
  - p0: {x: -0.02, y: 0.34, z: 0}
    p1: {x: 0.24, y: 0.08000001, z: 0}
    uv0: {x: 0.265625, y: 0.8857422, z: 0}
    uv1: {x: 0.2783203, y: 0.8730469, z: 0}
    flipped: 0
    gradientUv: []
    advance: 0.22
    channel: 0
  - p0: {x: 0.02, y: 0.34, z: 0}
    p1: {x: 0.24, y: 0.08000001, z: 0}
    uv0: {x: 0.3359375, y: 0.9638672, z: 0}
    uv1: {x: 0.3466797, y: 0.9511719, z: 0}
    flipped: 0
    gradientUv: []
    advance: 0.24
    channel: 0
  - p0: {x: 0, y: 0.34, z: 0}
    p1: {x: 0.26, y: 0.08000001, z: 0}
    uv0: {x: 0.28027344, y: 0.86816406, z: 0}
    uv1: {x: 0.29296875, y: 0.85546875, z: 0}
    flipped: 0
    gradientUv: []
    advance: 0.26
    channel: 0
  - p0: {x: 0.02, y: 0.34, z: 0}
    p1: {x: 0.24, y: 0.08000001, z: 0}
    uv0: {x: 0.33789062, y: 0.98046875, z: 0}
    uv1: {x: 0.3486328, y: 0.96777344, z: 0}
    flipped: 0
    gradientUv: []
    advance: 0.24
    channel: 0
  - p0: {x: 0.02, y: 0.34, z: 0}
    p1: {x: 0.22, y: 0.08000001, z: 0}
    uv0: {x: 0.35058594, y: 0.9091797, z: 0}
    uv1: {x: 0.36035156, y: 0.8964844, z: 0}
    flipped: 0
    gradientUv: []
    advance: 0.22
    channel: 0
  - p0: {x: 0.02, y: 0.34, z: 0}
    p1: {x: 0.19999999, y: 0.08000001, z: 0}
    uv0: {x: 0.33691406, y: 0.8046875, z: 0}
    uv1: {x: 0.34960938, y: 0.79589844, z: 0}
    flipped: 1
    gradientUv: []
    advance: 0.19999999
    channel: 0
  - p0: {x: 0, y: 0.34, z: 0}
    p1: {x: 0.26, y: 0.08000001, z: 0}
    uv0: {x: 0.28320312, y: 0.84277344, z: 0}
    uv1: {x: 0.29589844, y: 0.8300781, z: 0}
    flipped: 0
    gradientUv: []
    advance: 0.26
    channel: 0
  - p0: {x: 0.02, y: 0.34, z: 0}
    p1: {x: 0.24, y: 0.08000001, z: 0}
    uv0: {x: 0.3466797, y: 0.9970703, z: 0}
    uv1: {x: 0.35742188, y: 0.984375, z: 0}
    flipped: 0
    gradientUv: []
    advance: 0.26
    channel: 0
  - p0: {x: 0.02, y: 0.34, z: 0}
    p1: {x: 0.06, y: 0.08000001, z: 0}
    uv0: {x: 0.24414062, y: 0.5292969, z: 0}
    uv1: {x: 0.24609375, y: 0.51660156, z: 0}
    flipped: 0
    gradientUv: []
    advance: 0.08
    channel: 0
  - p0: {x: 0, y: 0.34, z: 0}
    p1: {x: 0.17999999, y: 0.08000001, z: 0}
    uv0: {x: 0.36523438, y: 0.8173828, z: 0}
    uv1: {x: 0.3779297, y: 0.80859375, z: 0}
    flipped: 1
    gradientUv: []
    advance: 0.17999999
    channel: 0
  - p0: {x: 0.02, y: 0.34, z: 0}
    p1: {x: 0.26, y: 0.08000001, z: 0}
    uv0: {x: 0.2998047, y: 0.84277344, z: 0}
    uv1: {x: 0.31152344, y: 0.8300781, z: 0}
    flipped: 0
    gradientUv: []
    advance: 0.24
    channel: 0
  - p0: {x: 0.02, y: 0.34, z: 0}
    p1: {x: 0.22, y: 0.08000001, z: 0}
    uv0: {x: 0.35058594, y: 0.9589844, z: 0}
    uv1: {x: 0.36035156, y: 0.94628906, z: 0}
    flipped: 0
    gradientUv: []
    advance: 0.19999999
    channel: 0
  - p0: {x: 0, y: 0.34, z: 0}
    p1: {x: 0.29999998, y: 0.08000001, z: 0}
    uv0: {x: 0.22949219, y: 0.8730469, z: 0}
    uv1: {x: 0.24414062, y: 0.86035156, z: 0}
    flipped: 0
    gradientUv: []
    advance: 0.29999998
    channel: 0
  - p0: {x: 0.02, y: 0.34, z: 0}
    p1: {x: 0.24, y: 0.08000001, z: 0}
    uv0: {x: 0.31054688, y: 0.8925781, z: 0}
    uv1: {x: 0.32128906, y: 0.8798828, z: 0}
    flipped: 0
    gradientUv: []
    advance: 0.26
    channel: 0
  - p0: {x: 0, y: 0.34, z: 0}
    p1: {x: 0.26, y: 0.08000001, z: 0}
    uv0: {x: 0.2626953, y: 0.984375, z: 0}
    uv1: {x: 0.27539062, y: 0.9716797, z: 0}
    flipped: 0
    gradientUv: []
    advance: 0.26
    channel: 0
  - p0: {x: 0, y: 0.34, z: 0}
    p1: {x: 0.22, y: 0.08000001, z: 0}
    uv0: {x: 0.31445312, y: 0.87597656, z: 0}
    uv1: {x: 0.3251953, y: 0.86328125, z: 0}
    flipped: 0
    gradientUv: []
    advance: 0.22
    channel: 0
  - p0: {x: 0, y: 0.34, z: 0}
    p1: {x: 0.26, y: 0.06000001, z: 0}
    uv0: {x: 0.22949219, y: 0.9326172, z: 0}
    uv1: {x: 0.2421875, y: 0.9189453, z: 0}
    flipped: 0
    gradientUv: []
    advance: 0.26
    channel: 0
  - p0: {x: 0.02, y: 0.34, z: 0}
    p1: {x: 0.24, y: 0.08000001, z: 0}
    uv0: {x: 0.328125, y: 0.859375, z: 0}
    uv1: {x: 0.3388672, y: 0.8466797, z: 0}
    flipped: 0
    gradientUv: []
    advance: 0.24
    channel: 0
  - p0: {x: 0, y: 0.34, z: 0}
    p1: {x: 0.22, y: 0.08000001, z: 0}
    uv0: {x: 0.3310547, y: 0.8378906, z: 0}
    uv1: {x: 0.34179688, y: 0.8251953, z: 0}
    flipped: 0
    gradientUv: []
    advance: 0.22
    channel: 0
  - p0: {x: -0.02, y: 0.34, z: 0}
    p1: {x: 0.22, y: 0.08000001, z: 0}
    uv0: {x: 0.29882812, y: 0.87597656, z: 0}
    uv1: {x: 0.31054688, y: 0.86328125, z: 0}
    flipped: 0
    gradientUv: []
    advance: 0.19999999
    channel: 0
  - p0: {x: 0, y: 0.34, z: 0}
    p1: {x: 0.24, y: 0.08000001, z: 0}
    uv0: {x: 0.3125, y: 0.859375, z: 0}
    uv1: {x: 0.32421875, y: 0.8466797, z: 0}
    flipped: 0
    gradientUv: []
    advance: 0.24
    channel: 0
  - p0: {x: -0.02, y: 0.34, z: 0}
    p1: {x: 0.24, y: 0.08000001, z: 0}
    uv0: {x: 0.2626953, y: 0.9316406, z: 0}
    uv1: {x: 0.27539062, y: 0.9189453, z: 0}
    flipped: 0
    gradientUv: []
    advance: 0.22
    channel: 0
  - p0: {x: -0.02, y: 0.34, z: 0}
    p1: {x: 0.34, y: 0.08000001, z: 0}
    uv0: {x: 0.072265625, y: 0.9970703, z: 0}
    uv1: {x: 0.08496094, y: 0.9794922, z: 0}
    flipped: 1
    gradientUv: []
    advance: 0.32
    channel: 0
  - p0: {x: -0.02, y: 0.34, z: 0}
    p1: {x: 0.22, y: 0.08000001, z: 0}
    uv0: {x: 0.3154297, y: 0.84277344, z: 0}
    uv1: {x: 0.32714844, y: 0.8300781, z: 0}
    flipped: 0
    gradientUv: []
    advance: 0.19999999
    channel: 0
  - p0: {x: -0.02, y: 0.34, z: 0}
    p1: {x: 0.24, y: 0.08000001, z: 0}
    uv0: {x: 0.28222656, y: 0.8847656, z: 0}
    uv1: {x: 0.29492188, y: 0.8720703, z: 0}
    flipped: 0
    gradientUv: []
    advance: 0.22
    channel: 0
  - p0: {x: -0.02, y: 0.34, z: 0}
    p1: {x: 0.22, y: 0.08000001, z: 0}
    uv0: {x: 0.32226562, y: 0.82128906, z: 0}
    uv1: {x: 0.33398438, y: 0.80859375, z: 0}
    flipped: 0
    gradientUv: []
    advance: 0.19999999
    channel: 0
  - p0: {x: 0, y: 0.34, z: 0}
    p1: {x: 0.099999994, y: 0.02000001, z: 0}
    uv0: {x: 0.026367188, y: 0.76953125, z: 0}
    uv1: {x: 0.03125, y: 0.75390625, z: 0}
    flipped: 0
    gradientUv: []
    advance: 0.08
    channel: 0
  - p0: {x: -0.02, y: 0.34, z: 0}
    p1: {x: 0.14, y: 0.08000001, z: 0}
    uv0: {x: 0.25878906, y: 0.9003906, z: 0}
    uv1: {x: 0.27148438, y: 0.8925781, z: 0}
    flipped: 1
    gradientUv: []
    advance: 0.12
    channel: 0
  - p0: {x: -0.02, y: 0.34, z: 0}
    p1: {x: 0.08, y: 0.02000001, z: 0}
    uv0: {x: 0.095703125, y: 0.7939453, z: 0}
    uv1: {x: 0.10058594, y: 0.7783203, z: 0}
    flipped: 0
    gradientUv: []
    advance: 0.08
    channel: 0
  - p0: {x: 0, y: 0.32, z: 0}
    p1: {x: 0.22, y: 0.17999999, z: 0}
    uv0: {x: 0.37890625, y: 0.9423828, z: 0}
    uv1: {x: 0.38964844, y: 0.9355469, z: 0}
    flipped: 0
    gradientUv: []
    advance: 0.22
    channel: 0
  - p0: {x: -0.02, y: 0.06, z: 0}
    p1: {x: 0.19999999, y: 0.04, z: 0}
    uv0: {x: 0.12988281, y: 0.41503906, z: 0}
    uv1: {x: 0.13085938, y: 0.40429688, z: 0}
    flipped: 1
    gradientUv: []
    advance: 0.17999999
    channel: 0
  - p0: {x: -0.04, y: 0.34, z: 0}
    p1: {x: 0.06, y: 0.3, z: 0}
    uv0: {x: 0.103515625, y: 0.7480469, z: 0}
    uv1: {x: 0.10546875, y: 0.74316406, z: 0}
    flipped: 1
    gradientUv: []
    advance: 0.06
    channel: 0
  - p0: {x: 0, y: 0.26, z: 0}
    p1: {x: 0.19999999, y: 0.08, z: 0}
    uv0: {x: 0.4140625, y: 0.8232422, z: 0}
    uv1: {x: 0.42285156, y: 0.81347656, z: 0}
    flipped: 1
    gradientUv: []
    advance: 0.17999999
    channel: 0
  - p0: {x: 0, y: 0.34, z: 0}
    p1: {x: 0.19999999, y: 0.08000001, z: 0}
    uv0: {x: 0.3515625, y: 0.9423828, z: 0}
    uv1: {x: 0.36132812, y: 0.9296875, z: 0}
    flipped: 0
    gradientUv: []
    advance: 0.19999999
    channel: 0
  - p0: {x: 0, y: 0.26, z: 0}
    p1: {x: 0.17999999, y: 0.08, z: 0}
    uv0: {x: 0.4345703, y: 0.78222656, z: 0}
    uv1: {x: 0.44335938, y: 0.7734375, z: 0}
    flipped: 0
    gradientUv: []
    advance: 0.17999999
    channel: 0
  - p0: {x: 0, y: 0.34, z: 0}
    p1: {x: 0.19999999, y: 0.08000001, z: 0}
    uv0: {x: 0.359375, y: 0.92578125, z: 0}
    uv1: {x: 0.36914062, y: 0.91308594, z: 0}
    flipped: 0
    gradientUv: []
    advance: 0.19999999
    channel: 0
  - p0: {x: 0, y: 0.26, z: 0}
    p1: {x: 0.17999999, y: 0.08, z: 0}
    uv0: {x: 0.4375, y: 0.765625, z: 0}
    uv1: {x: 0.44628906, y: 0.75683594, z: 0}
    flipped: 0
    gradientUv: []
    advance: 0.17999999
    channel: 0
  - p0: {x: 0, y: 0.34, z: 0}
    p1: {x: 0.12, y: 0.08000001, z: 0}
    uv0: {x: 0.34277344, y: 0.6298828, z: 0}
    uv1: {x: 0.3486328, y: 0.6171875, z: 0}
    flipped: 0
    gradientUv: []
    advance: 0.099999994
    channel: 0
  - p0: {x: 0, y: 0.26, z: 0}
    p1: {x: 0.19999999, y: 0.019999996, z: 0}
    uv0: {x: 0.38964844, y: 0.9892578, z: 0}
    uv1: {x: 0.39941406, y: 0.97753906, z: 0}
    flipped: 0
    gradientUv: []
    advance: 0.19999999
    channel: 0
  - p0: {x: 0, y: 0.34, z: 0}
    p1: {x: 0.19999999, y: 0.08000001, z: 0}
    uv0: {x: 0.35253906, y: 0.97558594, z: 0}
    uv1: {x: 0.3623047, y: 0.9628906, z: 0}
    flipped: 0
    gradientUv: []
    advance: 0.19999999
    channel: 0
  - p0: {x: 0, y: 0.34, z: 0}
    p1: {x: 0.06, y: 0.08000001, z: 0}
    uv0: {x: 0.27734375, y: 0.5390625, z: 0}
    uv1: {x: 0.28027344, y: 0.5263672, z: 0}
    flipped: 0
    gradientUv: []
    advance: 0.06
    channel: 0
  - p0: {x: -0.02, y: 0.34, z: 0}
    p1: {x: 0.06, y: 0.02000001, z: 0}
    uv0: {x: 0.2763672, y: 0.60058594, z: 0}
    uv1: {x: 0.28027344, y: 0.58496094, z: 0}
    flipped: 0
    gradientUv: []
    advance: 0.06
    channel: 0
  - p0: {x: 0, y: 0.34, z: 0}
    p1: {x: 0.19999999, y: 0.08000001, z: 0}
    uv0: {x: 0.3642578, y: 0.9589844, z: 0}
    uv1: {x: 0.37402344, y: 0.94628906, z: 0}
    flipped: 0
    gradientUv: []
    advance: 0.17999999
    channel: 0
  - p0: {x: 0, y: 0.34, z: 0}
    p1: {x: 0.06, y: 0.08000001, z: 0}
    uv0: {x: 0.20507812, y: 0.5859375, z: 0}
    uv1: {x: 0.20800781, y: 0.5732422, z: 0}
    flipped: 0
    gradientUv: []
    advance: 0.06
    channel: 0
  - p0: {x: 0, y: 0.26, z: 0}
    p1: {x: 0.29999998, y: 0.08, z: 0}
    uv0: {x: 0.5800781, y: 0.53515625, z: 0}
    uv1: {x: 0.5888672, y: 0.5205078, z: 0}
    flipped: 1
    gradientUv: []
    advance: 0.29999998
    channel: 0
  - p0: {x: 0, y: 0.26, z: 0}
    p1: {x: 0.19999999, y: 0.08, z: 0}
    uv0: {x: 0.4111328, y: 0.8535156, z: 0}
    uv1: {x: 0.41992188, y: 0.84375, z: 0}
    flipped: 1
    gradientUv: []
    advance: 0.19999999
    channel: 0
  - p0: {x: 0, y: 0.26, z: 0}
    p1: {x: 0.19999999, y: 0.08, z: 0}
    uv0: {x: 0.42089844, y: 0.8671875, z: 0}
    uv1: {x: 0.4296875, y: 0.8574219, z: 0}
    flipped: 1
    gradientUv: []
    advance: 0.19999999
    channel: 0
  - p0: {x: 0, y: 0.26, z: 0}
    p1: {x: 0.19999999, y: 0.019999996, z: 0}
    uv0: {x: 0.34277344, y: 0.8535156, z: 0}
    uv1: {x: 0.35253906, y: 0.8417969, z: 0}
    flipped: 0
    gradientUv: []
    advance: 0.19999999
    channel: 0
  - p0: {x: 0, y: 0.26, z: 0}
    p1: {x: 0.19999999, y: 0.019999996, z: 0}
    uv0: {x: 0.34570312, y: 0.83691406, z: 0}
    uv1: {x: 0.35546875, y: 0.8251953, z: 0}
    flipped: 0
    gradientUv: []
    advance: 0.19999999
    channel: 0
  - p0: {x: 0, y: 0.26, z: 0}
    p1: {x: 0.12, y: 0.08, z: 0}
    uv0: {x: 0.18554688, y: 0.9980469, z: 0}
    uv1: {x: 0.19433594, y: 0.9921875, z: 0}
    flipped: 1
    gradientUv: []
    advance: 0.12
    channel: 0
  - p0: {x: 0, y: 0.26, z: 0}
    p1: {x: 0.17999999, y: 0.08, z: 0}
    uv0: {x: 0.4404297, y: 0.7480469, z: 0}
    uv1: {x: 0.44921875, y: 0.7392578, z: 0}
    flipped: 0
    gradientUv: []
    advance: 0.17999999
    channel: 0
  - p0: {x: -0.02, y: 0.32, z: 0}
    p1: {x: 0.099999994, y: 0.08, z: 0}
    uv0: {x: 0.34277344, y: 0.6455078, z: 0}
    uv1: {x: 0.3486328, y: 0.63378906, z: 0}
    flipped: 0
    gradientUv: []
    advance: 0.099999994
    channel: 0
  - p0: {x: 0, y: 0.26, z: 0}
    p1: {x: 0.19999999, y: 0.08, z: 0}
    uv0: {x: 0.4326172, y: 0.8808594, z: 0}
    uv1: {x: 0.44140625, y: 0.87109375, z: 0}
    flipped: 1
    gradientUv: []
    advance: 0.19999999
    channel: 0
  - p0: {x: -0.02, y: 0.26, z: 0}
    p1: {x: 0.17999999, y: 0.08, z: 0}
    uv0: {x: 0.44140625, y: 0.89453125, z: 0}
    uv1: {x: 0.4501953, y: 0.8847656, z: 0}
    flipped: 1
    gradientUv: []
    advance: 0.16
    channel: 0
  - p0: {x: -0.02, y: 0.26, z: 0}
    p1: {x: 0.28, y: 0.08, z: 0}
    uv0: {x: 0.060546875, y: 0.87402344, z: 0}
    uv1: {x: 0.06933594, y: 0.859375, z: 0}
    flipped: 1
    gradientUv: []
    advance: 0.26
    channel: 0
  - p0: {x: -0.02, y: 0.26, z: 0}
    p1: {x: 0.19999999, y: 0.08, z: 0}
    uv0: {x: 0.4580078, y: 0.9785156, z: 0}
    uv1: {x: 0.46875, y: 0.96972656, z: 0}
    flipped: 0
    gradientUv: []
    advance: 0.17999999
    channel: 0
  - p0: {x: -0.02, y: 0.26, z: 0}
    p1: {x: 0.17999999, y: 0.019999996, z: 0}
    uv0: {x: 0.3515625, y: 0.8203125, z: 0}
    uv1: {x: 0.36132812, y: 0.80859375, z: 0}
    flipped: 0
    gradientUv: []
    advance: 0.16
    channel: 0
  - p0: {x: 0, y: 0.26, z: 0}
    p1: {x: 0.17999999, y: 0.08, z: 0}
    uv0: {x: 0.44433594, y: 0.73339844, z: 0}
    uv1: {x: 0.453125, y: 0.7246094, z: 0}
    flipped: 0
    gradientUv: []
    advance: 0.16
    channel: 0
  - p0: {x: 0.02, y: 0.34, z: 0}
    p1: {x: 0.12, y: 0.02000001, z: 0}
    uv0: {x: 0.095703125, y: 0.81347656, z: 0}
    uv1: {x: 0.10058594, y: 0.79785156, z: 0}
    flipped: 0
    gradientUv: []
    advance: 0.12
    channel: 0
  - p0: {x: 0.02, y: 0.35999998, z: 0}
    p1: {x: 0.06, y: -0.000000007450581, z: 0}
    uv0: {x: 0.037109375, y: 0.5751953, z: 0}
    uv1: {x: 0.0390625, y: 0.5576172, z: 0}
    flipped: 0
    gradientUv: []
    advance: 0.08
    channel: 0
  - p0: {x: 0, y: 0.34, z: 0}
    p1: {x: 0.099999994, y: 0.02000001, z: 0}
    uv0: {x: 0.064453125, y: 0.8046875, z: 0}
    uv1: {x: 0.06933594, y: 0.7890625, z: 0}
    flipped: 0
    gradientUv: []
    advance: 0.12
    channel: 0
  - p0: {x: 0, y: 0.17999999, z: 0}
    p1: {x: 0.19999999, y: 0.13999999, z: 0}
    uv0: {x: 0.037109375, y: 0.6328125, z: 0}
    uv1: {x: 0.0390625, y: 0.6230469, z: 0}
    flipped: 1
    gradientUv: []
    advance: 0.22
    channel: 0
  charDictKeys: 
  charDictValues: []
  fontPlatforms: []
  fontPlatformGUIDs: []
  hasPlatformData: 0
  managedFont: 0
  needMaterialInstance: 0
  isPacked: 0
  premultipliedAlpha: 0
  spriteCollection: {fileID: 11400000, guid: 2cd751c1d1cec47cda106be3d26143c7, type: 2}
  useDictionary: 0
  kerning:
  - c0: 121
    c1: 46
    amount: -0.04
  - c0: 121
    c1: 44
    amount: -0.04
  - c0: 119
    c1: 46
    amount: -0.02
  - c0: 119
    c1: 44
    amount: -0.02
  - c0: 118
    c1: 46
    amount: -0.02
  - c0: 118
    c1: 44
    amount: -0.02
  - c0: 114
    c1: 46
    amount: -0.04
  - c0: 114
    c1: 45
    amount: -0.02
  - c0: 114
    c1: 44
    amount: -0.04
  - c0: 89
    c1: 118
    amount: -0.02
  - c0: 89
    c1: 117
    amount: -0.02
  - c0: 65
    c1: 84
    amount: -0.02
  - c0: 65
    c1: 86
    amount: -0.02
  - c0: 89
    c1: 113
    amount: -0.04
  - c0: 65
    c1: 89
    amount: -0.02
  - c0: 89
    c1: 112
    amount: -0.02
  - c0: 89
    c1: 111
    amount: -0.04
  - c0: 89
    c1: 101
    amount: -0.04
  - c0: 89
    c1: 97
    amount: -0.04
  - c0: 89
    c1: 65
    amount: -0.02
  - c0: 89
    c1: 59
    amount: -0.04
  - c0: 89
    c1: 58
    amount: -0.04
  - c0: 89
    c1: 46
    amount: -0.04
  - c0: 89
    c1: 45
    amount: -0.04
  - c0: 89
    c1: 44
    amount: -0.04
  - c0: 87
    c1: 97
    amount: -0.02
  - c0: 87
    c1: 46
    amount: -0.02
  - c0: 87
    c1: 44
    amount: -0.02
  - c0: 86
    c1: 117
    amount: -0.02
  - c0: 70
    c1: 44
    amount: -0.04
  - c0: 70
    c1: 46
    amount: -0.04
  - c0: 70
    c1: 65
    amount: -0.02
  - c0: 86
    c1: 114
    amount: -0.02
  - c0: 86
    c1: 111
    amount: -0.02
  - c0: 86
    c1: 101
    amount: -0.02
  - c0: 86
    c1: 97
    amount: -0.02
  - c0: 86
    c1: 65
    amount: -0.02
  - c0: 86
    c1: 59
    amount: -0.02
  - c0: 86
    c1: 58
    amount: -0.02
  - c0: 86
    c1: 46
    amount: -0.04
  - c0: 86
    c1: 45
    amount: -0.02
  - c0: 86
    c1: 44
    amount: -0.04
  - c0: 76
    c1: 84
    amount: -0.04
  - c0: 76
    c1: 86
    amount: -0.04
  - c0: 76
    c1: 87
    amount: -0.02
  - c0: 76
    c1: 89
    amount: -0.04
  - c0: 76
    c1: 121
    amount: -0.02
  - c0: 84
    c1: 121
    amount: -0.04
  - c0: 84
    c1: 119
    amount: -0.04
  - c0: 84
    c1: 117
    amount: -0.04
  - c0: 84
    c1: 115
    amount: -0.04
  - c0: 84
    c1: 114
    amount: -0.04
  - c0: 84
    c1: 111
    amount: -0.04
  - c0: 84
    c1: 101
    amount: -0.04
  - c0: 84
    c1: 99
    amount: -0.04
  - c0: 84
    c1: 97
    amount: -0.04
  - c0: 84
    c1: 65
    amount: -0.02
  - c0: 80
    c1: 44
    amount: -0.06
  - c0: 80
    c1: 46
    amount: -0.06
  - c0: 80
    c1: 65
    amount: -0.02
  - c0: 84
    c1: 59
    amount: -0.04
  - c0: 84
    c1: 58
    amount: -0.04
  - c0: 84
    c1: 46
    amount: -0.04
  - c0: 84
    c1: 45
    amount: -0.04
  - c0: 84
    c1: 44
    amount: -0.04
  largestWidth: 0.32
  material: {fileID: 2100000, guid: 2be10acff18be4a628bfc5045e4a014a, type: 2}
  gradientTexture: {fileID: 0}
  textureGradients: 0
  gradientCount: 1
  texelSize: {x: 0.02, y: 0.02}
  invOrthoSize: 0.13020834
  halfTargetHeight: 384
--- !u!1001 &100100000
Prefab:
  m_ObjectHideFlags: 1
  serializedVersion: 2
  m_Modification:
    m_TransformParent: {fileID: 0}
    m_Modifications: []
    m_RemovedComponents: []
  m_ParentPrefab: {fileID: 0}
  m_RootGameObject: {fileID: 100000}
  m_IsPrefabParent: 1
