%YAML 1.1
%TAG !u! tag:unity3d.com,2011:
--- !u!1 &100000
GameObject:
  m_ObjectHideFlags: 0
  m_PrefabParentObject: {fileID: 0}
  m_PrefabInternal: {fileID: 100100000}
  serializedVersion: 5
  m_Component:
  - component: {fileID: 400000}
  - component: {fileID: 11400000}
  m_Layer: 0
  m_Name: Silestone
  m_TagString: Untagged
  m_Icon: {fileID: 0}
  m_NavMeshLayer: 0
  m_StaticEditorFlags: 0
  m_IsActive: 1
--- !u!4 &400000
Transform:
  m_ObjectHideFlags: 1
  m_PrefabParentObject: {fileID: 0}
  m_PrefabInternal: {fileID: 100100000}
  m_GameObject: {fileID: 100000}
  m_LocalRotation: {x: 0, y: 0, z: 0, w: 1}
  m_LocalPosition: {x: 0, y: 0, z: 0}
  m_LocalScale: {x: 1, y: 1, z: 1}
  m_Children: []
  m_Father: {fileID: 0}
  m_RootOrder: 0
  m_LocalEulerAnglesHint: {x: 0, y: 0, z: 0}
--- !u!114 &11400000
MonoBehaviour:
  m_ObjectHideFlags: 1
  m_PrefabParentObject: {fileID: 0}
  m_PrefabInternal: {fileID: 100100000}
  m_GameObject: {fileID: 100000}
  m_Enabled: 1
  m_EditorHideFlags: 0
  m_Script: {fileID: 11500000, guid: d546f34a90531a14eaba82a43b05b86b, type: 3}
  m_Name: 
  m_EditorClassIdentifier: 
  version: 3
  materialIdsValid: 1
  needMaterialInstance: 0
  spriteDefinitions:
  - name: Back
    boundsData:
    - {x: 0.48, y: 0, z: 0}
    - {x: 0.96, y: 7.68, z: 0}
    untrimmedBoundsData:
    - {x: 0.48, y: 0, z: 0}
    - {x: 0.96, y: 7.68, z: 0}
    texelSize: {x: 0.02, y: 0.02}
    positions:
    - {x: 0, y: -3.84, z: 0}
    - {x: 0.32, y: -3.84, z: 0}
    - {x: 0, y: -3.1999998, z: 0}
    - {x: 0.32, y: -3.1999998, z: 0}
    - {x: 0, y: -3.1999998, z: 0}
    - {x: 0.55999994, y: -3.1999998, z: 0}
    - {x: 0, y: -2.56, z: 0}
    - {x: 0.55999994, y: -2.56, z: 0}
    - {x: 0, y: -2.56, z: 0}
    - {x: 0.64, y: -2.56, z: 0}
    - {x: 0, y: -1.92, z: 0}
    - {x: 0.64, y: -1.92, z: 0}
    - {x: 0, y: -1.92, z: 0}
    - {x: 0.64, y: -1.92, z: 0}
    - {x: 0, y: -1.2799999, z: 0}
    - {x: 0.64, y: -1.2799999, z: 0}
    - {x: 0, y: -1.2799999, z: 0}
    - {x: 0.64, y: -1.2799999, z: 0}
    - {x: 0, y: -0.64000005, z: 0}
    - {x: 0.64, y: -0.64000005, z: 0}
    - {x: 0, y: -0.64000005, z: 0}
    - {x: 0.64, y: -0.64000005, z: 0}
    - {x: 0, y: 0, z: 0}
    - {x: 0.64, y: 0, z: 0}
    - {x: 0, y: 0, z: 0}
    - {x: 0.64, y: 0, z: 0}
    - {x: 0, y: 0.6399998, z: 0}
    - {x: 0.64, y: 0.6399998, z: 0}
    - {x: 0, y: 0.6399998, z: 0}
    - {x: 0.64, y: 0.6399998, z: 0}
    - {x: 0, y: 1.2800001, z: 0}
    - {x: 0.64, y: 1.2800001, z: 0}
    - {x: 0, y: 1.2800001, z: 0}
    - {x: 0.64, y: 1.2800001, z: 0}
    - {x: 0, y: 1.92, z: 0}
    - {x: 0.64, y: 1.92, z: 0}
    - {x: 0, y: 1.92, z: 0}
    - {x: 0.64, y: 1.92, z: 0}
    - {x: 0, y: 2.5599997, z: 0}
    - {x: 0.64, y: 2.5599997, z: 0}
    - {x: 0, y: 2.5599997, z: 0}
    - {x: 0.55999994, y: 2.5599997, z: 0}
    - {x: 0, y: 3.2, z: 0}
    - {x: 0.55999994, y: 3.2, z: 0}
    - {x: 0, y: 3.2, z: 0}
    - {x: 0.32, y: 3.2, z: 0}
    - {x: 0, y: 3.84, z: 0}
    - {x: 0.32, y: 3.84, z: 0}
    - {x: 0.64, y: -2.28, z: 0}
    - {x: 0.73999995, y: -2.28, z: 0}
    - {x: 0.64, y: -1.92, z: 0}
    - {x: 0.73999995, y: -1.92, z: 0}
    - {x: 0.64, y: -1.92, z: 0}
    - {x: 0.88, y: -1.92, z: 0}
    - {x: 0.64, y: -1.2799999, z: 0}
    - {x: 0.88, y: -1.2799999, z: 0}
    - {x: 0.64, y: -1.2799999, z: 0}
    - {x: 0.94, y: -1.2799999, z: 0}
    - {x: 0.64, y: -0.64000005, z: 0}
    - {x: 0.94, y: -0.64000005, z: 0}
    - {x: 0.64, y: -0.64000005, z: 0}
    - {x: 0.96, y: -0.64000005, z: 0}
    - {x: 0.64, y: 0, z: 0}
    - {x: 0.96, y: 0, z: 0}
    - {x: 0.64, y: 0, z: 0}
    - {x: 0.96, y: 0, z: 0}
    - {x: 0.64, y: 0.6399998, z: 0}
    - {x: 0.96, y: 0.6399998, z: 0}
    - {x: 0.64, y: 0.6399998, z: 0}
    - {x: 0.94, y: 0.6399998, z: 0}
    - {x: 0.64, y: 1.2800001, z: 0}
    - {x: 0.94, y: 1.2800001, z: 0}
    - {x: 0.64, y: 1.2800001, z: 0}
    - {x: 0.88, y: 1.2800001, z: 0}
    - {x: 0.64, y: 1.92, z: 0}
    - {x: 0.88, y: 1.92, z: 0}
    - {x: 0.64, y: 1.92, z: 0}
    - {x: 0.73999995, y: 1.92, z: 0}
    - {x: 0.64, y: 2.28, z: 0}
    - {x: 0.73999995, y: 2.28, z: 0}
    normals: []
    tangents: []
    uvs:
    - {x: 0.92969143, y: 0.0742207}
    - {x: 0.99218357, y: 0.0742207}
    - {x: 0.92969143, y: 0.1367168}
    - {x: 0.99218357, y: 0.1367168}
    - {x: 0.1484414, y: 0.0742207}
    - {x: 0.1484414, y: 0.1289043}
    - {x: 0.2734336, y: 0.0742207}
    - {x: 0.2734336, y: 0.1289043}
    - {x: 0.007816406, y: 0.003908203}
    - {x: 0.1328086, y: 0.003908203}
    - {x: 0.007816406, y: 0.0664043}
    - {x: 0.1328086, y: 0.0664043}
    - {x: 0.1484414, y: 0.003908203}
    - {x: 0.2734336, y: 0.003908203}
    - {x: 0.1484414, y: 0.0664043}
    - {x: 0.2734336, y: 0.0664043}
    - {x: 0.2890664, y: 0.003908203}
    - {x: 0.4140586, y: 0.003908203}
    - {x: 0.2890664, y: 0.0664043}
    - {x: 0.4140586, y: 0.0664043}
    - {x: 0.4296914, y: 0.003908203}
    - {x: 0.55468357, y: 0.003908203}
    - {x: 0.4296914, y: 0.0664043}
    - {x: 0.55468357, y: 0.0664043}
    - {x: 0.57031643, y: 0.003908203}
    - {x: 0.69530857, y: 0.003908203}
    - {x: 0.57031643, y: 0.0664043}
    - {x: 0.69530857, y: 0.0664043}
    - {x: 0.71094143, y: 0.003908203}
    - {x: 0.83593357, y: 0.003908203}
    - {x: 0.71094143, y: 0.0664043}
    - {x: 0.83593357, y: 0.0664043}
    - {x: 0.85156643, y: 0.003908203}
    - {x: 0.97655857, y: 0.003908203}
    - {x: 0.85156643, y: 0.0664043}
    - {x: 0.97655857, y: 0.0664043}
    - {x: 0.007816406, y: 0.0742207}
    - {x: 0.1328086, y: 0.0742207}
    - {x: 0.007816406, y: 0.1367168}
    - {x: 0.1328086, y: 0.1367168}
    - {x: 0.2890664, y: 0.0742207}
    - {x: 0.2890664, y: 0.1289043}
    - {x: 0.4140586, y: 0.0742207}
    - {x: 0.4140586, y: 0.1289043}
    - {x: 0.92969143, y: 0.1445332}
    - {x: 0.99218357, y: 0.1445332}
    - {x: 0.92969143, y: 0.2070293}
    - {x: 0.99218357, y: 0.2070293}
    - {x: 0.74219143, y: 0.30078322}
    - {x: 0.7617148, y: 0.30078322}
    - {x: 0.74219143, y: 0.33593553}
    - {x: 0.7617148, y: 0.33593553}
    - {x: 0.7773477, y: 0.37890822}
    - {x: 0.8242148, y: 0.37890822}
    - {x: 0.7773477, y: 0.44140428}
    - {x: 0.8242148, y: 0.44140428}
    - {x: 0.7773477, y: 0.30859572}
    - {x: 0.83593357, y: 0.30859572}
    - {x: 0.7773477, y: 0.37109178}
    - {x: 0.83593357, y: 0.37109178}
    - {x: 0.50781643, y: 0.26172072}
    - {x: 0.50781643, y: 0.29296678}
    - {x: 0.63280857, y: 0.26172072}
    - {x: 0.63280857, y: 0.29296678}
    - {x: 0.64844143, y: 0.26172072}
    - {x: 0.64844143, y: 0.29296678}
    - {x: 0.77343357, y: 0.26172072}
    - {x: 0.77343357, y: 0.29296678}
    - {x: 0.85156643, y: 0.32031447}
    - {x: 0.85156643, y: 0.3496074}
    - {x: 0.97655857, y: 0.32031447}
    - {x: 0.97655857, y: 0.3496074}
    - {x: 0.30078515, y: 0.46484572}
    - {x: 0.30078515, y: 0.48827928}
    - {x: 0.42577735, y: 0.46484572}
    - {x: 0.42577735, y: 0.48827928}
    - {x: 0.74219143, y: 0.34375197}
    - {x: 0.7617148, y: 0.34375197}
    - {x: 0.74219143, y: 0.37890428}
    - {x: 0.7617148, y: 0.37890428}
    normalizedUvs:
    - {x: 0.93651545, y: 0.14516246}
    - {x: 1, y: 0.14516246}
    - {x: 0.93651545, y: 0.2741877}
    - {x: 1, y: 0.2741877}
    - {x: 0.14285828, y: 0.14516246}
    - {x: 0.14285828, y: 0.25805855}
    - {x: 0.2698355, y: 0.14516246}
    - {x: 0.2698355, y: 0.25805855}
    - {x: 0, y: 0}
    - {x: 0.1269772, y: 0}
    - {x: 0, y: 0.12902525}
    - {x: 0.1269772, y: 0.12902525}
    - {x: 0.14285828, y: 0}
    - {x: 0.2698355, y: 0}
    - {x: 0.14285828, y: 0.12902525}
    - {x: 0.2698355, y: 0.12902525}
    - {x: 0.28571656, y: 0}
    - {x: 0.41269377, y: 0}
    - {x: 0.28571656, y: 0.12902525}
    - {x: 0.41269377, y: 0.12902525}
    - {x: 0.42857486, y: 0}
    - {x: 0.555552, y: 0}
    - {x: 0.42857486, y: 0.12902525}
    - {x: 0.555552, y: 0.12902525}
    - {x: 0.5714332, y: 0}
    - {x: 0.69841033, y: 0}
    - {x: 0.5714332, y: 0.12902525}
    - {x: 0.69841033, y: 0.12902525}
    - {x: 0.71429145, y: 0}
    - {x: 0.8412686, y: 0}
    - {x: 0.71429145, y: 0.12902525}
    - {x: 0.8412686, y: 0.12902525}
    - {x: 0.8571497, y: 0}
    - {x: 0.98412687, y: 0}
    - {x: 0.8571497, y: 0.12902525}
    - {x: 0.98412687, y: 0.12902525}
    - {x: 0, y: 0.14516246}
    - {x: 0.1269772, y: 0.14516246}
    - {x: 0, y: 0.2741877}
    - {x: 0.1269772, y: 0.2741877}
    - {x: 0.28571656, y: 0.14516246}
    - {x: 0.28571656, y: 0.25805855}
    - {x: 0.41269377, y: 0.14516246}
    - {x: 0.41269377, y: 0.25805855}
    - {x: 0.93651545, y: 0.29032493}
    - {x: 1, y: 0.29032493}
    - {x: 0.93651545, y: 0.41935018}
    - {x: 1, y: 0.41935018}
    - {x: 0.7460377, y: 0.61290824}
    - {x: 0.76587117, y: 0.61290824}
    - {x: 0.7460377, y: 0.68548137}
    - {x: 0.76587117, y: 0.68548137}
    - {x: 0.7817523, y: 0.77419984}
    - {x: 0.82936376, y: 0.77419984}
    - {x: 0.7817523, y: 0.90322506}
    - {x: 0.82936376, y: 0.90322506}
    - {x: 0.7817523, y: 0.6290374}
    - {x: 0.8412686, y: 0.6290374}
    - {x: 0.7817523, y: 0.7580626}
    - {x: 0.8412686, y: 0.7580626}
    - {x: 0.5079406, y: 0.53226244}
    - {x: 0.5079406, y: 0.59677094}
    - {x: 0.63491774, y: 0.53226244}
    - {x: 0.63491774, y: 0.59677094}
    - {x: 0.65079886, y: 0.53226244}
    - {x: 0.65079886, y: 0.59677094}
    - {x: 0.777776, y: 0.53226244}
    - {x: 0.777776, y: 0.59677094}
    - {x: 0.8571497, y: 0.65323114}
    - {x: 0.8571497, y: 0.7137074}
    - {x: 0.98412687, y: 0.65323114}
    - {x: 0.98412687, y: 0.7137074}
    - {x: 0.29762143, y: 0.95162064}
    - {x: 0.29762143, y: 1}
    - {x: 0.42459863, y: 0.95162064}
    - {x: 0.42459863, y: 1}
    - {x: 0.7460377, y: 0.7016186}
    - {x: 0.76587117, y: 0.7016186}
    - {x: 0.7460377, y: 0.77419174}
    - {x: 0.76587117, y: 0.77419174}
    indices: 000000000300000001000000020000000300000000000000040000000700000005000000060000000700000004000000080000000b000000090000000a0000000b000000080000000c0000000f0000000d0000000e0000000f0000000c000000100000001300000011000000120000001300000010000000140000001700000015000000160000001700000014000000180000001b000000190000001a0000001b000000180000001c0000001f0000001d0000001e0000001f0000001c000000200000002300000021000000220000002300000020000000240000002700000025000000260000002700000024000000280000002b000000290000002a0000002b000000280000002c0000002f0000002d0000002e0000002f0000002c000000300000003300000031000000320000003300000030000000340000003700000035000000360000003700000034000000380000003b000000390000003a0000003b000000380000003c0000003f0000003d0000003e0000003f0000003c000000400000004300000041000000420000004300000040000000440000004700000045000000460000004700000044000000480000004b000000490000004a0000004b000000480000004c0000004f0000004d0000004e0000004f0000004c000000
    material: {fileID: 2100000, guid: 41ef431e834cf49ab9c3e449da2299b2, type: 2}
    materialId: 0
    sourceTextureGUID: 2df765bc2e45f486ebbd279c95cfe282
    extractRegion: 0
    regionX: 0
    regionY: 0
    regionW: 0
    regionH: 0
    flipped: 0
    complexGeometry: 0
    physicsEngine: 0
    colliderType: 1
    customColliders: []
    colliderVertices: []
    colliderIndicesFwd: 
    colliderIndicesBack: 
    colliderConvex: 0
    colliderSmoothSphereCollisions: 0
    polygonCollider2D: []
    edgeCollider2D: []
    attachPoints: []
  - name: Seleno
    boundsData:
    - {x: -0.00999999, y: -0.02000004, z: 0}
    - {x: 2.1000001, y: 1.5199999, z: 0}
    untrimmedBoundsData:
    - {x: 0, y: 0, z: 0}
    - {x: 2.2, y: 1.5999999, z: 0}
    texelSize: {x: 0.02, y: 0.02}
    positions:
    - {x: -1, y: -0.31999996, z: 0}
    - {x: -0.54, y: -0.31999996, z: 0}
    - {x: -1, y: 0, z: 0}
    - {x: -0.54, y: 0, z: 0}
    - {x: -1.0600001, y: 0, z: 0}
    - {x: -0.54, y: 0, z: 0}
    - {x: -1.0600001, y: 0.39999998, z: 0}
    - {x: -0.54, y: 0.39999998, z: 0}
    - {x: -0.98, y: 0.39999998, z: 0}
    - {x: -0.54, y: 0.39999998, z: 0}
    - {x: -0.98, y: 0.68, z: 0}
    - {x: -0.54, y: 0.68, z: 0}
    - {x: -0.42000002, y: -0.78, z: 0}
    - {x: 0.01999998, y: -0.78, z: 0}
    - {x: -0.42000002, y: -0.47999996, z: 0}
    - {x: 0.01999998, y: -0.47999996, z: 0}
    - {x: -0.54, y: -0.39999998, z: 0}
    - {x: 0.01999998, y: -0.39999998, z: 0}
    - {x: -0.54, y: 0, z: 0}
    - {x: 0.01999998, y: 0, z: 0}
    - {x: -0.54, y: 0, z: 0}
    - {x: 0.01999998, y: 0, z: 0}
    - {x: -0.54, y: 0.39999998, z: 0}
    - {x: 0.01999998, y: 0.39999998, z: 0}
    - {x: -0.54, y: 0.39999998, z: 0}
    - {x: 0.01999998, y: 0.39999998, z: 0}
    - {x: -0.54, y: 0.7399999, z: 0}
    - {x: 0.01999998, y: 0.7399999, z: 0}
    - {x: 0.01999998, y: -0.78, z: 0}
    - {x: 0.50000006, y: -0.78, z: 0}
    - {x: 0.01999998, y: -0.53999996, z: 0}
    - {x: 0.50000006, y: -0.53999996, z: 0}
    - {x: 0.01999998, y: -0.39999998, z: 0}
    - {x: 0.58, y: -0.39999998, z: 0}
    - {x: 0.01999998, y: 0, z: 0}
    - {x: 0.58, y: 0, z: 0}
    - {x: 0.01999998, y: 0, z: 0}
    - {x: 0.58, y: 0, z: 0}
    - {x: 0.01999998, y: 0.39999998, z: 0}
    - {x: 0.58, y: 0.39999998, z: 0}
    - {x: 0.01999998, y: 0.39999998, z: 0}
    - {x: 0.58, y: 0.39999998, z: 0}
    - {x: 0.01999998, y: 0.7399999, z: 0}
    - {x: 0.58, y: 0.7399999, z: 0}
    - {x: 0.58, y: -0.29999998, z: 0}
    - {x: 1, y: -0.29999998, z: 0}
    - {x: 0.58, y: 0, z: 0}
    - {x: 1, y: 0, z: 0}
    - {x: 0.58, y: 0, z: 0}
    - {x: 1.0400001, y: 0, z: 0}
    - {x: 0.58, y: 0.39999998, z: 0}
    - {x: 1.0400001, y: 0.39999998, z: 0}
    - {x: 0.58, y: 0.39999998, z: 0}
    - {x: 0.96000004, y: 0.39999998, z: 0}
    - {x: 0.58, y: 0.66, z: 0}
    - {x: 0.96000004, y: 0.66, z: 0}
    normals: []
    tangents: []
    uvs:
    - {x: 0.2031289, y: 0.4941426}
    - {x: 0.2031289, y: 0.53906053}
    - {x: 0.2656211, y: 0.4941426}
    - {x: 0.2656211, y: 0.53906053}
    - {x: 0.007816406, y: 0.28515822}
    - {x: 0.109371096, y: 0.28515822}
    - {x: 0.007816406, y: 0.32421678}
    - {x: 0.109371096, y: 0.32421678}
    - {x: 0.7773477, y: 0.59375197}
    - {x: 0.8632773, y: 0.59375197}
    - {x: 0.7773477, y: 0.6210918}
    - {x: 0.8632773, y: 0.6210918}
    - {x: 0.79687893, y: 0.5195332}
    - {x: 0.88280857, y: 0.5195332}
    - {x: 0.79687893, y: 0.54882616}
    - {x: 0.88280857, y: 0.54882616}
    - {x: 0.4296914, y: 0.0742207}
    - {x: 0.53905857, y: 0.0742207}
    - {x: 0.4296914, y: 0.1132793}
    - {x: 0.53905857, y: 0.1132793}
    - {x: 0.55469143, y: 0.0742207}
    - {x: 0.66405857, y: 0.0742207}
    - {x: 0.55469143, y: 0.1132793}
    - {x: 0.66405857, y: 0.1132793}
    - {x: 0.85156643, y: 0.35742384}
    - {x: 0.96093357, y: 0.35742384}
    - {x: 0.85156643, y: 0.39062303}
    - {x: 0.96093357, y: 0.39062303}
    - {x: 0.94531643, y: 0.48047072}
    - {x: 0.94531643, y: 0.5273418}
    - {x: 0.99218357, y: 0.48047072}
    - {x: 0.99218357, y: 0.5273418}
    - {x: 0.67969143, y: 0.0742207}
    - {x: 0.78905857, y: 0.0742207}
    - {x: 0.67969143, y: 0.1132793}
    - {x: 0.78905857, y: 0.1132793}
    - {x: 0.80469143, y: 0.0742207}
    - {x: 0.91405857, y: 0.0742207}
    - {x: 0.80469143, y: 0.1132793}
    - {x: 0.91405857, y: 0.1132793}
    - {x: 0.8398477, y: 0.39843947}
    - {x: 0.9492148, y: 0.39843947}
    - {x: 0.8398477, y: 0.43163866}
    - {x: 0.9492148, y: 0.43163866}
    - {x: 0.79687893, y: 0.5566426}
    - {x: 0.8789023, y: 0.5566426}
    - {x: 0.79687893, y: 0.58593553}
    - {x: 0.8789023, y: 0.58593553}
    - {x: 0.45703515, y: 0.38867384}
    - {x: 0.54687107, y: 0.38867384}
    - {x: 0.45703515, y: 0.4277324}
    - {x: 0.54687107, y: 0.4277324}
    - {x: 0.007816406, y: 0.62304884}
    - {x: 0.007816406, y: 0.6601543}
    - {x: 0.058589842, y: 0.62304884}
    - {x: 0.058589842, y: 0.6601543}
    normalizedUvs:
    - {x: 0.19841428, y: 0.7166715}
    - {x: 0.19841428, y: 0.793332}
    - {x: 0.26189893, y: 0.7166715}
    - {x: 0.26189893, y: 0.793332}
    - {x: 0, y: 0.36000243}
    - {x: 0.1031675, y: 0.36000243}
    - {x: 0, y: 0.42666283}
    - {x: 0.1031675, y: 0.42666283}
    - {x: 0.7817523, y: 0.8866726}
    - {x: 0.8690466, y: 0.8866726}
    - {x: 0.7817523, y: 0.9333329}
    - {x: 0.8690466, y: 0.9333329}
    - {x: 0.8015937, y: 0.7600051}
    - {x: 0.888888, y: 0.7600051}
    - {x: 0.8015937, y: 0.80999875}
    - {x: 0.888888, y: 0.80999875}
    - {x: 0.42857486, y: 0}
    - {x: 0.5396789, y: 0}
    - {x: 0.42857486, y: 0.06666045}
    - {x: 0.5396789, y: 0.06666045}
    - {x: 0.55556005, y: 0}
    - {x: 0.666664, y: 0}
    - {x: 0.55556005, y: 0.06666045}
    - {x: 0.666664, y: 0.06666045}
    - {x: 0.8571497, y: 0.4833366}
    - {x: 0.96825373, y: 0.4833366}
    - {x: 0.8571497, y: 0.5399969}
    - {x: 0.96825373, y: 0.5399969}
    - {x: 0.9523886, y: 0.69333804}
    - {x: 0.9523886, y: 0.7733318}
    - {x: 1, y: 0.69333804}
    - {x: 1, y: 0.7733318}
    - {x: 0.6825452, y: 0}
    - {x: 0.7936492, y: 0}
    - {x: 0.6825452, y: 0.06666045}
    - {x: 0.7936492, y: 0.06666045}
    - {x: 0.8095303, y: 0}
    - {x: 0.9206343, y: 0}
    - {x: 0.8095303, y: 0.06666045}
    - {x: 0.9206343, y: 0.06666045}
    - {x: 0.8452449, y: 0.5533371}
    - {x: 0.9563489, y: 0.5533371}
    - {x: 0.8452449, y: 0.6099974}
    - {x: 0.9563489, y: 0.6099974}
    - {x: 0.8015937, y: 0.82333887}
    - {x: 0.88491976, y: 0.82333887}
    - {x: 0.8015937, y: 0.8733325}
    - {x: 0.88491976, y: 0.8733325}
    - {x: 0.45635286, y: 0.53667027}
    - {x: 0.54761547, y: 0.53667027}
    - {x: 0.45635286, y: 0.6033307}
    - {x: 0.54761547, y: 0.6033307}
    - {x: 0, y: 0.936673}
    - {x: 0, y: 1}
    - {x: 0.051579777, y: 0.936673}
    - {x: 0.051579777, y: 1}
    indices: 000000000300000001000000020000000300000000000000040000000700000005000000060000000700000004000000080000000b000000090000000a0000000b000000080000000c0000000f0000000d0000000e0000000f0000000c000000100000001300000011000000120000001300000010000000140000001700000015000000160000001700000014000000180000001b000000190000001a0000001b000000180000001c0000001f0000001d0000001e0000001f0000001c000000200000002300000021000000220000002300000020000000240000002700000025000000260000002700000024000000280000002b000000290000002a0000002b000000280000002c0000002f0000002d0000002e0000002f0000002c000000300000003300000031000000320000003300000030000000340000003700000035000000360000003700000034000000
    material: {fileID: 2100000, guid: 41ef431e834cf49ab9c3e449da2299b2, type: 2}
    materialId: 0
    sourceTextureGUID: 171bce81733bc491d900cce49bd3bab2
    extractRegion: 0
    regionX: 0
    regionY: 0
    regionW: 0
    regionH: 0
    flipped: 0
    complexGeometry: 0
    physicsEngine: 0
    colliderType: 1
    customColliders: []
    colliderVertices: []
    colliderIndicesFwd: 
    colliderIndicesBack: 
    colliderConvex: 0
    colliderSmoothSphereCollisions: 0
    polygonCollider2D: []
    edgeCollider2D: []
    attachPoints: []
  - name: Altair
    boundsData:
    - {x: -0.00999999, y: -0.02000004, z: 0}
    - {x: 2.1000001, y: 1.5199999, z: 0}
    untrimmedBoundsData:
    - {x: 0, y: 0, z: 0}
    - {x: 2.2, y: 1.5999999, z: 0}
    texelSize: {x: 0.02, y: 0.02}
    positions:
    - {x: -1, y: -0.31999996, z: 0}
    - {x: -0.54, y: -0.31999996, z: 0}
    - {x: -1, y: 0, z: 0}
    - {x: -0.54, y: 0, z: 0}
    - {x: -1.0600001, y: 0, z: 0}
    - {x: -0.54, y: 0, z: 0}
    - {x: -1.0600001, y: 0.39999998, z: 0}
    - {x: -0.54, y: 0.39999998, z: 0}
    - {x: -0.98, y: 0.39999998, z: 0}
    - {x: -0.54, y: 0.39999998, z: 0}
    - {x: -0.98, y: 0.68, z: 0}
    - {x: -0.54, y: 0.68, z: 0}
    - {x: -0.34, y: -0.78, z: 0}
    - {x: 0.01999998, y: -0.78, z: 0}
    - {x: -0.34, y: -0.47999996, z: 0}
    - {x: 0.01999998, y: -0.47999996, z: 0}
    - {x: -0.54, y: -0.39999998, z: 0}
    - {x: 0.01999998, y: -0.39999998, z: 0}
    - {x: -0.54, y: 0, z: 0}
    - {x: 0.01999998, y: 0, z: 0}
    - {x: -0.54, y: 0, z: 0}
    - {x: 0.01999998, y: 0, z: 0}
    - {x: -0.54, y: 0.39999998, z: 0}
    - {x: 0.01999998, y: 0.39999998, z: 0}
    - {x: -0.54, y: 0.39999998, z: 0}
    - {x: 0.01999998, y: 0.39999998, z: 0}
    - {x: -0.54, y: 0.7399999, z: 0}
    - {x: 0.01999998, y: 0.7399999, z: 0}
    - {x: 0.01999998, y: -0.78, z: 0}
    - {x: 0.36000004, y: -0.78, z: 0}
    - {x: 0.01999998, y: -0.47999996, z: 0}
    - {x: 0.36000004, y: -0.47999996, z: 0}
    - {x: 0.01999998, y: -0.39999998, z: 0}
    - {x: 0.58, y: -0.39999998, z: 0}
    - {x: 0.01999998, y: 0, z: 0}
    - {x: 0.58, y: 0, z: 0}
    - {x: 0.01999998, y: 0, z: 0}
    - {x: 0.58, y: 0, z: 0}
    - {x: 0.01999998, y: 0.39999998, z: 0}
    - {x: 0.58, y: 0.39999998, z: 0}
    - {x: 0.01999998, y: 0.39999998, z: 0}
    - {x: 0.58, y: 0.39999998, z: 0}
    - {x: 0.01999998, y: 0.7399999, z: 0}
    - {x: 0.58, y: 0.7399999, z: 0}
    - {x: 0.58, y: -0.29999998, z: 0}
    - {x: 1, y: -0.29999998, z: 0}
    - {x: 0.58, y: 0, z: 0}
    - {x: 1, y: 0, z: 0}
    - {x: 0.58, y: 0, z: 0}
    - {x: 1.0400001, y: 0, z: 0}
    - {x: 0.58, y: 0.39999998, z: 0}
    - {x: 1.0400001, y: 0.39999998, z: 0}
    - {x: 0.58, y: 0.39999998, z: 0}
    - {x: 0.96000004, y: 0.39999998, z: 0}
    - {x: 0.58, y: 0.66, z: 0}
    - {x: 0.96000004, y: 0.66, z: 0}
    normals: []
    tangents: []
    uvs:
    - {x: 0.082035154, y: 0.53125197}
    - {x: 0.1718711, y: 0.53125197}
    - {x: 0.082035154, y: 0.56249803}
    - {x: 0.1718711, y: 0.56249803}
    - {x: 0.2578164, y: 0.27734572}
    - {x: 0.3593711, y: 0.27734572}
    - {x: 0.2578164, y: 0.31640428}
    - {x: 0.3593711, y: 0.31640428}
    - {x: 0.8789102, y: 0.60937697}
    - {x: 0.9648398, y: 0.60937697}
    - {x: 0.8789102, y: 0.6367168}
    - {x: 0.9648398, y: 0.6367168}
    - {x: 0.078128904, y: 0.6054707}
    - {x: 0.1484336, y: 0.6054707}
    - {x: 0.078128904, y: 0.63476366}
    - {x: 0.1484336, y: 0.63476366}
    - {x: 0.4296914, y: 0.1210957}
    - {x: 0.53905857, y: 0.1210957}
    - {x: 0.4296914, y: 0.1601543}
    - {x: 0.53905857, y: 0.1601543}
    - {x: 0.1484414, y: 0.1367207}
    - {x: 0.2578086, y: 0.1367207}
    - {x: 0.1484414, y: 0.1757793}
    - {x: 0.2578086, y: 0.1757793}
    - {x: 0.8398477, y: 0.4394551}
    - {x: 0.9492148, y: 0.4394551}
    - {x: 0.8398477, y: 0.47265428}
    - {x: 0.9492148, y: 0.47265428}
    - {x: 0.4765664, y: 0.5507832}
    - {x: 0.5429648, y: 0.5507832}
    - {x: 0.4765664, y: 0.58007616}
    - {x: 0.5429648, y: 0.58007616}
    - {x: 0.007816406, y: 0.1445332}
    - {x: 0.117183596, y: 0.1445332}
    - {x: 0.007816406, y: 0.1835918}
    - {x: 0.117183596, y: 0.1835918}
    - {x: 0.2734414, y: 0.1367207}
    - {x: 0.3828086, y: 0.1367207}
    - {x: 0.2734414, y: 0.1757793}
    - {x: 0.3828086, y: 0.1757793}
    - {x: 0.4921914, y: 0.34765822}
    - {x: 0.60155857, y: 0.34765822}
    - {x: 0.4921914, y: 0.3808574}
    - {x: 0.60155857, y: 0.3808574}
    - {x: 0.8945352, y: 0.5722676}
    - {x: 0.97655857, y: 0.5722676}
    - {x: 0.8945352, y: 0.60156053}
    - {x: 0.97655857, y: 0.60156053}
    - {x: 0.33984765, y: 0.41797072}
    - {x: 0.4296836, y: 0.41797072}
    - {x: 0.33984765, y: 0.45702928}
    - {x: 0.4296836, y: 0.45702928}
    - {x: 0.007816406, y: 0.6679707}
    - {x: 0.007816406, y: 0.70507616}
    - {x: 0.058589842, y: 0.6679707}
    - {x: 0.058589842, y: 0.70507616}
    normalizedUvs:
    - {x: 0.07661352, y: 0.7023459}
    - {x: 0.16934815, y: 0.7023459}
    - {x: 0.07661352, y: 0.7558512}
    - {x: 0.16934815, y: 0.7558512}
    - {x: 0.25806662, y: 0.26756036}
    - {x: 0.3628981, y: 0.26756036}
    - {x: 0.25806662, y: 0.3344437}
    - {x: 0.3628981, y: 0.3344437}
    - {x: 0.89920086, y: 0.836126}
    - {x: 0.9879032, y: 0.836126}
    - {x: 0.89920086, y: 0.8829424}
    - {x: 0.9879032, y: 0.8829424}
    - {x: 0.07258123, y: 0.8294371}
    - {x: 0.1451544, y: 0.8294371}
    - {x: 0.07258123, y: 0.8795979}
    - {x: 0.1451544, y: 0.8795979}
    - {x: 0.43548742, y: 0}
    - {x: 0.5483835, y: 0}
    - {x: 0.43548742, y: 0.0668834}
    - {x: 0.5483835, y: 0.0668834}
    - {x: 0.14516246, y: 0.026756033}
    - {x: 0.25805855, y: 0.026756033}
    - {x: 0.14516246, y: 0.09363943}
    - {x: 0.25805855, y: 0.09363943}
    - {x: 0.85887796, y: 0.5451542}
    - {x: 0.971774, y: 0.5451542}
    - {x: 0.85887796, y: 0.60200405}
    - {x: 0.971774, y: 0.60200405}
    - {x: 0.4838749, y: 0.7357909}
    - {x: 0.5524157, y: 0.7357909}
    - {x: 0.4838749, y: 0.78595173}
    - {x: 0.5524157, y: 0.78595173}
    - {x: 0, y: 0.04013405}
    - {x: 0.11289608, y: 0.04013405}
    - {x: 0, y: 0.10701745}
    - {x: 0.11289608, y: 0.10701745}
    - {x: 0.27419576, y: 0.026756033}
    - {x: 0.38709185, y: 0.026756033}
    - {x: 0.27419576, y: 0.09363943}
    - {x: 0.38709185, y: 0.09363943}
    - {x: 0.50000405, y: 0.3879625}
    - {x: 0.61290014, y: 0.3879625}
    - {x: 0.50000405, y: 0.44481233}
    - {x: 0.61290014, y: 0.44481233}
    - {x: 0.91533005, y: 0.7725805}
    - {x: 1, y: 0.7725805}
    - {x: 0.91533005, y: 0.8227413}
    - {x: 1, y: 0.8227413}
    - {x: 0.3427447, y: 0.5083647}
    - {x: 0.43547934, y: 0.5083647}
    - {x: 0.3427447, y: 0.575248}
    - {x: 0.43547934, y: 0.575248}
    - {x: 0, y: 0.9364612}
    - {x: 0, y: 1}
    - {x: 0.052411716, y: 0.9364612}
    - {x: 0.052411716, y: 1}
    indices: 000000000300000001000000020000000300000000000000040000000700000005000000060000000700000004000000080000000b000000090000000a0000000b000000080000000c0000000f0000000d0000000e0000000f0000000c000000100000001300000011000000120000001300000010000000140000001700000015000000160000001700000014000000180000001b000000190000001a0000001b000000180000001c0000001f0000001d0000001e0000001f0000001c000000200000002300000021000000220000002300000020000000240000002700000025000000260000002700000024000000280000002b000000290000002a0000002b000000280000002c0000002f0000002d0000002e0000002f0000002c000000300000003300000031000000320000003300000030000000340000003700000035000000360000003700000034000000
    material: {fileID: 2100000, guid: 41ef431e834cf49ab9c3e449da2299b2, type: 2}
    materialId: 0
    sourceTextureGUID: aeb3f8c1c387f49fe9f09e594be4290b
    extractRegion: 0
    regionX: 0
    regionY: 0
    regionW: 0
    regionH: 0
    flipped: 0
    complexGeometry: 0
    physicsEngine: 0
    colliderType: 1
    customColliders: []
    colliderVertices: []
    colliderIndicesFwd: 
    colliderIndicesBack: 
    colliderConvex: 0
    colliderSmoothSphereCollisions: 0
    polygonCollider2D: []
    edgeCollider2D: []
    attachPoints: []
  - name: Dinux
    boundsData:
    - {x: -0.00999999, y: -0.02000004, z: 0}
    - {x: 2.1000001, y: 1.5199999, z: 0}
    untrimmedBoundsData:
    - {x: 0, y: 0, z: 0}
    - {x: 2.2, y: 1.5999999, z: 0}
    texelSize: {x: 0.02, y: 0.02}
    positions:
    - {x: -1, y: -0.31999996, z: 0}
    - {x: -0.54, y: -0.31999996, z: 0}
    - {x: -1, y: 0, z: 0}
    - {x: -0.54, y: 0, z: 0}
    - {x: -1.0600001, y: 0, z: 0}
    - {x: -0.54, y: 0, z: 0}
    - {x: -1.0600001, y: 0.39999998, z: 0}
    - {x: -0.54, y: 0.39999998, z: 0}
    - {x: -0.98, y: 0.39999998, z: 0}
    - {x: -0.54, y: 0.39999998, z: 0}
    - {x: -0.98, y: 0.68, z: 0}
    - {x: -0.54, y: 0.68, z: 0}
    - {x: -0.34, y: -0.78, z: 0}
    - {x: 0.01999998, y: -0.78, z: 0}
    - {x: -0.34, y: -0.47999996, z: 0}
    - {x: 0.01999998, y: -0.47999996, z: 0}
    - {x: -0.54, y: -0.39999998, z: 0}
    - {x: 0.01999998, y: -0.39999998, z: 0}
    - {x: -0.54, y: 0, z: 0}
    - {x: 0.01999998, y: 0, z: 0}
    - {x: -0.54, y: 0, z: 0}
    - {x: 0.01999998, y: 0, z: 0}
    - {x: -0.54, y: 0.39999998, z: 0}
    - {x: 0.01999998, y: 0.39999998, z: 0}
    - {x: -0.54, y: 0.39999998, z: 0}
    - {x: 0.01999998, y: 0.39999998, z: 0}
    - {x: -0.54, y: 0.7399999, z: 0}
    - {x: 0.01999998, y: 0.7399999, z: 0}
    - {x: 0.01999998, y: -0.78, z: 0}
    - {x: 0.42000002, y: -0.78, z: 0}
    - {x: 0.01999998, y: -0.53999996, z: 0}
    - {x: 0.42000002, y: -0.53999996, z: 0}
    - {x: 0.01999998, y: -0.39999998, z: 0}
    - {x: 0.58, y: -0.39999998, z: 0}
    - {x: 0.01999998, y: 0, z: 0}
    - {x: 0.58, y: 0, z: 0}
    - {x: 0.01999998, y: 0, z: 0}
    - {x: 0.58, y: 0, z: 0}
    - {x: 0.01999998, y: 0.39999998, z: 0}
    - {x: 0.58, y: 0.39999998, z: 0}
    - {x: 0.01999998, y: 0.39999998, z: 0}
    - {x: 0.58, y: 0.39999998, z: 0}
    - {x: 0.01999998, y: 0.7399999, z: 0}
    - {x: 0.58, y: 0.7399999, z: 0}
    - {x: 0.58, y: -0.29999998, z: 0}
    - {x: 1, y: -0.29999998, z: 0}
    - {x: 0.58, y: 0, z: 0}
    - {x: 1, y: 0, z: 0}
    - {x: 0.58, y: 0, z: 0}
    - {x: 1.0400001, y: 0, z: 0}
    - {x: 0.58, y: 0.39999998, z: 0}
    - {x: 1.0400001, y: 0.39999998, z: 0}
    - {x: 0.58, y: 0.39999998, z: 0}
    - {x: 0.96000004, y: 0.39999998, z: 0}
    - {x: 0.58, y: 0.66, z: 0}
    - {x: 0.96000004, y: 0.66, z: 0}
    normals: []
    tangents: []
    uvs:
    - {x: 0.5507852, y: 0.43554884}
    - {x: 0.64062107, y: 0.43554884}
    - {x: 0.5507852, y: 0.4667949}
    - {x: 0.64062107, y: 0.4667949}
    - {x: 0.78906643, y: 0.26172072}
    - {x: 0.89062107, y: 0.26172072}
    - {x: 0.78906643, y: 0.30077928}
    - {x: 0.89062107, y: 0.30077928}
    - {x: 0.2812539, y: 0.49609572}
    - {x: 0.3671836, y: 0.49609572}
    - {x: 0.2812539, y: 0.52343553}
    - {x: 0.3671836, y: 0.52343553}
    - {x: 0.074222654, y: 0.6425801}
    - {x: 0.14452735, y: 0.6425801}
    - {x: 0.074222654, y: 0.67187303}
    - {x: 0.14452735, y: 0.67187303}
    - {x: 0.55469143, y: 0.1210957}
    - {x: 0.66405857, y: 0.1210957}
    - {x: 0.55469143, y: 0.1601543}
    - {x: 0.66405857, y: 0.1601543}
    - {x: 0.67969143, y: 0.1210957}
    - {x: 0.78905857, y: 0.1210957}
    - {x: 0.67969143, y: 0.1601543}
    - {x: 0.78905857, y: 0.1601543}
    - {x: 0.61719143, y: 0.34765822}
    - {x: 0.72655857, y: 0.34765822}
    - {x: 0.61719143, y: 0.3808574}
    - {x: 0.72655857, y: 0.3808574}
    - {x: 0.2578164, y: 0.6367207}
    - {x: 0.2578164, y: 0.6757793}
    - {x: 0.3046836, y: 0.6367207}
    - {x: 0.3046836, y: 0.6757793}
    - {x: 0.80469143, y: 0.1210957}
    - {x: 0.91405857, y: 0.1210957}
    - {x: 0.80469143, y: 0.1601543}
    - {x: 0.91405857, y: 0.1601543}
    - {x: 0.3984414, y: 0.1679707}
    - {x: 0.50780857, y: 0.1679707}
    - {x: 0.3984414, y: 0.2070293}
    - {x: 0.50780857, y: 0.2070293}
    - {x: 0.1250039, y: 0.32422072}
    - {x: 0.2343711, y: 0.32422072}
    - {x: 0.1250039, y: 0.3574199}
    - {x: 0.2343711, y: 0.3574199}
    - {x: 0.50781643, y: 0.51367384}
    - {x: 0.5898398, y: 0.51367384}
    - {x: 0.50781643, y: 0.5429668}
    - {x: 0.5898398, y: 0.5429668}
    - {x: 0.56250393, y: 0.38867384}
    - {x: 0.6523398, y: 0.38867384}
    - {x: 0.56250393, y: 0.4277324}
    - {x: 0.6523398, y: 0.4277324}
    - {x: 0.3515664, y: 0.57812697}
    - {x: 0.42577735, y: 0.57812697}
    - {x: 0.3515664, y: 0.60351366}
    - {x: 0.42577735, y: 0.60351366}
    normalizedUvs:
    - {x: 0.5674472, y: 0.56690544}
    - {x: 0.6744156, y: 0.56690544}
    - {x: 0.5674472, y: 0.6232368}
    - {x: 0.6744156, y: 0.6232368}
    - {x: 0.8511708, y: 0.25352296}
    - {x: 0.9720928, y: 0.25352296}
    - {x: 0.8511708, y: 0.3239389}
    - {x: 0.9720928, y: 0.3239389}
    - {x: 0.24651393, y: 0.67606115}
    - {x: 0.34883118, y: 0.67606115}
    - {x: 0.24651393, y: 0.7253502}
    - {x: 0.34883118, y: 0.7253502}
    - {x: 0, y: 0.9401475}
    - {x: 0.083712414, y: 0.9401475}
    - {x: 0, y: 0.9929577}
    - {x: 0.083712414, y: 0.9929577}
    - {x: 0.57209843, y: 0}
    - {x: 0.70232284, y: 0}
    - {x: 0.57209843, y: 0.070415996}
    - {x: 0.70232284, y: 0.070415996}
    - {x: 0.720937, y: 0}
    - {x: 0.8511614, y: 0}
    - {x: 0.720937, y: 0.070415996}
    - {x: 0.8511614, y: 0.070415996}
    - {x: 0.6465177, y: 0.4084536}
    - {x: 0.7767421, y: 0.4084536}
    - {x: 0.6465177, y: 0.46830612}
    - {x: 0.7767421, y: 0.46830612}
    - {x: 0.2186067, y: 0.9295841}
    - {x: 0.2186067, y: 1}
    - {x: 0.2744119, y: 0.9295841}
    - {x: 0.2744119, y: 1}
    - {x: 0.86977565, y: 0}
    - {x: 1, y: 0}
    - {x: 0.86977565, y: 0.070415996}
    - {x: 1, y: 0.070415996}
    - {x: 0.38605013, y: 0.084507644}
    - {x: 0.5162746, y: 0.084507644}
    - {x: 0.38605013, y: 0.15492363}
    - {x: 0.5162746, y: 0.15492363}
    - {x: 0.060465682, y: 0.36619982}
    - {x: 0.19069016, y: 0.36619982}
    - {x: 0.060465682, y: 0.4260523}
    - {x: 0.19069016, y: 0.4260523}
    - {x: 0.5162839, y: 0.7077515}
    - {x: 0.6139499, y: 0.7077515}
    - {x: 0.5162839, y: 0.7605617}
    - {x: 0.6139499, y: 0.7605617}
    - {x: 0.5814008, y: 0.48239782}
    - {x: 0.6883692, y: 0.48239782}
    - {x: 0.5814008, y: 0.55281377}
    - {x: 0.6883692, y: 0.55281377}
    - {x: 0.33023566, y: 0.8239495}
    - {x: 0.41859928, y: 0.8239495}
    - {x: 0.33023566, y: 0.8697174}
    - {x: 0.41859928, y: 0.8697174}
    indices: 000000000300000001000000020000000300000000000000040000000700000005000000060000000700000004000000080000000b000000090000000a0000000b000000080000000c0000000f0000000d0000000e0000000f0000000c000000100000001300000011000000120000001300000010000000140000001700000015000000160000001700000014000000180000001b000000190000001a0000001b000000180000001c0000001f0000001d0000001e0000001f0000001c000000200000002300000021000000220000002300000020000000240000002700000025000000260000002700000024000000280000002b000000290000002a0000002b000000280000002c0000002f0000002d0000002e0000002f0000002c000000300000003300000031000000320000003300000030000000340000003700000035000000360000003700000034000000
    material: {fileID: 2100000, guid: 41ef431e834cf49ab9c3e449da2299b2, type: 2}
    materialId: 0
    sourceTextureGUID: 1f4d7f02e301f4e0bab2a96cae82e5ea
    extractRegion: 0
    regionX: 0
    regionY: 0
    regionW: 0
    regionH: 0
    flipped: 0
    complexGeometry: 0
    physicsEngine: 0
    colliderType: 1
    customColliders: []
    colliderVertices: []
    colliderIndicesFwd: 
    colliderIndicesBack: 
    colliderConvex: 0
    colliderSmoothSphereCollisions: 0
    polygonCollider2D: []
    edgeCollider2D: []
    attachPoints: []
  - name: Vortium
    boundsData:
    - {x: -0.00999999, y: -0.02000004, z: 0}
    - {x: 2.1000001, y: 1.5199999, z: 0}
    untrimmedBoundsData:
    - {x: 0, y: 0, z: 0}
    - {x: 2.2, y: 1.5999999, z: 0}
    texelSize: {x: 0.02, y: 0.02}
    positions:
    - {x: -1, y: -0.31999996, z: 0}
    - {x: -0.54, y: -0.31999996, z: 0}
    - {x: -1, y: 0, z: 0}
    - {x: -0.54, y: 0, z: 0}
    - {x: -1.0600001, y: 0, z: 0}
    - {x: -0.54, y: 0, z: 0}
    - {x: -1.0600001, y: 0.39999998, z: 0}
    - {x: -0.54, y: 0.39999998, z: 0}
    - {x: -0.98, y: 0.39999998, z: 0}
    - {x: -0.54, y: 0.39999998, z: 0}
    - {x: -0.98, y: 0.68, z: 0}
    - {x: -0.54, y: 0.68, z: 0}
    - {x: -0.48000002, y: -0.78, z: 0}
    - {x: 0.01999998, y: -0.78, z: 0}
    - {x: -0.48000002, y: -0.47999996, z: 0}
    - {x: 0.01999998, y: -0.47999996, z: 0}
    - {x: -0.54, y: -0.39999998, z: 0}
    - {x: 0.01999998, y: -0.39999998, z: 0}
    - {x: -0.54, y: 0, z: 0}
    - {x: 0.01999998, y: 0, z: 0}
    - {x: -0.54, y: 0, z: 0}
    - {x: 0.01999998, y: 0, z: 0}
    - {x: -0.54, y: 0.39999998, z: 0}
    - {x: 0.01999998, y: 0.39999998, z: 0}
    - {x: -0.54, y: 0.39999998, z: 0}
    - {x: 0.01999998, y: 0.39999998, z: 0}
    - {x: -0.54, y: 0.7399999, z: 0}
    - {x: 0.01999998, y: 0.7399999, z: 0}
    - {x: 0.01999998, y: -0.78, z: 0}
    - {x: 0.54, y: -0.78, z: 0}
    - {x: 0.01999998, y: -0.47999996, z: 0}
    - {x: 0.54, y: -0.47999996, z: 0}
    - {x: 0.01999998, y: -0.39999998, z: 0}
    - {x: 0.58, y: -0.39999998, z: 0}
    - {x: 0.01999998, y: 0, z: 0}
    - {x: 0.58, y: 0, z: 0}
    - {x: 0.01999998, y: 0, z: 0}
    - {x: 0.58, y: 0, z: 0}
    - {x: 0.01999998, y: 0.39999998, z: 0}
    - {x: 0.58, y: 0.39999998, z: 0}
    - {x: 0.01999998, y: 0.39999998, z: 0}
    - {x: 0.58, y: 0.39999998, z: 0}
    - {x: 0.01999998, y: 0.7399999, z: 0}
    - {x: 0.58, y: 0.7399999, z: 0}
    - {x: 0.58, y: -0.29999998, z: 0}
    - {x: 1, y: -0.29999998, z: 0}
    - {x: 0.58, y: 0, z: 0}
    - {x: 1, y: 0, z: 0}
    - {x: 0.58, y: 0, z: 0}
    - {x: 1.0400001, y: 0, z: 0}
    - {x: 0.58, y: 0.39999998, z: 0}
    - {x: 1.0400001, y: 0.39999998, z: 0}
    - {x: 0.58, y: 0.39999998, z: 0}
    - {x: 0.96000004, y: 0.39999998, z: 0}
    - {x: 0.58, y: 0.66, z: 0}
    - {x: 0.96000004, y: 0.66, z: 0}
    normals: []
    tangents: []
    uvs:
    - {x: 0.65625393, y: 0.43554884}
    - {x: 0.7460898, y: 0.43554884}
    - {x: 0.65625393, y: 0.4667949}
    - {x: 0.7460898, y: 0.4667949}
    - {x: 0.90625393, y: 0.26172072}
    - {x: 0.90625393, y: 0.31249803}
    - {x: 0.98437107, y: 0.26172072}
    - {x: 0.98437107, y: 0.31249803}
    - {x: 0.2812539, y: 0.53125197}
    - {x: 0.3671836, y: 0.53125197}
    - {x: 0.2812539, y: 0.5585918}
    - {x: 0.3671836, y: 0.5585918}
    - {x: 0.007816406, y: 0.51562697}
    - {x: 0.007816406, y: 0.56445116}
    - {x: 0.066402346, y: 0.51562697}
    - {x: 0.066402346, y: 0.56445116}
    - {x: 0.1328164, y: 0.1835957}
    - {x: 0.2421836, y: 0.1835957}
    - {x: 0.1328164, y: 0.2226543}
    - {x: 0.2421836, y: 0.2226543}
    - {x: 0.007816406, y: 0.1914082}
    - {x: 0.117183596, y: 0.1914082}
    - {x: 0.007816406, y: 0.2304668}
    - {x: 0.117183596, y: 0.2304668}
    - {x: 0.007816406, y: 0.33203322}
    - {x: 0.007816406, y: 0.38671678}
    - {x: 0.074214846, y: 0.33203322}
    - {x: 0.074214846, y: 0.38671678}
    - {x: 0.085941404, y: 0.4941426}
    - {x: 0.1874961, y: 0.4941426}
    - {x: 0.085941404, y: 0.52343553}
    - {x: 0.1874961, y: 0.52343553}
    - {x: 0.2578164, y: 0.1835957}
    - {x: 0.3671836, y: 0.1835957}
    - {x: 0.2578164, y: 0.2226543}
    - {x: 0.3671836, y: 0.2226543}
    - {x: 0.52344143, y: 0.1679707}
    - {x: 0.63280857, y: 0.1679707}
    - {x: 0.52344143, y: 0.2070293}
    - {x: 0.63280857, y: 0.2070293}
    - {x: 0.2500039, y: 0.32422072}
    - {x: 0.3593711, y: 0.32422072}
    - {x: 0.2500039, y: 0.3574199}
    - {x: 0.3593711, y: 0.3574199}
    - {x: 0.6054727, y: 0.52929884}
    - {x: 0.68749607, y: 0.52929884}
    - {x: 0.6054727, y: 0.5585918}
    - {x: 0.68749607, y: 0.5585918}
    - {x: 0.6679727, y: 0.38867384}
    - {x: 0.75780857, y: 0.38867384}
    - {x: 0.6679727, y: 0.4277324}
    - {x: 0.75780857, y: 0.4277324}
    - {x: 0.2578164, y: 0.6035176}
    - {x: 0.33202735, y: 0.6035176}
    - {x: 0.2578164, y: 0.6289043}
    - {x: 0.33202735, y: 0.6289043}
    normalizedUvs:
    - {x: 0.6640054, y: 0.5805135}
    - {x: 0.7559981, y: 0.5805135}
    - {x: 0.6640054, y: 0.64830214}
    - {x: 0.7559981, y: 0.64830214}
    - {x: 0.92000747, y: 0.2033916}
    - {x: 0.92000747, y: 0.31355348}
    - {x: 1, y: 0.2033916}
    - {x: 1, y: 0.31355348}
    - {x: 0.28000227, y: 0.7881423}
    - {x: 0.36799496, y: 0.7881423}
    - {x: 0.28000227, y: 0.84745634}
    - {x: 0.36799496, y: 0.84745634}
    - {x: 0, y: 0.75424373}
    - {x: 0, y: 0.86016834}
    - {x: 0.059992485, y: 0.75424373}
    - {x: 0.059992485, y: 0.86016834}
    - {x: 0.12800103, y: 0.033898596}
    - {x: 0.23999393, y: 0.033898596}
    - {x: 0.12800103, y: 0.11863661}
    - {x: 0.23999393, y: 0.11863661}
    - {x: 0, y: 0.05084789}
    - {x: 0.1119929, y: 0.05084789}
    - {x: 0, y: 0.1355859}
    - {x: 0.1119929, y: 0.1355859}
    - {x: 0, y: 0.35593528}
    - {x: 0, y: 0.47457182}
    - {x: 0.06799255, y: 0.35593528}
    - {x: 0.06799255, y: 0.47457182}
    - {x: 0.08000064, y: 0.7076332}
    - {x: 0.18399349, y: 0.7076332}
    - {x: 0.08000064, y: 0.7711845}
    - {x: 0.18399349, y: 0.7711845}
    - {x: 0.25600207, y: 0.033898596}
    - {x: 0.36799496, y: 0.033898596}
    - {x: 0.25600207, y: 0.11863661}
    - {x: 0.36799496, y: 0.11863661}
    - {x: 0.5280043, y: 0}
    - {x: 0.6399971, y: 0}
    - {x: 0.5280043, y: 0.084738016}
    - {x: 0.6399971, y: 0.084738016}
    - {x: 0.248002, y: 0.33898598}
    - {x: 0.3599949, y: 0.33898598}
    - {x: 0.248002, y: 0.41101196}
    - {x: 0.3599949, y: 0.41101196}
    - {x: 0.61200494, y: 0.783905}
    - {x: 0.6959976, y: 0.783905}
    - {x: 0.61200494, y: 0.84745634}
    - {x: 0.6959976, y: 0.84745634}
    - {x: 0.6760055, y: 0.47881767}
    - {x: 0.76799816, y: 0.47881767}
    - {x: 0.6760055, y: 0.56355566}
    - {x: 0.76799816, y: 0.56355566}
    - {x: 0.25600207, y: 0.94492334}
    - {x: 0.33199468, y: 0.94492334}
    - {x: 0.25600207, y: 1}
    - {x: 0.33199468, y: 1}
    indices: 000000000300000001000000020000000300000000000000040000000700000005000000060000000700000004000000080000000b000000090000000a0000000b000000080000000c0000000f0000000d0000000e0000000f0000000c000000100000001300000011000000120000001300000010000000140000001700000015000000160000001700000014000000180000001b000000190000001a0000001b000000180000001c0000001f0000001d0000001e0000001f0000001c000000200000002300000021000000220000002300000020000000240000002700000025000000260000002700000024000000280000002b000000290000002a0000002b000000280000002c0000002f0000002d0000002e0000002f0000002c000000300000003300000031000000320000003300000030000000340000003700000035000000360000003700000034000000
    material: {fileID: 2100000, guid: 41ef431e834cf49ab9c3e449da2299b2, type: 2}
    materialId: 0
    sourceTextureGUID: 751fdec51dba640659e836990f7b8de0
    extractRegion: 0
    regionX: 0
    regionY: 0
    regionW: 0
    regionH: 0
    flipped: 0
    complexGeometry: 0
    physicsEngine: 0
    colliderType: 1
    customColliders: []
    colliderVertices: []
    colliderIndicesFwd: 
    colliderIndicesBack: 
    colliderConvex: 0
    colliderSmoothSphereCollisions: 0
    polygonCollider2D: []
    edgeCollider2D: []
    attachPoints: []
  - name: Cygnus
    boundsData:
    - {x: -0.00999999, y: -0.030000031, z: 0}
    - {x: 2.1000001, y: 1.5399998, z: 0}
    untrimmedBoundsData:
    - {x: 0, y: 0, z: 0}
    - {x: 2.2, y: 1.5999999, z: 0}
    texelSize: {x: 0.02, y: 0.02}
    positions:
    - {x: -1, y: -0.31999996, z: 0}
    - {x: -0.54, y: -0.31999996, z: 0}
    - {x: -1, y: 0, z: 0}
    - {x: -0.54, y: 0, z: 0}
    - {x: -1.0600001, y: 0, z: 0}
    - {x: -0.54, y: 0, z: 0}
    - {x: -1.0600001, y: 0.39999998, z: 0}
    - {x: -0.54, y: 0.39999998, z: 0}
    - {x: -0.98, y: 0.39999998, z: 0}
    - {x: -0.54, y: 0.39999998, z: 0}
    - {x: -0.98, y: 0.68, z: 0}
    - {x: -0.54, y: 0.68, z: 0}
    - {x: -0.5, y: -0.79999995, z: 0}
    - {x: 0.01999998, y: -0.79999995, z: 0}
    - {x: -0.5, y: -0.47999996, z: 0}
    - {x: 0.01999998, y: -0.47999996, z: 0}
    - {x: -0.54, y: -0.39999998, z: 0}
    - {x: 0.01999998, y: -0.39999998, z: 0}
    - {x: -0.54, y: 0, z: 0}
    - {x: 0.01999998, y: 0, z: 0}
    - {x: -0.54, y: 0, z: 0}
    - {x: 0.01999998, y: 0, z: 0}
    - {x: -0.54, y: 0.39999998, z: 0}
    - {x: 0.01999998, y: 0.39999998, z: 0}
    - {x: -0.54, y: 0.39999998, z: 0}
    - {x: 0.01999998, y: 0.39999998, z: 0}
    - {x: -0.54, y: 0.7399999, z: 0}
    - {x: 0.01999998, y: 0.7399999, z: 0}
    - {x: 0.01999998, y: -0.79999995, z: 0}
    - {x: 0.54, y: -0.79999995, z: 0}
    - {x: 0.01999998, y: -0.53999996, z: 0}
    - {x: 0.54, y: -0.53999996, z: 0}
    - {x: 0.01999998, y: -0.39999998, z: 0}
    - {x: 0.58, y: -0.39999998, z: 0}
    - {x: 0.01999998, y: 0, z: 0}
    - {x: 0.58, y: 0, z: 0}
    - {x: 0.01999998, y: 0, z: 0}
    - {x: 0.58, y: 0, z: 0}
    - {x: 0.01999998, y: 0.39999998, z: 0}
    - {x: 0.58, y: 0.39999998, z: 0}
    - {x: 0.01999998, y: 0.39999998, z: 0}
    - {x: 0.58, y: 0.39999998, z: 0}
    - {x: 0.01999998, y: 0.7399999, z: 0}
    - {x: 0.58, y: 0.7399999, z: 0}
    - {x: 0.58, y: -0.29999998, z: 0}
    - {x: 0.98, y: -0.29999998, z: 0}
    - {x: 0.58, y: 0, z: 0}
    - {x: 0.98, y: 0, z: 0}
    - {x: 0.58, y: 0, z: 0}
    - {x: 1.0400001, y: 0, z: 0}
    - {x: 0.58, y: 0.39999998, z: 0}
    - {x: 1.0400001, y: 0.39999998, z: 0}
    - {x: 0.58, y: 0.39999998, z: 0}
    - {x: 0.96000004, y: 0.39999998, z: 0}
    - {x: 0.58, y: 0.66, z: 0}
    - {x: 0.96000004, y: 0.66, z: 0}
    normals: []
    tangents: []
    uvs:
    - {x: 0.7617227, y: 0.44922072}
    - {x: 0.7617227, y: 0.49413866}
    - {x: 0.8242148, y: 0.44922072}
    - {x: 0.8242148, y: 0.49413866}
    - {x: 0.50781643, y: 0.30078322}
    - {x: 0.60937107, y: 0.30078322}
    - {x: 0.50781643, y: 0.33984178}
    - {x: 0.60937107, y: 0.33984178}
    - {x: 0.1875039, y: 0.54687697}
    - {x: 0.1875039, y: 0.5898418}
    - {x: 0.2421836, y: 0.54687697}
    - {x: 0.2421836, y: 0.5898418}
    - {x: 0.007816406, y: 0.45703322}
    - {x: 0.007816406, y: 0.50781053}
    - {x: 0.070308596, y: 0.45703322}
    - {x: 0.070308596, y: 0.50781053}
    - {x: 0.64844143, y: 0.1679707}
    - {x: 0.75780857, y: 0.1679707}
    - {x: 0.64844143, y: 0.2070293}
    - {x: 0.75780857, y: 0.2070293}
    - {x: 0.77344143, y: 0.1679707}
    - {x: 0.88280857, y: 0.1679707}
    - {x: 0.77344143, y: 0.2070293}
    - {x: 0.88280857, y: 0.2070293}
    - {x: 0.3750039, y: 0.35547072}
    - {x: 0.3750039, y: 0.41015428}
    - {x: 0.44140235, y: 0.35547072}
    - {x: 0.44140235, y: 0.41015428}
    - {x: 0.44141015, y: 0.48242384}
    - {x: 0.44141015, y: 0.53320116}
    - {x: 0.4921836, y: 0.48242384}
    - {x: 0.4921836, y: 0.53320116}
    - {x: 0.3828164, y: 0.2148457}
    - {x: 0.4921836, y: 0.2148457}
    - {x: 0.3828164, y: 0.25390428}
    - {x: 0.4921836, y: 0.25390428}
    - {x: 0.1328164, y: 0.2304707}
    - {x: 0.2421836, y: 0.2304707}
    - {x: 0.1328164, y: 0.26952928}
    - {x: 0.2421836, y: 0.26952928}
    - {x: 0.089847654, y: 0.36523634}
    - {x: 0.19921485, y: 0.36523634}
    - {x: 0.089847654, y: 0.39843553}
    - {x: 0.19921485, y: 0.39843553}
    - {x: 0.3828164, y: 0.5410176}
    - {x: 0.4609336, y: 0.5410176}
    - {x: 0.3828164, y: 0.57031053}
    - {x: 0.4609336, y: 0.57031053}
    - {x: 0.089847654, y: 0.4472676}
    - {x: 0.1796836, y: 0.4472676}
    - {x: 0.089847654, y: 0.48632616}
    - {x: 0.1796836, y: 0.48632616}
    - {x: 0.5585977, y: 0.5664082}
    - {x: 0.63280857, y: 0.5664082}
    - {x: 0.5585977, y: 0.5917949}
    - {x: 0.63280857, y: 0.5917949}
    normalizedUvs:
    - {x: 0.86161494, y: 0.6636007}
    - {x: 0.86161494, y: 0.76958317}
    - {x: 0.93303514, y: 0.6636007}
    - {x: 0.93303514, y: 0.76958317}
    - {x: 0.5714337, y: 0.313367}
    - {x: 0.6874972, y: 0.313367}
    - {x: 0.5714337, y: 0.40552446}
    - {x: 0.6874972, y: 0.40552446}
    - {x: 0.20535898, y: 0.8940176}
    - {x: 0.20535898, y: 0.9953917}
    - {x: 0.26785064, y: 0.8940176}
    - {x: 0.26785064, y: 0.9953917}
    - {x: 0, y: 0.682034}
    - {x: 0, y: 0.8018415}
    - {x: 0.07142029, y: 0.682034}
    - {x: 0.07142029, y: 0.8018415}
    - {x: 0.7321495, y: 0}
    - {x: 0.8571416, y: 0}
    - {x: 0.7321495, y: 0.09215754}
    - {x: 0.8571416, y: 0.09215754}
    - {x: 0.8750079, y: 0}
    - {x: 1, y: 0}
    - {x: 0.8750079, y: 0.09215754}
    - {x: 1, y: 0.09215754}
    - {x: 0.41964662, y: 0.44240046}
    - {x: 0.41964662, y: 0.5714246}
    - {x: 0.49553123, y: 0.44240046}
    - {x: 0.49553123, y: 0.5714246}
    - {x: 0.49554017, y: 0.7419424}
    - {x: 0.49554017, y: 0.8617499}
    - {x: 0.55356747, y: 0.7419424}
    - {x: 0.55356747, y: 0.8617499}
    - {x: 0.42857528, y: 0.11060011}
    - {x: 0.55356747, y: 0.11060011}
    - {x: 0.42857528, y: 0.20275761}
    - {x: 0.55356747, y: 0.20275761}
    - {x: 0.14285843, y: 0.14746681}
    - {x: 0.26785064, y: 0.14746681}
    - {x: 0.14285843, y: 0.2396243}
    - {x: 0.26785064, y: 0.2396243}
    - {x: 0.09375084, y: 0.46544215}
    - {x: 0.21874304, y: 0.46544215}
    - {x: 0.09375084, y: 0.5437746}
    - {x: 0.21874304, y: 0.5437746}
    - {x: 0.42857528, y: 0.8801925}
    - {x: 0.5178529, y: 0.8801925}
    - {x: 0.42857528, y: 0.94930834}
    - {x: 0.5178529, y: 0.94930834}
    - {x: 0.09375084, y: 0.65899235}
    - {x: 0.19642141, y: 0.65899235}
    - {x: 0.09375084, y: 0.7511498}
    - {x: 0.19642141, y: 0.7511498}
    - {x: 0.62947, y: 0.9401009}
    - {x: 0.71428317, y: 0.9401009}
    - {x: 0.62947, y: 1}
    - {x: 0.71428317, y: 1}
    indices: 000000000300000001000000020000000300000000000000040000000700000005000000060000000700000004000000080000000b000000090000000a0000000b000000080000000c0000000f0000000d0000000e0000000f0000000c000000100000001300000011000000120000001300000010000000140000001700000015000000160000001700000014000000180000001b000000190000001a0000001b000000180000001c0000001f0000001d0000001e0000001f0000001c000000200000002300000021000000220000002300000020000000240000002700000025000000260000002700000024000000280000002b000000290000002a0000002b000000280000002c0000002f0000002d0000002e0000002f0000002c000000300000003300000031000000320000003300000030000000340000003700000035000000360000003700000034000000
    material: {fileID: 2100000, guid: 41ef431e834cf49ab9c3e449da2299b2, type: 2}
    materialId: 0
    sourceTextureGUID: 2a5c33b7a58544172a6c7905de56a6cd
    extractRegion: 0
    regionX: 0
    regionY: 0
    regionW: 0
    regionH: 0
    flipped: 0
    complexGeometry: 0
    physicsEngine: 0
    colliderType: 1
    customColliders: []
    colliderVertices: []
    colliderIndicesFwd: 
    colliderIndicesBack: 
    colliderConvex: 0
    colliderSmoothSphereCollisions: 0
    polygonCollider2D: []
    edgeCollider2D: []
    attachPoints: []
  - name: Niebla
    boundsData:
    - {x: -0.00999999, y: -0.02000004, z: 0}
    - {x: 2.1000001, y: 1.5199999, z: 0}
    untrimmedBoundsData:
    - {x: 0, y: 0, z: 0}
    - {x: 2.2, y: 1.5999999, z: 0}
    texelSize: {x: 0.02, y: 0.02}
    positions:
    - {x: -1, y: -0.31999996, z: 0}
    - {x: -0.54, y: -0.31999996, z: 0}
    - {x: -1, y: 0, z: 0}
    - {x: -0.54, y: 0, z: 0}
    - {x: -1.0600001, y: 0, z: 0}
    - {x: -0.54, y: 0, z: 0}
    - {x: -1.0600001, y: 0.39999998, z: 0}
    - {x: -0.54, y: 0.39999998, z: 0}
    - {x: -0.98, y: 0.39999998, z: 0}
    - {x: -0.54, y: 0.39999998, z: 0}
    - {x: -0.98, y: 0.68, z: 0}
    - {x: -0.54, y: 0.68, z: 0}
    - {x: -0.38000003, y: -0.78, z: 0}
    - {x: 0.01999998, y: -0.78, z: 0}
    - {x: -0.38000003, y: -0.47999996, z: 0}
    - {x: 0.01999998, y: -0.47999996, z: 0}
    - {x: -0.54, y: -0.39999998, z: 0}
    - {x: 0.01999998, y: -0.39999998, z: 0}
    - {x: -0.54, y: 0, z: 0}
    - {x: 0.01999998, y: 0, z: 0}
    - {x: -0.54, y: 0, z: 0}
    - {x: 0.01999998, y: 0, z: 0}
    - {x: -0.54, y: 0.39999998, z: 0}
    - {x: 0.01999998, y: 0.39999998, z: 0}
    - {x: -0.54, y: 0.39999998, z: 0}
    - {x: 0.01999998, y: 0.39999998, z: 0}
    - {x: -0.54, y: 0.7399999, z: 0}
    - {x: 0.01999998, y: 0.7399999, z: 0}
    - {x: 0.01999998, y: -0.78, z: 0}
    - {x: 0.45999998, y: -0.78, z: 0}
    - {x: 0.01999998, y: -0.47999996, z: 0}
    - {x: 0.45999998, y: -0.47999996, z: 0}
    - {x: 0.01999998, y: -0.39999998, z: 0}
    - {x: 0.58, y: -0.39999998, z: 0}
    - {x: 0.01999998, y: 0, z: 0}
    - {x: 0.58, y: 0, z: 0}
    - {x: 0.01999998, y: 0, z: 0}
    - {x: 0.58, y: 0, z: 0}
    - {x: 0.01999998, y: 0.39999998, z: 0}
    - {x: 0.58, y: 0.39999998, z: 0}
    - {x: 0.01999998, y: 0.39999998, z: 0}
    - {x: 0.58, y: 0.39999998, z: 0}
    - {x: 0.01999998, y: 0.7399999, z: 0}
    - {x: 0.58, y: 0.7399999, z: 0}
    - {x: 0.58, y: -0.29999998, z: 0}
    - {x: 1, y: -0.29999998, z: 0}
    - {x: 0.58, y: 0, z: 0}
    - {x: 1, y: 0, z: 0}
    - {x: 0.58, y: 0, z: 0}
    - {x: 1.0400001, y: 0, z: 0}
    - {x: 0.58, y: 0.39999998, z: 0}
    - {x: 1.0400001, y: 0.39999998, z: 0}
    - {x: 0.58, y: 0.39999998, z: 0}
    - {x: 0.96000004, y: 0.39999998, z: 0}
    - {x: 0.58, y: 0.66, z: 0}
    - {x: 0.96000004, y: 0.66, z: 0}
    normals: []
    tangents: []
    uvs:
    - {x: 0.8398477, y: 0.48047072}
    - {x: 0.92968357, y: 0.48047072}
    - {x: 0.8398477, y: 0.5117168}
    - {x: 0.92968357, y: 0.5117168}
    - {x: 0.3750039, y: 0.30859572}
    - {x: 0.4765586, y: 0.30859572}
    - {x: 0.3750039, y: 0.34765428}
    - {x: 0.4765586, y: 0.34765428}
    - {x: 0.082035154, y: 0.57031447}
    - {x: 0.16796485, y: 0.57031447}
    - {x: 0.082035154, y: 0.5976543}
    - {x: 0.16796485, y: 0.5976543}
    - {x: 0.2578164, y: 0.5664082}
    - {x: 0.3359336, y: 0.5664082}
    - {x: 0.2578164, y: 0.59570116}
    - {x: 0.3359336, y: 0.59570116}
    - {x: 0.007816406, y: 0.2382832}
    - {x: 0.117183596, y: 0.2382832}
    - {x: 0.007816406, y: 0.27734178}
    - {x: 0.117183596, y: 0.27734178}
    - {x: 0.2578164, y: 0.2304707}
    - {x: 0.3671836, y: 0.2304707}
    - {x: 0.2578164, y: 0.26952928}
    - {x: 0.3671836, y: 0.26952928}
    - {x: 0.007816406, y: 0.39453322}
    - {x: 0.007816406, y: 0.44921678}
    - {x: 0.074214846, y: 0.39453322}
    - {x: 0.074214846, y: 0.44921678}
    - {x: 0.89844143, y: 0.5351582}
    - {x: 0.98437107, y: 0.5351582}
    - {x: 0.89844143, y: 0.56445116}
    - {x: 0.98437107, y: 0.56445116}
    - {x: 0.50781643, y: 0.2148457}
    - {x: 0.61718357, y: 0.2148457}
    - {x: 0.50781643, y: 0.25390428}
    - {x: 0.61718357, y: 0.25390428}
    - {x: 0.63281643, y: 0.2148457}
    - {x: 0.74218357, y: 0.2148457}
    - {x: 0.63281643, y: 0.25390428}
    - {x: 0.74218357, y: 0.25390428}
    - {x: 0.21484765, y: 0.36523634}
    - {x: 0.32421485, y: 0.36523634}
    - {x: 0.21484765, y: 0.39843553}
    - {x: 0.32421485, y: 0.39843553}
    - {x: 0.70312893, y: 0.56250197}
    - {x: 0.70312893, y: 0.60351366}
    - {x: 0.7617148, y: 0.56250197}
    - {x: 0.7617148, y: 0.60351366}
    - {x: 0.1953164, y: 0.4472676}
    - {x: 0.28515235, y: 0.4472676}
    - {x: 0.1953164, y: 0.48632616}
    - {x: 0.28515235, y: 0.48632616}
    - {x: 0.44141015, y: 0.5878926}
    - {x: 0.51562107, y: 0.5878926}
    - {x: 0.44141015, y: 0.6132793}
    - {x: 0.51562107, y: 0.6132793}
    normalizedUvs:
    - {x: 0.8520069, y: 0.6666733}
    - {x: 0.9439996, y: 0.6666733}
    - {x: 0.8520069, y: 0.74509555}
    - {x: 0.9439996, y: 0.74509555}
    - {x: 0.37600303, y: 0.23529647}
    - {x: 0.47999588, y: 0.23529647}
    - {x: 0.37600303, y: 0.3333268}
    - {x: 0.47999588, y: 0.3333268}
    - {x: 0.07600061, y: 0.8921657}
    - {x: 0.16399333, y: 0.8921657}
    - {x: 0.07600061, y: 0.96078396}
    - {x: 0.16399333, y: 0.96078396}
    - {x: 0.25600207, y: 0.8823617}
    - {x: 0.33599472, y: 0.8823617}
    - {x: 0.25600207, y: 0.95588195}
    - {x: 0.33599472, y: 0.95588195}
    - {x: 0, y: 0.05882411}
    - {x: 0.1119929, y: 0.05882411}
    - {x: 0, y: 0.15685445}
    - {x: 0.1119929, y: 0.15685445}
    - {x: 0.25600207, y: 0.039216075}
    - {x: 0.36799496, y: 0.039216075}
    - {x: 0.25600207, y: 0.13724642}
    - {x: 0.36799496, y: 0.13724642}
    - {x: 0, y: 0.4509849}
    - {x: 0, y: 0.58823127}
    - {x: 0.06799255, y: 0.4509849}
    - {x: 0.06799255, y: 0.58823127}
    - {x: 0.9120074, y: 0.80392957}
    - {x: 1, y: 0.80392957}
    - {x: 0.9120074, y: 0.8774498}
    - {x: 1, y: 0.8774498}
    - {x: 0.51200414, y: 0}
    - {x: 0.623997, y: 0}
    - {x: 0.51200414, y: 0.09803035}
    - {x: 0.623997, y: 0.09803035}
    - {x: 0.6400052, y: 0}
    - {x: 0.751998, y: 0}
    - {x: 0.6400052, y: 0.09803035}
    - {x: 0.751998, y: 0.09803035}
    - {x: 0.21200171, y: 0.37745476}
    - {x: 0.3239946, y: 0.37745476}
    - {x: 0.21200171, y: 0.46077904}
    - {x: 0.3239946, y: 0.46077904}
    - {x: 0.7120058, y: 0.8725577}
    - {x: 0.7120058, y: 0.97549}
    - {x: 0.77199817, y: 0.8725577}
    - {x: 0.77199817, y: 0.97549}
    - {x: 0.19200155, y: 0.58333915}
    - {x: 0.2839943, y: 0.58333915}
    - {x: 0.19200155, y: 0.6813694}
    - {x: 0.2839943, y: 0.6813694}
    - {x: 0.44400358, y: 0.93628377}
    - {x: 0.51999617, y: 0.93628377}
    - {x: 0.44400358, y: 1}
    - {x: 0.51999617, y: 1}
    indices: 000000000300000001000000020000000300000000000000040000000700000005000000060000000700000004000000080000000b000000090000000a0000000b000000080000000c0000000f0000000d0000000e0000000f0000000c000000100000001300000011000000120000001300000010000000140000001700000015000000160000001700000014000000180000001b000000190000001a0000001b000000180000001c0000001f0000001d0000001e0000001f0000001c000000200000002300000021000000220000002300000020000000240000002700000025000000260000002700000024000000280000002b000000290000002a0000002b000000280000002c0000002f0000002d0000002e0000002f0000002c000000300000003300000031000000320000003300000030000000340000003700000035000000360000003700000034000000
    material: {fileID: 2100000, guid: 41ef431e834cf49ab9c3e449da2299b2, type: 2}
    materialId: 0
    sourceTextureGUID: 57ecbb89c026a481bb8f4e98d1383ec5
    extractRegion: 0
    regionX: 0
    regionY: 0
    regionW: 0
    regionH: 0
    flipped: 0
    complexGeometry: 0
    physicsEngine: 0
    colliderType: 1
    customColliders: []
    colliderVertices: []
    colliderIndicesFwd: 
    colliderIndicesBack: 
    colliderConvex: 0
    colliderSmoothSphereCollisions: 0
    polygonCollider2D: []
    edgeCollider2D: []
    attachPoints: []
  - name: Merope
    boundsData:
    - {x: -0.00999999, y: -0.030000031, z: 0}
    - {x: 2.1000001, y: 1.5399998, z: 0}
    untrimmedBoundsData:
    - {x: 0, y: 0, z: 0}
    - {x: 2.2, y: 1.5999999, z: 0}
    texelSize: {x: 0.02, y: 0.02}
    positions:
    - {x: -1, y: -0.31999996, z: 0}
    - {x: -0.54, y: -0.31999996, z: 0}
    - {x: -1, y: 0, z: 0}
    - {x: -0.54, y: 0, z: 0}
    - {x: -1.0600001, y: 0, z: 0}
    - {x: -0.54, y: 0, z: 0}
    - {x: -1.0600001, y: 0.39999998, z: 0}
    - {x: -0.54, y: 0.39999998, z: 0}
    - {x: -0.98, y: 0.39999998, z: 0}
    - {x: -0.54, y: 0.39999998, z: 0}
    - {x: -0.98, y: 0.68, z: 0}
    - {x: -0.54, y: 0.68, z: 0}
    - {x: -0.46000004, y: -0.78, z: 0}
    - {x: 0.01999998, y: -0.78, z: 0}
    - {x: -0.46000004, y: -0.47999996, z: 0}
    - {x: 0.01999998, y: -0.47999996, z: 0}
    - {x: -0.54, y: -0.39999998, z: 0}
    - {x: 0.01999998, y: -0.39999998, z: 0}
    - {x: -0.54, y: 0, z: 0}
    - {x: 0.01999998, y: 0, z: 0}
    - {x: -0.54, y: 0, z: 0}
    - {x: 0.01999998, y: 0, z: 0}
    - {x: -0.54, y: 0.39999998, z: 0}
    - {x: 0.01999998, y: 0.39999998, z: 0}
    - {x: -0.54, y: 0.39999998, z: 0}
    - {x: 0.01999998, y: 0.39999998, z: 0}
    - {x: -0.54, y: 0.7399999, z: 0}
    - {x: 0.01999998, y: 0.7399999, z: 0}
    - {x: 0.01999998, y: -0.79999995, z: 0}
    - {x: 0.56, y: -0.79999995, z: 0}
    - {x: 0.01999998, y: -0.53999996, z: 0}
    - {x: 0.56, y: -0.53999996, z: 0}
    - {x: 0.01999998, y: -0.39999998, z: 0}
    - {x: 0.58, y: -0.39999998, z: 0}
    - {x: 0.01999998, y: 0, z: 0}
    - {x: 0.58, y: 0, z: 0}
    - {x: 0.01999998, y: 0, z: 0}
    - {x: 0.58, y: 0, z: 0}
    - {x: 0.01999998, y: 0.39999998, z: 0}
    - {x: 0.58, y: 0.39999998, z: 0}
    - {x: 0.01999998, y: 0.39999998, z: 0}
    - {x: 0.58, y: 0.39999998, z: 0}
    - {x: 0.01999998, y: 0.7399999, z: 0}
    - {x: 0.58, y: 0.7399999, z: 0}
    - {x: 0.58, y: -0.29999998, z: 0}
    - {x: 0.98, y: -0.29999998, z: 0}
    - {x: 0.58, y: 0, z: 0}
    - {x: 0.98, y: 0, z: 0}
    - {x: 0.58, y: 0, z: 0}
    - {x: 1.0400001, y: 0, z: 0}
    - {x: 0.58, y: 0.39999998, z: 0}
    - {x: 1.0400001, y: 0.39999998, z: 0}
    - {x: 0.58, y: 0.39999998, z: 0}
    - {x: 0.96000004, y: 0.39999998, z: 0}
    - {x: 0.58, y: 0.66, z: 0}
    - {x: 0.96000004, y: 0.66, z: 0}
    normals: []
    tangents: []
    uvs:
    - {x: 0.5507852, y: 0.47461134}
    - {x: 0.64062107, y: 0.47461134}
    - {x: 0.5507852, y: 0.5058574}
    - {x: 0.64062107, y: 0.5058574}
    - {x: 0.62500393, y: 0.30078322}
    - {x: 0.72655857, y: 0.30078322}
    - {x: 0.62500393, y: 0.33984178}
    - {x: 0.72655857, y: 0.33984178}
    - {x: 0.007816406, y: 0.5722676}
    - {x: 0.007816406, y: 0.6152324}
    - {x: 0.062496092, y: 0.5722676}
    - {x: 0.062496092, y: 0.6152324}
    - {x: 0.65625393, y: 0.47461134}
    - {x: 0.65625393, y: 0.5214824}
    - {x: 0.7148398, y: 0.47461134}
    - {x: 0.7148398, y: 0.5214824}
    - {x: 0.75781643, y: 0.2148457}
    - {x: 0.86718357, y: 0.2148457}
    - {x: 0.75781643, y: 0.25390428}
    - {x: 0.86718357, y: 0.25390428}
    - {x: 0.88281643, y: 0.2148457}
    - {x: 0.99218357, y: 0.2148457}
    - {x: 0.88281643, y: 0.25390428}
    - {x: 0.99218357, y: 0.25390428}
    - {x: 0.089847654, y: 0.40625197}
    - {x: 0.19921485, y: 0.40625197}
    - {x: 0.089847654, y: 0.43945116}
    - {x: 0.19921485, y: 0.43945116}
    - {x: 0.7304727, y: 0.5019551}
    - {x: 0.7304727, y: 0.55468553}
    - {x: 0.78124607, y: 0.5019551}
    - {x: 0.78124607, y: 0.55468553}
    - {x: 0.3828164, y: 0.26172072}
    - {x: 0.4921836, y: 0.26172072}
    - {x: 0.3828164, y: 0.30077928}
    - {x: 0.4921836, y: 0.30077928}
    - {x: 0.1328164, y: 0.27734572}
    - {x: 0.2421836, y: 0.27734572}
    - {x: 0.1328164, y: 0.31640428}
    - {x: 0.2421836, y: 0.31640428}
    - {x: 0.21484765, y: 0.40625197}
    - {x: 0.32421485, y: 0.40625197}
    - {x: 0.21484765, y: 0.43945116}
    - {x: 0.32421485, y: 0.43945116}
    - {x: 0.18359765, y: 0.5976582}
    - {x: 0.18359765, y: 0.6367168}
    - {x: 0.2421836, y: 0.5976582}
    - {x: 0.2421836, y: 0.6367168}
    - {x: 0.4453164, y: 0.43554884}
    - {x: 0.5351523, y: 0.43554884}
    - {x: 0.4453164, y: 0.4746074}
    - {x: 0.5351523, y: 0.4746074}
    - {x: 0.34766015, y: 0.6113301}
    - {x: 0.4218711, y: 0.6113301}
    - {x: 0.34766015, y: 0.6367168}
    - {x: 0.4218711, y: 0.6367168}
    normalizedUvs:
    - {x: 0.55159175, y: 0.6157465}
    - {x: 0.64285433, y: 0.6157465}
    - {x: 0.55159175, y: 0.68981194}
    - {x: 0.64285433, y: 0.68981194}
    - {x: 0.6269892, y: 0.20370564}
    - {x: 0.7301566, y: 0.20370564}
    - {x: 0.6269892, y: 0.29628977}
    - {x: 0.7301566, y: 0.29628977}
    - {x: 0, y: 0.84723014}
    - {x: 0, y: 0.9490736}
    - {x: 0.05554806, y: 0.84723014}
    - {x: 0.05554806, y: 0.9490736}
    - {x: 0.65873545, y: 0.6157465}
    - {x: 0.65873545, y: 0.7268493}
    - {x: 0.71825176, y: 0.6157465}
    - {x: 0.71825176, y: 0.7268493}
    - {x: 0.76191086, y: 0}
    - {x: 0.87301487, y: 0}
    - {x: 0.76191086, y: 0.09258416}
    - {x: 0.87301487, y: 0.09258416}
    - {x: 0.88889605, y: 0}
    - {x: 1, y: 0}
    - {x: 0.88889605, y: 0.09258416}
    - {x: 1, y: 0.09258416}
    - {x: 0.083334, y: 0.45370796}
    - {x: 0.19443807, y: 0.45370796}
    - {x: 0.083334, y: 0.5324031}
    - {x: 0.19443807, y: 0.5324031}
    - {x: 0.7341329, y: 0.68056196}
    - {x: 0.7341329, y: 0.8055538}
    - {x: 0.7857126, y: 0.68056196}
    - {x: 0.7857126, y: 0.8055538}
    - {x: 0.38095543, y: 0.111112185}
    - {x: 0.4920595, y: 0.111112185}
    - {x: 0.38095543, y: 0.20369631}
    - {x: 0.4920595, y: 0.20369631}
    - {x: 0.12698513, y: 0.14814956}
    - {x: 0.2380892, y: 0.14814956}
    - {x: 0.12698513, y: 0.2407337}
    - {x: 0.2380892, y: 0.2407337}
    - {x: 0.21031915, y: 0.45370796}
    - {x: 0.3214232, y: 0.45370796}
    - {x: 0.21031915, y: 0.5324031}
    - {x: 0.3214232, y: 0.5324031}
    - {x: 0.17857285, y: 0.9074159}
    - {x: 0.17857285, y: 1}
    - {x: 0.2380892, y: 0.9074159}
    - {x: 0.2380892, y: 1}
    - {x: 0.444448, y: 0.52315307}
    - {x: 0.53571063, y: 0.52315307}
    - {x: 0.444448, y: 0.6157372}
    - {x: 0.53571063, y: 0.6157372}
    - {x: 0.34524086, y: 0.9398236}
    - {x: 0.42063034, y: 0.9398236}
    - {x: 0.34524086, y: 1}
    - {x: 0.42063034, y: 1}
    indices: 000000000300000001000000020000000300000000000000040000000700000005000000060000000700000004000000080000000b000000090000000a0000000b000000080000000c0000000f0000000d0000000e0000000f0000000c000000100000001300000011000000120000001300000010000000140000001700000015000000160000001700000014000000180000001b000000190000001a0000001b000000180000001c0000001f0000001d0000001e0000001f0000001c000000200000002300000021000000220000002300000020000000240000002700000025000000260000002700000024000000280000002b000000290000002a0000002b000000280000002c0000002f0000002d0000002e0000002f0000002c000000300000003300000031000000320000003300000030000000340000003700000035000000360000003700000034000000
    material: {fileID: 2100000, guid: 41ef431e834cf49ab9c3e449da2299b2, type: 2}
    materialId: 0
    sourceTextureGUID: 8d7520ac9b3914d7684f4cb80dea37c3
    extractRegion: 0
    regionX: 0
    regionY: 0
    regionW: 0
    regionH: 0
    flipped: 0
    complexGeometry: 0
    physicsEngine: 0
    colliderType: 1
    customColliders: []
    colliderVertices: []
    colliderIndicesFwd: 
    colliderIndicesBack: 
    colliderConvex: 0
    colliderSmoothSphereCollisions: 0
    polygonCollider2D: []
    edgeCollider2D: []
    attachPoints: []
  premultipliedAlpha: 0
  material: {fileID: 0}
  materials:
  - {fileID: 2100000, guid: 41ef431e834cf49ab9c3e449da2299b2, type: 2}
  textures:
  - {fileID: 2800000, guid: aeae1b9752b6f48fa8fbaa88506f36ce, type: 3}
  pngTextures: []
  materialPngTextureId: 00000000
  textureFilterMode: 1
  textureMipMaps: 0
  allowMultipleAtlases: 0
  spriteCollectionGUID: 6f7c18f68916342a887f87816396fcd9
  spriteCollectionName: SilestoneSD
  assetName: 
  loadable: 0
  invOrthoSize: 0.13020834
  halfTargetHeight: 384
  buildKey: 952891721
  dataGuid: 5c49cf100299a483e9ab3ad8cf7d10e8
  managedSpriteCollection: 0
  hasPlatformData: 0
  spriteCollectionPlatforms: []
  spriteCollectionPlatformGUIDs: []
--- !u!1001 &100100000
Prefab:
  m_ObjectHideFlags: 1
  serializedVersion: 2
  m_Modification:
    m_TransformParent: {fileID: 0}
    m_Modifications: []
    m_RemovedComponents: []
  m_ParentPrefab: {fileID: 0}
  m_RootGameObject: {fileID: 100000}
  m_IsPrefabParent: 1
