# Blender v2.66 (sub 1) OBJ File: 'circles.blend'
# www.blender.org
o BezierCircle_Mesh.002
v 0.000000 5.610000 0.000000
v -0.111911 5.464835 0.000000
v -0.219360 5.317741 0.000000
v -0.322425 5.168827 0.000000
v -0.421180 5.018198 0.000000
v -0.515701 4.865961 0.000000
v -0.606065 4.712222 0.000000
v -0.692346 4.557088 0.000000
v -0.774622 4.400666 0.000000
v -0.852968 4.243062 0.000000
v -0.927460 4.084382 0.000000
v -0.998174 3.924733 0.000000
v -1.065185 3.764221 0.000000
v -1.128569 3.602952 0.000000
v -1.188403 3.441035 0.000000
v -1.244762 3.278574 0.000000
v -1.297722 3.115675 0.000000
v -1.347360 2.952447 0.000000
v -1.393750 2.788996 0.000000
v -1.436968 2.625428 0.000000
v -1.477092 2.461848 0.000000
v -1.514195 2.298364 0.000000
v -1.548355 2.135083 0.000000
v -1.579648 1.972109 0.000000
v -1.608148 1.809552 0.000000
v -1.633932 1.647516 0.000000
v -1.657076 1.486107 0.000000
v -1.677656 1.325434 0.000000
v -1.695747 1.165602 0.000000
v -1.711426 1.006717 0.000000
v -1.724768 0.848887 0.000000
v -1.735850 0.692216 0.000000
v -1.744746 0.536813 0.000000
v -1.751534 0.382783 0.000000
v -1.756288 0.230234 0.000000
v -1.759085 0.079271 0.000000
v -1.760000 -0.070000 0.000000
v -1.759017 -0.218884 0.000000
v -1.756025 -0.368721 0.000000
v -1.750961 -0.519449 0.000000
v -1.743759 -0.671010 0.000000
v -1.734355 -0.823342 0.000000
v -1.722685 -0.976386 0.000000
v -1.708685 -1.130081 0.000000
v -1.692291 -1.284367 0.000000
v -1.673437 -1.439184 0.000000
v -1.652061 -1.594471 0.000000
v -1.628097 -1.750170 0.000000
v -1.601481 -1.906219 0.000000
v -1.572150 -2.062557 0.000000
v -1.540038 -2.219126 0.000000
v -1.505081 -2.375865 0.000000
v -1.467215 -2.532712 0.000000
v -1.426376 -2.689610 0.000000
v -1.382500 -2.846497 0.000000
v -1.335522 -3.003313 0.000000
v -1.285377 -3.159997 0.000000
v -1.232002 -3.316491 0.000000
v -1.175333 -3.472733 0.000000
v -1.115304 -3.628663 0.000000
v -1.051852 -3.784221 0.000000
v -0.984912 -3.939347 0.000000
v -0.914420 -4.093981 0.000000
v -0.840313 -4.248062 0.000000
v -0.762524 -4.401530 0.000000
v -0.680991 -4.554326 0.000000
v -0.595648 -4.706389 0.000000
v -0.506432 -4.857658 0.000000
v -0.413279 -5.008075 0.000000
v -0.316123 -5.157577 0.000000
v -0.214901 -5.306106 0.000000
v -0.109548 -5.453600 0.000000
v 0.000000 -5.600000 0.000000
vn -0.000000 -0.000000 -1.000000
s off
f 71//1 65//1 72//1
f 34//1 1//1 73//1
f 3//1 1//1 4//1
f 4//1 1//1 5//1
f 5//1 1//1 6//1
f 6//1 1//1 7//1
f 7//1 1//1 8//1
f 8//1 1//1 9//1
f 9//1 1//1 10//1
f 10//1 1//1 11//1
f 11//1 1//1 12//1
f 12//1 1//1 13//1
f 13//1 1//1 14//1
f 14//1 1//1 15//1
f 15//1 1//1 16//1
f 16//1 1//1 17//1
f 17//1 1//1 18//1
f 18//1 1//1 19//1
f 19//1 1//1 20//1
f 20//1 1//1 21//1
f 21//1 1//1 22//1
f 22//1 1//1 23//1
f 23//1 1//1 24//1
f 24//1 1//1 25//1
f 25//1 1//1 26//1
f 26//1 1//1 27//1
f 27//1 1//1 28//1
f 28//1 1//1 29//1
f 29//1 1//1 30//1
f 30//1 1//1 31//1
f 31//1 1//1 32//1
f 32//1 1//1 33//1
f 33//1 1//1 34//1
f 73//1 35//1 34//1
f 73//1 36//1 35//1
f 73//1 37//1 36//1
f 73//1 38//1 37//1
f 73//1 39//1 38//1
f 73//1 40//1 39//1
f 73//1 41//1 40//1
f 73//1 42//1 41//1
f 73//1 43//1 42//1
f 73//1 44//1 43//1
f 73//1 45//1 44//1
f 73//1 46//1 45//1
f 73//1 47//1 46//1
f 73//1 48//1 47//1
f 73//1 49//1 48//1
f 73//1 50//1 49//1
f 73//1 51//1 50//1
f 73//1 52//1 51//1
f 73//1 53//1 52//1
f 73//1 54//1 53//1
f 73//1 55//1 54//1
f 73//1 56//1 55//1
f 73//1 57//1 56//1
f 73//1 58//1 57//1
f 73//1 59//1 58//1
f 73//1 60//1 59//1
f 73//1 61//1 60//1
f 73//1 62//1 61//1
f 73//1 63//1 62//1
f 73//1 64//1 63//1
f 73//1 72//1 64//1
f 70//1 67//1 66//1
f 67//1 69//1 68//1
f 64//1 72//1 65//1
f 69//1 67//1 70//1
f 70//1 66//1 71//1
f 66//1 65//1 71//1
f 1//1 3//1 2//1
