# Blender v2.66 (sub 1) OBJ File: 'circles.blend'
# www.blender.org
o BezierCircle.002_Mesh.001
v 0.000000 5.720000 0.000000
v -0.116818 5.574763 0.000000
v -0.228993 5.427454 0.000000
v -0.336603 5.278177 0.000000
v -0.439725 5.127037 0.000000
v -0.538440 4.974137 0.000000
v -0.632824 4.819582 0.000000
v -0.722956 4.663477 0.000000
v -0.808916 4.505926 0.000000
v -0.890781 4.347031 0.000000
v -0.968630 4.186898 0.000000
v -1.042541 4.025630 0.000000
v -1.112592 3.863333 0.000000
v -1.178863 3.700110 0.000000
v -1.241431 3.536065 0.000000
v -1.300376 3.371302 0.000000
v -1.355775 3.205926 0.000000
v -1.407707 3.040041 0.000000
v -1.456250 2.873751 0.000000
v -1.501483 2.707160 0.000000
v -1.543484 2.540371 0.000000
v -1.582332 2.373491 0.000000
v -1.618105 2.206622 0.000000
v -1.650882 2.039868 0.000000
v -1.680741 1.873334 0.000000
v -1.707760 1.707125 0.000000
v -1.732018 1.541344 0.000000
v -1.753594 1.376095 0.000000
v -1.772565 1.211483 0.000000
v -1.789011 1.047612 0.000000
v -1.803010 0.884585 0.000000
v -1.814639 0.722507 0.000000
v -1.823979 0.561483 0.000000
v -1.831106 0.401616 0.000000
v -1.836100 0.243011 0.000000
v -1.839038 0.085771 0.000000
v -1.840000 -0.070000 0.000000
v -1.838880 -0.225481 0.000000
v -1.835487 -0.381771 0.000000
v -1.829768 -0.538807 0.000000
v -1.821673 -0.696524 0.000000
v -1.811150 -0.854859 0.000000
v -1.798148 -1.013747 0.000000
v -1.782615 -1.173124 0.000000
v -1.764499 -1.332926 0.000000
v -1.743750 -1.493090 0.000000
v -1.720315 -1.653550 0.000000
v -1.694144 -1.814244 0.000000
v -1.665185 -1.975107 0.000000
v -1.633386 -2.136075 0.000000
v -1.598697 -2.297083 0.000000
v -1.561065 -2.458069 0.000000
v -1.520439 -2.618967 0.000000
v -1.476768 -2.779714 0.000000
v -1.430000 -2.940246 0.000000
v -1.380084 -3.100499 0.000000
v -1.326968 -3.260408 0.000000
v -1.270602 -3.419910 0.000000
v -1.210933 -3.578940 0.000000
v -1.147910 -3.737435 0.000000
v -1.081481 -3.895331 0.000000
v -1.011596 -4.052563 0.000000
v -0.938203 -4.209067 0.000000
v -0.861250 -4.364779 0.000000
v -0.780686 -4.519636 0.000000
v -0.696459 -4.673573 0.000000
v -0.608518 -4.826527 0.000000
v -0.516812 -4.978433 0.000000
v -0.421289 -5.129226 0.000000
v -0.321898 -5.278844 0.000000
v -0.218587 -5.427221 0.000000
v -0.111304 -5.574295 0.000000
v -0.000000 -5.720000 0.000000
vn -0.000000 0.000000 -1.000000
s off
f 35//1 1//1 73//1
f 69//1 71//1 70//1
f 3//1 1//1 4//1
f 4//1 1//1 5//1
f 5//1 1//1 6//1
f 6//1 1//1 7//1
f 7//1 1//1 8//1
f 8//1 1//1 9//1
f 9//1 1//1 10//1
f 10//1 1//1 11//1
f 11//1 1//1 12//1
f 12//1 1//1 13//1
f 13//1 1//1 14//1
f 14//1 1//1 15//1
f 15//1 1//1 16//1
f 16//1 1//1 17//1
f 17//1 1//1 18//1
f 18//1 1//1 19//1
f 19//1 1//1 20//1
f 20//1 1//1 21//1
f 21//1 1//1 22//1
f 22//1 1//1 23//1
f 23//1 1//1 24//1
f 24//1 1//1 25//1
f 25//1 1//1 26//1
f 26//1 1//1 27//1
f 27//1 1//1 28//1
f 28//1 1//1 29//1
f 29//1 1//1 30//1
f 30//1 1//1 31//1
f 31//1 1//1 32//1
f 32//1 1//1 33//1
f 33//1 1//1 34//1
f 34//1 1//1 35//1
f 73//1 36//1 35//1
f 73//1 37//1 36//1
f 73//1 38//1 37//1
f 73//1 39//1 38//1
f 73//1 40//1 39//1
f 73//1 41//1 40//1
f 73//1 42//1 41//1
f 73//1 43//1 42//1
f 73//1 44//1 43//1
f 73//1 45//1 44//1
f 73//1 46//1 45//1
f 73//1 47//1 46//1
f 73//1 48//1 47//1
f 73//1 49//1 48//1
f 73//1 50//1 49//1
f 73//1 51//1 50//1
f 73//1 52//1 51//1
f 73//1 53//1 52//1
f 73//1 54//1 53//1
f 73//1 55//1 54//1
f 73//1 56//1 55//1
f 73//1 57//1 56//1
f 73//1 58//1 57//1
f 73//1 59//1 58//1
f 73//1 60//1 59//1
f 73//1 61//1 60//1
f 73//1 62//1 61//1
f 73//1 63//1 62//1
f 73//1 64//1 63//1
f 73//1 65//1 64//1
f 73//1 66//1 65//1
f 73//1 67//1 66//1
f 73//1 68//1 67//1
f 73//1 72//1 68//1
f 68//1 72//1 69//1
f 71//1 69//1 72//1
f 1//1 3//1 2//1
