# Blender v2.68 (sub 0) OBJ File: 'Rings Mk II.blend'
# www.blender.org
o Circle.007
v -0.117212 -8.696105 -0.000001
v -0.223375 -8.605657 -0.000001
v -0.328421 -8.513912 -0.000001
v -0.432333 -8.420886 -0.000001
v -0.535095 -8.326591 -0.000001
v -0.636692 -8.231042 -0.000001
v -0.737110 -8.134254 -0.000001
v -0.836332 -8.036241 -0.000001
v -0.934343 -7.937017 -0.000001
v -1.031130 -7.836598 -0.000000
v -1.126677 -7.735000 -0.000000
v -1.220972 -7.632236 -0.000000
v -1.313995 -7.528322 -0.000000
v -1.405739 -7.423275 -0.000000
v -1.496185 -7.317111 -0.000000
v -1.585323 -7.209844 -0.000000
v -1.673138 -7.101491 -0.000000
v -1.759615 -6.992069 -0.000000
v -1.844744 -6.881595 -0.000000
v -1.928511 -6.770083 -0.000000
v -2.010902 -6.657552 -0.000000
v -2.091906 -6.544019 -0.000000
v -2.171513 -6.429499 -0.000000
v -2.249706 -6.314012 -0.000000
v -2.326477 -6.197574 -0.000000
v -2.401814 -6.080203 -0.000000
v -2.475704 -5.961915 -0.000000
v -2.548136 -5.842730 -0.000000
v -2.619102 -5.722666 -0.000000
v -2.688587 -5.601739 -0.000000
v -2.756586 -5.479969 -0.000000
v -2.823084 -5.357373 -0.000000
v -2.888071 -5.233971 -0.000000
v -2.951540 -5.109780 -0.000000
v -3.013481 -4.984820 -0.000000
v -3.073883 -4.859110 -0.000000
v -3.132738 -4.732667 -0.000000
v -3.190037 -4.605512 -0.000000
v -3.245771 -4.477663 -0.000000
v -3.299932 -4.349140 -0.000000
v -3.352512 -4.219962 -0.000000
v -3.403502 -4.090148 -0.000000
v -3.452896 -3.959718 -0.000000
v -3.500685 -3.828693 -0.000000
v -3.546864 -3.697090 -0.000000
v -3.591423 -3.564931 -0.000000
v -3.634357 -3.432235 -0.000000
v -3.675661 -3.299022 -0.000000
v -3.715326 -3.165312 -0.000000
v -3.753347 -3.031125 -0.000000
v -3.789717 -2.896482 -0.000000
v -3.824434 -2.761403 -0.000000
v -3.857491 -2.625908 -0.000000
v -3.888882 -2.490018 -0.000000
v -3.918604 -2.353752 -0.000000
v -3.946650 -2.217132 0.000000
v -3.973017 -2.080178 0.000000
v -3.997702 -1.942911 0.000000
v -4.020700 -1.805352 0.000000
v -4.042009 -1.667520 0.000000
v -4.061628 -1.529437 0.000000
v -4.079546 -1.391124 0.000000
v -4.095770 -1.252602 0.000000
v -4.110289 -1.113891 0.000000
v -4.123106 -0.975012 0.000000
v -4.134218 -0.835986 0.000000
v -4.143623 -0.696835 0.000000
v -4.151320 -0.557578 0.000000
v -4.157309 -0.418238 0.000000
v -4.161585 -0.278834 0.000000
v -4.164150 -0.139389 0.000000
v -4.165003 0.000078 0.000000
v -4.164148 0.139544 0.000000
v -4.161579 0.278990 0.000000
v -4.157301 0.418393 0.000000
v -4.151310 0.557733 0.000000
v -4.143610 0.696990 0.000000
v -4.134203 0.836141 0.000000
v -4.123087 0.975167 0.000000
v -4.110270 1.114045 0.000000
v -4.095745 1.252756 0.000000
v -4.079521 1.391278 0.000000
v -4.061598 1.529591 0.000000
v -4.041979 1.667673 0.000000
v -4.020666 1.805504 0.000000
v -3.997665 1.943063 0.000000
v -3.972979 2.080330 0.000000
v -3.946608 2.217283 0.000000
v -3.918558 2.353903 0.000000
v -3.888834 2.490168 0.000000
v -3.857439 2.626058 0.000000
v -3.824381 2.761552 0.000000
v -3.789663 2.896631 0.000000
v -3.753288 3.031273 0.000000
v -3.715265 3.165458 0.000000
v -3.675598 3.299168 0.000000
v -3.634293 3.432380 0.000001
v -3.591356 3.565075 0.000001
v -3.546793 3.697234 0.000001
v -3.500612 3.828835 0.000001
v -3.452822 3.959860 0.000001
v -3.403425 4.090289 0.000001
v -3.352430 4.220102 0.000001
v -3.299849 4.349279 0.000001
v -3.245686 4.477801 0.000001
v -3.189949 4.605649 0.000001
v -3.132647 4.732803 0.000001
v -3.073790 4.859244 0.000001
v -3.013386 4.984954 0.000001
v -2.951445 5.109913 0.000001
v -2.887972 5.234102 0.000001
v -2.822981 5.357503 0.000001
v -2.756481 5.480097 0.000001
v -2.688482 5.601866 0.000001
v -2.618994 5.722792 0.000001
v -2.548025 5.842855 0.000001
v -2.475590 5.962039 0.000001
v -2.401697 6.080325 0.000001
v -2.326361 6.197695 0.000001
v -2.249586 6.314131 0.000001
v -2.171389 6.429617 0.000001
v -2.091784 6.544135 0.000001
v -2.010775 6.657667 0.000001
v -1.928381 6.770197 0.000001
v -1.844614 6.881706 0.000001
v -1.759481 6.992179 0.000001
v -1.673002 7.101600 0.000001
v -1.585184 7.209950 0.000001
v -1.496046 7.317216 0.000001
v -1.405598 7.423379 0.000001
v -1.313852 7.528424 0.000001
v -1.220825 7.632335 0.000001
v -1.126532 7.735097 0.000001
v -1.030981 7.836695 0.000001
v -0.934191 7.937111 0.000001
v -0.836180 8.036333 0.000001
v -0.736954 8.134345 0.000001
v -0.636536 8.231132 0.000001
v -0.534937 8.326678 0.000001
v -0.432171 8.420970 0.000001
v -0.328257 8.513995 0.000001
v -0.223211 8.605738 0.000001
v -0.117044 8.696184 0.000001
v 0.000002 8.793246 0.000001
v -10.240000 8.793246 0.000001
v -10.240000 -8.793305 -0.000000
v 0.000002 -8.793305 -0.000001
vn -0.000000 -0.000000 -1.000000
vn -0.000001 0.000006 -1.000000
vn -0.000001 0.000001 -1.000000
vn 0.000001 0.000001 -1.000000
vn -0.000001 -0.000001 -1.000000
vn 0.000002 0.000002 -1.000000
s off
f 1//1 147//1 146//1
f 1//1 146//1 2//1
f 2//1 146//1 3//1
f 3//1 146//1 4//1
f 4//1 146//1 5//1
f 5//1 146//1 6//1
f 6//1 146//1 7//1
f 7//1 146//1 8//1
f 8//1 146//1 9//1
f 9//2 146//2 10//2
f 10//1 146//1 11//1
f 11//1 146//1 12//1
f 12//1 146//1 13//1
f 13//1 146//1 14//1
f 14//1 146//1 15//1
f 15//1 146//1 16//1
f 16//1 146//1 17//1
f 17//1 146//1 18//1
f 18//1 146//1 19//1
f 19//1 146//1 20//1
f 20//1 146//1 21//1
f 21//1 146//1 22//1
f 22//1 146//1 23//1
f 23//1 146//1 24//1
f 24//1 146//1 25//1
f 25//1 146//1 26//1
f 26//1 146//1 27//1
f 27//1 146//1 28//1
f 28//1 146//1 29//1
f 29//1 146//1 30//1
f 30//1 146//1 31//1
f 31//1 146//1 32//1
f 32//1 146//1 33//1
f 33//1 146//1 34//1
f 35//1 34//1 146//1
f 37//1 36//1 146//1
f 38//1 37//1 146//1
f 39//1 38//1 146//1
f 40//1 39//1 146//1
f 41//1 40//1 146//1
f 42//1 41//1 146//1
f 43//1 42//1 146//1
f 44//1 43//1 146//1
f 45//1 44//1 146//1
f 46//1 45//1 146//1
f 47//1 46//1 146//1
f 48//1 47//1 146//1
f 49//1 48//1 146//1
f 50//1 49//1 146//1
f 51//1 50//1 146//1
f 52//1 51//1 146//1
f 53//1 52//1 146//1
f 54//1 53//1 146//1
f 55//1 54//1 146//1
f 56//3 55//3 146//3
f 57//1 56//1 146//1
f 58//1 57//1 146//1
f 59//1 58//1 146//1
f 60//1 59//1 146//1
f 61//1 60//1 146//1
f 62//1 61//1 146//1
f 63//1 62//1 146//1
f 64//1 63//1 146//1
f 65//1 64//1 146//1
f 66//1 65//1 146//1
f 67//1 66//1 146//1
f 68//1 67//1 146//1
f 69//1 68//1 146//1
f 70//1 69//1 146//1
f 71//1 70//1 146//1
f 72//1 71//1 146//1
f 145//1 72//1 146//1
f 73//1 72//1 145//1
f 74//1 73//1 145//1
f 75//1 74//1 145//1
f 76//1 75//1 145//1
f 77//1 76//1 145//1
f 78//1 77//1 145//1
f 79//1 78//1 145//1
f 80//1 79//1 145//1
f 81//1 80//1 145//1
f 82//1 81//1 145//1
f 83//1 82//1 145//1
f 84//1 83//1 145//1
f 85//1 84//1 145//1
f 86//1 85//1 145//1
f 87//1 86//1 145//1
f 88//4 87//4 145//4
f 89//1 88//1 145//1
f 90//1 89//1 145//1
f 91//1 90//1 145//1
f 92//1 91//1 145//1
f 93//5 92//5 145//5
f 94//1 93//1 145//1
f 95//1 94//1 145//1
f 96//1 95//1 145//1
f 97//6 96//6 145//6
f 98//1 97//1 145//1
f 99//1 98//1 145//1
f 100//1 99//1 145//1
f 101//1 100//1 145//1
f 102//1 101//1 145//1
f 103//1 102//1 145//1
f 104//1 103//1 145//1
f 105//1 104//1 145//1
f 106//1 105//1 145//1
f 107//1 106//1 145//1
f 108//1 107//1 145//1
f 109//1 108//1 145//1
f 110//1 109//1 145//1
f 111//1 110//1 145//1
f 112//1 111//1 145//1
f 113//1 112//1 145//1
f 114//1 113//1 145//1
f 115//1 114//1 145//1
f 116//1 115//1 145//1
f 117//1 116//1 145//1
f 118//1 117//1 145//1
f 119//1 118//1 145//1
f 120//1 119//1 145//1
f 121//1 120//1 145//1
f 122//1 121//1 145//1
f 123//1 122//1 145//1
f 124//1 123//1 145//1
f 125//1 124//1 145//1
f 126//1 125//1 145//1
f 127//1 126//1 145//1
f 128//1 127//1 145//1
f 129//1 128//1 145//1
f 130//1 129//1 145//1
f 131//1 130//1 145//1
f 132//1 131//1 145//1
f 133//1 132//1 145//1
f 134//1 133//1 145//1
f 135//1 134//1 145//1
f 136//1 135//1 145//1
f 137//1 136//1 145//1
f 138//1 137//1 145//1
f 139//1 138//1 145//1
f 140//1 139//1 145//1
f 141//1 140//1 145//1
f 142//1 141//1 145//1
f 143//1 142//1 145//1
f 144//1 143//1 145//1
f 36//1 35//1 146//1
