# Blender v2.68 (sub 0) OBJ File: 'CurveFitting.blend'
# www.blender.org
o BezierCurve.005_Mesh.003
v -0.352685 6.473427 0.000001
v -0.238280 6.655994 0.000001
v -0.120707 6.836537 0.000001
v -0.463886 6.288892 0.000001
v -0.571850 6.102444 0.000001
v -0.676543 5.914139 0.000001
v -0.777934 5.724036 0.000001
v -0.875992 5.532193 0.000001
v -0.970686 5.338667 0.000001
v -1.061989 5.143518 0.000001
v -1.149871 4.946806 0.000001
v -1.234306 4.748590 0.000001
v -1.315270 4.548930 0.000001
v -1.392737 4.347888 0.000001
v -1.466683 4.145525 0.000001
v -1.537087 3.941901 0.000001
v -1.603927 3.737080 0.000001
v -1.667181 3.531123 0.000001
v -1.726831 3.324095 0.000001
v -1.782860 3.116056 0.000001
v -1.835248 2.907072 0.000001
v -1.883982 2.697204 0.000001
v -1.929045 2.486519 0.000000
v -1.970425 2.275079 0.000000
v -2.008107 2.062949 0.000000
v -2.042082 1.850194 0.000000
v -2.072339 1.636878 0.000000
v -2.098868 1.423067 0.000000
v -2.121662 1.208825 0.000000
v -2.140714 0.994218 0.000000
v -2.156016 0.779311 0.000000
v -2.167567 0.564170 0.000000
v -2.175361 0.348860 0.000000
v -2.179395 0.133447 0.000000
v -2.179669 -0.082004 -0.000000
v -2.176184 -0.297427 -0.000000
v -2.168939 -0.512756 -0.000000
v -2.157936 -0.727926 -0.000000
v -2.143181 -0.942871 -0.000000
v -2.124677 -1.157526 -0.000000
v -2.102429 -1.371825 -0.000000
v -2.076445 -1.585703 -0.000000
v -2.046731 -1.799096 -0.000000
v -2.013298 -2.011937 -0.000000
v -1.976155 -2.224162 -0.000000
v -1.935314 -2.435707 -0.000000
v -1.890788 -2.646507 -0.000001
v -1.842589 -2.856497 -0.000001
v -1.790734 -3.065614 -0.000001
v -1.735237 -3.273795 -0.000001
v -1.676115 -3.480975 -0.000001
v -1.613386 -3.687092 -0.000001
v -1.547070 -3.892083 -0.000001
v -1.477185 -4.095885 -0.000001
v -1.403755 -4.298437 -0.000001
v -1.326801 -4.499676 -0.000001
v -1.246346 -4.699541 -0.000001
v -1.162416 -4.897972 -0.000001
v -1.075035 -5.094908 -0.000001
v -0.984230 -5.290289 -0.000001
v -0.890030 -5.484056 -0.000001
v -0.792462 -5.676148 -0.000001
v -0.691556 -5.866508 -0.000001
v -0.587343 -6.055079 -0.000001
v -0.479856 -6.241802 -0.000001
v -0.369125 -6.426621 -0.000001
v -0.255187 -6.609479 -0.000001
v -0.138074 -6.790321 -0.000001
v -0.017823 -6.969091 -0.000001
v 0.000000 -6.994615 -0.000001
v 0.000000 7.015000 0.000002
vn 0.000004 0.000000 -1.000000
vn -0.000000 0.000000 -1.000000
vn 0.000004 0.000001 -1.000000
vn 0.000002 0.000001 -1.000000
vn -0.000001 0.000000 -1.000000
vn 0.000001 0.000000 -1.000000
vn 0.000001 0.000001 -1.000000
vn 0.000004 0.000002 -1.000000
vn 0.000006 0.000003 -1.000000
vn -0.000001 -0.000001 -1.000000
vn -0.000002 -0.000001 -1.000000
vn 0.000020 0.000011 -1.000000
s off
f 3//1 71//1 70//1
f 2//2 3//2 70//2
f 1//2 2//2 70//2
f 4//2 1//2 70//2
f 5//2 4//2 70//2
f 6//2 5//2 70//2
f 7//2 6//2 70//2
f 8//2 7//2 70//2
f 9//2 8//2 70//2
f 10//2 9//2 70//2
f 11//3 10//3 70//3
f 12//2 11//2 70//2
f 13//2 12//2 70//2
f 14//2 13//2 70//2
f 15//2 14//2 70//2
f 16//2 15//2 70//2
f 17//2 16//2 70//2
f 18//2 17//2 70//2
f 19//4 18//4 70//4
f 20//2 19//2 70//2
f 21//2 20//2 70//2
f 22//5 21//5 70//5
f 23//4 22//4 70//4
f 24//5 23//5 70//5
f 25//5 24//5 70//5
f 26//5 25//5 70//5
f 27//6 26//6 70//6
f 28//5 27//5 70//5
f 29//6 28//6 70//6
f 30//5 29//5 70//5
f 31//2 30//2 70//2
f 32//2 31//2 70//2
f 33//2 32//2 70//2
f 34//2 33//2 70//2
f 35//2 34//2 70//2
f 36//2 35//2 70//2
f 37//2 36//2 70//2
f 38//2 37//2 70//2
f 39//2 38//2 70//2
f 40//5 39//5 70//5
f 41//7 40//7 70//7
f 42//5 41//5 70//5
f 43//7 42//7 70//7
f 44//5 43//5 70//5
f 45//5 44//5 70//5
f 46//5 45//5 70//5
f 47//8 46//8 70//8
f 48//5 47//5 70//5
f 49//5 48//5 70//5
f 50//5 49//5 70//5
f 51//5 50//5 70//5
f 52//9 51//9 70//9
f 53//5 52//5 70//5
f 54//5 53//5 70//5
f 55//5 54//5 70//5
f 56//5 55//5 70//5
f 57//10 56//10 70//10
f 58//11 57//11 70//11
f 59//12 58//12 70//12
f 60//2 59//2 70//2
f 61//2 60//2 70//2
f 62//2 61//2 70//2
f 63//2 62//2 70//2
f 64//2 63//2 70//2
f 65//2 64//2 70//2
f 66//2 65//2 70//2
f 67//2 66//2 70//2
f 68//2 67//2 70//2
f 69//2 68//2 70//2
